0010000000000000
0011111101111100
0100100001000100
1111111111000100
0001010001111100
0010001001000100
0100000100000000
0001111111110000
0001001010010000
0011111011111000
0010001010001000
0011111011111000
0010001010001000
0011111011111000
0000001010000010
0000000111111110