0000000000000000
1111110111111100
1000010101010100
0000000101010100
0111100111011100
0100100001010000
0111100111011100
0100100101010100
0111100101010100
0010000111011100
0001000101010100
1111110101010100
0000000111011100
0101000101010000
0100100001010010
1000100000111110