0100100100100000
0010101000111110
0111111101001000
0100100101001000
0101110110101000
0110101100010000
0100100100101000
0101111111110110
0001001010010000
0011111011111000
0010001010001000
0011111011111000
0010001010001000
0011111011111000
0000001010000010
0000000111111110