0000100000000000
0010100001111100
0010111101000100
0010100001000100
1111111101000100
0001010001111100
0101010101000100
0110101101000100
0100000101000100
0111111101111100
0101010101000100
0101010101000100
0110101101000100
0100111101000100
0111000111111110
0000000100000000