0001000000000000
0101000011111110
0101110010010010
0101000010010010
1111111010010010
0010100011111110
1010101010010010
1101011010110010
1000001010111010
1111111011010110
1010101010010010
1010101010010010
1101011010010010
1001111010000010
1110001011111110
0000001010000010