0001000000010000
0101000000010000
0101110011111110
0101000000010000
1111111001111100
0010100001000100
1010101001111100
1101011001000100
1000001001111100
1111111001000100
1010101001111100
1010101001000100
1101011011111110
1001111000101000
1110001001000100
0000001010000010