0000000100000000
0000000100000000
0000000100000000
0111111111111100
0000000100000000
0000000100000000
0000100100100000
0000100000100000
0000100000100000
1111111111111110
0000100000100000
0000100000100000
0001000000100000
0001000000100000
0010000000100000
0100000000100000