0000000000000100
0011111110000100
0000000010000100
0000000010000100
0000000010000100
0000000010000100
0000000010000100
0011111111111100
0010000010000100
0010000010000000
0010000010000000
0010000010000000
0010000010000000
0010000011111110
0010000000000000
0010000000000000