0010000000000000
0010000111111100
0010000100000000
0010000100000000
0010000100000000
0010000100000000
0010000100000000
0011111111111100
0000000100000100
0000000100000100
0000000100000100
0000000100000100
0000000100000100
1111111100000100
0000000000000100
0000000000000000