0010000100000100
0100011111001000
1000100000010010
1111001110111100
0010000000001000
0100101110010010
1111100000111110
0000001110000000
1010101010101010
1010101110101010
0000000100000000
0000000100000000
1111111111111110
0000000100000000
0000000100000000
0000000100000000