0000000000010000
0000100000010000
0000100000010000
0000100000010000
0000111111110000
0000000000010000
0000000000010000
0000000000010000
0111111111110000
0000100000010000
0000100000010000
0000100000010000
0001000000010000
0001000000010000
0010000000010000
0100000000010000