0000001000000000
0000000100000000
0111111111111110
0100000000000010
1000100000100100
0001000000010000
0010000000001000
0001111111100000
0000000011000000
0000001100000000
0000010000000000
0000100000000000
0001000000001000
0001000000001000
0000111111111000
0000000000000000