0000001000000000
0000000100000000
0111111111111110
0100000000000010
1000100000100100
0001000000010000
0010001000001000
0000010000000000
0000111111110000
0001000000010000
0110100000100000
0000010001000000
0000001010000000
0000001100000000
0001110000000000
1110000000000000