0000001000000000
0000000100000000
0111111111111110
0100100000100010
1001001000010100
0000010000000000
0011111111111000
0010001000001000
0010001111001000
0010010001001000
0010101010001000
0010000100001000
0010001010001000
0010010000001000
0011111111111000
0010000000001000