0000001000000000
0000000100000000
0111111111111110
0100100000100010
1001000100010100
0000000100000000
0011111111111000
0010000100001000
0011111111111000
0000000100000000
0111111111111100
0100000100000100
0111111111111100
0100000100000100
0000000100000000
0000000100000000