0000000100000000
0111111111111110
0100100000100010
1001000000010100
0011111011111000
0000001000001000
0001010011010000
0000100000100000
0001010001010000
0110001010001000
0011111011111000
0000001010001000
0001010001010000
0000100000100000
0011010001011000
1100001010000110