0000001000000000
0000000100000000
0111111111111110
0100100000100010
1001000000010100
0000000001010000
0000000001001000
1111111111111110
0000000001000000
0011111001000000
0010001000100100
0011111000101000
0000000000010010
0000111000101010
0111000011000110
0000001100000010