0000000100000000
0111111111111110
0100100000100010
1001000100010100
0011111111111000
0010000100001000
1111111111111110
0010000100001000
0011111111111000
0001000100010000
0001111111110000
0000010000000000
1111111111111110
0000100000100000
0000011111000000
0111100000111000