0000000100000000
0111111111111110
0100100000100010
1001000100010100
0000001000000000
0011111111111000
0010001000001000
0010011111101000
0010101001001000
0010000110001000
0010011001001000
0011111111111000
0000000100000000
0100100010000100
0100100000010010
1000011111110010