0000000000000000
0011111111111000
0000000000000000
0000000000000000
0000000000000000
0000000000000000
1111111111111110
0000001000000000
0000010000000000
0000010000000000
0000100001000000
0001000000100000
0010000000010000
0111111111111000
0010000000001000
0000000000001000