0000000000000000
0011111111111000
0000000000000000
0000000000000000
0000000000000000
1111111111111110
0000100000100000
0000100000100000
0000100000100000
0000100000100000
0000100000100000
0001000000100000
0001000000100000
0010000000100000
0100000000100000
1000000000100000