0000000000000000
0111111111111100
0000001000000000
0000001000000000
0000001000000000
0000001000000000
0011111111110000
0000010000010000
0000010000010000
0000010000010000
0000010000010000
0000100000010000
0000100000010000
0000100000010000
1111111111111110
0000000000000000