0000010000000000
0000100000100000
0001000000010000
0011111111111000
0000100000010000
0001000000100000
0010010001001000
0111111011111100
0000001000000100
0000000000000000
0011111111111000
0000000000000000
0000000000000000
0000000000000000
1111111111111110
0000000000000000