0000000000000000
0011111111110000
0000000000100000
0000000001000000
0000000110000000
0111100100111100
0100100100000100
0100100101000100
0100100100101000
0100100100010000
0111100100101000
0000000101000100
0000010100000000
0000001000000000
1111111111111110
0000000000000000