0000000100000000
0000000100000000
0000001000000000
0000010001000000
0000100000100000
0001000000010000
0011111111111000
0000010001001000
0000010001000000
0000010001000000
0000010001000000
0000100001000000
0000100001000010
0001000001000010
0010000001000010
1100000000111110