0000000100000000
0001000100000000
0001000100000000
0001111111111000
0010000100000000
0100000100000000
0000000100000000
1111111111111110
0000010001000000
0000010001000000
0000010001000000
0000100001000000
0000100001000010
0001000001000010
0010000000111110
1100000000000000