0000000100000000
0000000100000000
1111111111111110
0000000100000000
0000000100000000
0011111111111000
0010000000001000
0010000000001000
0010000000001000
0011111111111000
0000010001000000
0000010001000000
0000100001000000
0001000001000010
0010000001000010
1100000000111110