0000100000000000
0000100000000000
0000111111100000
0001000000100000
0010000001000000
0111111111111000
1010000100001000
0010000100001000
0010000100001000
0011111111111000
0010001010001000
0000010010000000
0000100010000000
0001000010000010
0010000010000010
1100000001111110