0000100000100000
0000100000100000
0000100000100000
0111111011111110
0000100000100000
0000100000100000
0111111011111100
0100001010000100
0100001010000100
0111111011111100
0001010001010000
0001010001010000
0010010101010000
0010011010010010
0100010010010010
1000000100001110