0001000000000000
0000100001111000
0000000001001000
0111111101001000
0000100001001000
0000100010000110
0000100000000000
0111111011111100
0000100001000100
0000100001000100
0000100000101000
0000100000101000
0000111100010000
1111000000101000
0100000001000100
0000000110000010