0000000000000000
0011111101111000
0010000101001000
0010000101001000
0011111101001000
0010000010000110
0010101000000000
0010101011111100
0011111101000100
0010101001000100
0010101000101000
0011111100101000
0010000000010000
0100101000101000
1001000101000100
0010000110000010