0001000000100000
0001000000100000
0101000000100000
0101000000100000
0111110111111100
0101000100100100
1001000100100100
0001000100100100
0001110100100100
1111000111111100
0101000100100100
0001000100100100
0001000100100100
0001000100100100
0001000111111100
0001000100000100