0001000000000000
0001000011111100
0101000010000100
0101000010100100
0111110010010100
0101000010000100
1001000010000100
0001001111111110
0001110100000100
1111000101000100
0101000100100100
0001000100000100
0001000111111110
0001000000000100
0001000000101000
0001000000010000