0000000100000000
0000100100000000
0000111111110000
0001000100000000
0000000100000000
0111111111111100
0000000100000000
0001000100010000
0101000101010000
0111110001111100
1001000010010000
0001111000010000
1111000011111110
0101000000010000
0001000000010000
0001000000010000