0000100000001000
0111111000001000
0000100011111110
1111111000001000
0000100001001000
0111111000101000
0000100000001000
0000111100101000
1111000100010000
0001000100000000
0001111111111000
0010000100000000
0000000100000000
1111111111111110
0000000100000000
0000000100000000