0001000100000100
0001000010001000
0101001111111110
0101000000100000
0111110111111100
0101000000100000
1001001111111110
0001000001010100
0001110110010010
1111000010010000
0101001111111110
0001000010010000
0001000011010100
0001001110001010
0001000010010110
0001000110100010