0001000100100100
0001001001001000
0101000100100100
0101000000000000
0111101111111100
0101001010010100
1001001001100100
0001001010010100
0001101111111100
0011001001001000
1101001101101000
0001001001001000
0001001101101010
0001001001001010
0001001001000110
0001001101100010