0001001111111000
0001001000001000
0101001111111000
0101001000001000
0111101111111000
0101000100010000
1001011111111100
0001000100010000
0001111111111110
0011000100010000
1101001001001000
0001010101010100
0001000011100000
0001000101010000
0001001001001000
0001000011000000