0001000100010000
0001011111111100
0101000001000000
0101001111111000
0111100001000000
0101011111111100
1001000000000000
0001001111010100
0001100100010010
0011011111111110
1101001101010000
0001010100110100
0001001110001100
0001000010001010
0001001010010110
0001000100000010