0000000000000000
1111110010000000
0100101100011110
0100101001010010
0111101001010010
0100101001010010
0100101001010010
0111101001010010
0100101001010010
0100101011010010
0100111101011010
0111101001010100
1100100010010000
0000100010010000
0000100100010000
0000101000010000