0000000010001000
1111110001001000
0100100001010000
0100100000000000
0111100111111100
0100100000100000
0100100000100000
0111100000100000
0100101111111110
0100100000100000
0100110001010000
0111100001010000
1100100010001000
0000100010001000
0000100100000100
0000101000000010