0000000000100000
1111110000100000
0100100111111100
0100100100100100
0111100111111100
0100100100100100
0100100111111100
0111100000000000
0100101111111110
0100100010000000
0100110100000000
0111100111111100
1100100000000100
0000100000000100
0000100000101000
0000100000010000