0000100000000000
0111111101111000
0000100001001000
0011111001001000
0000000010000110
0011111001111000
0010101001001000
0011111000110000
0100000001001000
1111111111111110
0000100000100000
0000111111100000
0000100000111110
1111111111100000
0000000000100000
0000000000100000