0001000100010000
0010000100010000
1100101010101000
0001010001000100
0011001001111000
1101001001000000
0001010111111100
0001100000000000
0111111111111100
0000100000100000
0000111111100000
0000100000100000
0000111111100000
0000100000111110
1111111111100000
0000000000100000