0000000000100000
1111110111111100
0100100100100100
0100100111111100
0111100000100000
0100101111111110
0100100000000000
0111100111111100
0100100100000100
0100100111111100
0100110100000100
0111100111111100
1100100100000100
0000100111111100
0000100010001000
0000100100000100