0000000010000000
1111110011111000
0100100100001000
0100101111111110
0111100101000100
0100100110010010
0100100111111110
0111100100000000
0100100101111100
0100100100000000
0100110101111100
0111100100000000
1100100101111100
0000101001000100
0000101001111100
0000110001000100