0000000000100000
1111110000100000
0100101111111110
0111100000100000
0100100111111100
0111100101010100
0100100101010100
1111100111111100
0000100000000000
1111101111111110
0010100001000000
0111100000100100
0010101010100010
1111101010001010
0000110010001000
0000100001111000