0000000000010000
1111111000010000
1001001000010000
0001000011111110
1111111010010010
0001000010010100
0111110010010000
0101010011111100
0111110010100100
0101010010100100
0111110010101000
0001000010101000
1111111010010000
0001000100101000
0001000101000100
0001001010000010