0100000000010000
0100000000010000
1111111000010000
0010001011111110
1010101010010010
1111101010010100
0100001010010000
1001010011111100
0100100010100100
1111111010100100
0010001010101000
1010101010101000
1111101010010000
0100001100101000
1001010001000100
0000100010000010