0000000000000000
0000000111111000
1111110100001000
0010000100001000
0010000100001000
0011110111111000
0100010100001000
0100010100001000
0110010100001000
1001010111111000
0000100100001000
0000100100001000
0001000100001000
0010000100001000
0100011111111110
1000000000000000