0000000000001000
0000000000111100
1111110111000000
0010000000000100
0010000101000100
0011110010101000
0100010000000000
0100010111111000
0110010000010000
1001010000100000
0000101111111110
0000100000100000
0001000000100000
0010000000100000
0100000010100000
1000000001000000