0000000001000000
0000000000100000
1111110111111100
0010000000000000
0010000100001000
0011110010010000
0100010000000000
0100011111111110
0110010000000000
1001010000000000
0000100111111100
0000100100000100
0001000100000100
0010000100000100
0100000111111100
1000000100000100