0000000001000000
0000000000100000
1111101111111110
0010001000000010
0010000111111100
0011100101001000
0100101001010000
0100100111111100
0110101100000100
1001100111111100
0000100100000100
0001000111111100
0001000100000100
0010000111111100
0100000010001000
1000000100000100