0000100000100000
0000100000100000
0111111100100000
0000100000101000
0000100000100100
0000111100100010
1111000000100000
0100000000100000
0000000000000000
0011111111111000
0010010001001000
0010010001001000
0010010001001000
0010010001001000
1111111111111110
0000000000000000