0000000100000000
0011111111111000
0000000100001000
1111111111111110
0000000100001000
0011111111111000
0000000100000000
0111111111111100
0010010010001000
0100001001000100
0011111111111000
0010010001001000
0010010001001000
0010010001001000
1111111111111110
0000000000000000