0001000001000000
0001000000100000
0010000000100000
0010100111111100
0100010000000000
1111111010001000
0100001001010000
0000000111111110
0111110000100000
0100010000100000
0100010111111100
0100010000100000
0100010000100000
0111110000100000
0100010000100000
0000000000100000