0010000000010000
0001000010001000
0001000010001000
0111110100111110
0000000101000000
0010101111010100
0001000010001000
1111110010111110
0001000100001000
0001001111001000
0111110000011100
0001000000001000
0001000011001000
0010001100001000
0010000000001000
0100000000001000