0000111100100000
1111000000010000
0100100100010000
0010001011111110
1111111000000000
0001010001000100
0000100000101000
1111111111111110
1001010100010000
1011110100010000
1000001101111100
1011110100010000
1001010100010000
1000100100010000
1001010100010000
1010001100010000