0100000100010000
0010000100001000
0010001010001000
1111101010111110
0000011110000000
0101000100010100
0010000100001000
1111101010111110
0010011111001000
0010000101001000
0111000100011100
0010010110001000
0010010101001000
0100100101001000
0100010100001000
1000001000001000