0100001000010000
0010000100001000
0010000000001000
1111101110111110
0000000000000000
0101001110010100
0010000000001000
1111101110111110
0010000000001000
0010001110001000
0111001010011100
0010001010001000
0010001010001000
0100001110001000
0100001010001000
1000000000001000