0000000000000000
0100010111111100
0010100000100000
0001000000100000
0010100000100000
0100100000100000
1000100000100000
0000101111111110
0001100000100000
0010100000100000
0100100000100000
1000100000100000
0000100000100000
0000100000100000
0101000000100000
0010000000100000