0000100001000000
0000100001001000
0000100001000100
0100100001000100
0010100001000000
0010111111111110
0000100001000000
0000100001000000
0001100001000000
0010100010100000
1100100010100000
0000100010010000
0000100100010000
0000100100001000
0000101000000100
0000110000000010