0000000000000000
0100010000000000
0010100111111100
0001000000100000
0010100000100000
0100100000100000
1000100000100000
0000100000100000
0001100111111100
0010100000100000
0100100000100000
1000100000100000
0000100000100000
0000100000100000
0101001111111110
0010000000000000