0000000000000000
0100010111111110
0010100000010000
0001000000010000
0010100000100000
0100100000100000
1000100001101000
0000100010100100
0001100100100010
0010101000100010
0100100000100000
1000100000100000
0000100000100000
0000100000000000
0101001111111110
0010000000000000