0000000000100000
0100010000100000
0010100100100000
0001000100100000
0010100111111100
0100100100100000
1000101000100000
0000100000100000
0001100000100000
0010100111111100
0100100000100000
1000100000100000
0000100000100000
0000100000100000
0101001111111110
0010000000000000