0000000010000000
0100010010000000
0010100011111110
0001000100000000
0010101000100000
0100100100100000
1000100100101100
0000100101110100
0001101110100100
0010100100100100
0100100100110100
1000100100101000
0000100100100010
0000100100000010
0101000011111110
0010000000000000