0000000000001000
1000100000111100
0101001111010000
0010001010010000
0101001010010000
1001001010010000
0001001010010000
0001001010010000
0011001010010000
0101001010001000
1001001010001000
0001001011001000
0001001010100100
0001010011010100
1010010010010010
0100100000000000