0000000001000000
0100010000100000
0010100000100000
0001001111111110
0010101000000010
0100110000000100
1000100000000000
0000100010010000
0001100010010000
0010100010010000
0100100010001000
1000100100001000
0000100100001000
0000100100000100
0101001000000100
0010010000000010