0000000000101000
0100010000100100
0010100000100100
0001000000100000
0010101111111110
0100101000100000
1000101000100100
0000101000100100
0001101000100100
0010101000101000
0100101000101000
1000101010010000
0000101100010010
0000101000101010
0101000001000110
0010000010000010