0000000000000000
1000101111111000
0101001010101000
0010001010101000
0101001010101000
1001111111111110
0001001010101000
0001001010101000
0011001010101000
0101111111111110
1001001010101000
0001001010101000
0001001010101000
0001001010101000
1010001000001000
0100001000011000