0000000000000000
0100010111111110
0010100100000010
0001000100000010
0010100101111010
0100100100000010
1000100100000010
0000100101111010
0001100101001010
0010100101001010
0100100101001010
1000100101111010
0000100100000010
0000100100000010
0101000100001010
0010000100000100