0000000000000000
1001000001000000
0101001110011100
0010001000000100
0101001000000100
1001001110011100
0001001000000100
0001001000000100
0011001111111100
0101000010010000
1001000010010000
0001000010010000
0001000010010000
0001000100010010
1010001000010010
0100010000001110