0000001000001000
1000100100001000
0101000100010000
0010011111111100
0101000001000000
1001000001000000
0001001111111000
0001000001000000
0011000010000000
0101111111111110
1001000100100000
0001000100100000
0001001000100000
0001001000100010
1010010000100010
0100100000011110