0000000001000000
0100010000100000
0010101111111110
0001001000000010
0010100000000000
0100100111111100
1000100000000000
0000100000000000
0001101111111110
0010100000100000
0100100100101000
1000100100100100
0000101000100010
0000110000100010
0101000010100000
0010000001000000