0000000000100000
1001011100100000
0101000100100000
0010000100111110
0101000101000010
1001011101000100
0001010010010000
0001010000010000
0011010000010000
0101011101010100
1001000101010010
0001000101010010
0001000110010010
0001000100010000
1010010101010000
0100001000100000