0000000000100000
0100010000100000
0010101111111110
0001000000100000
0010100111111100
0100100000100000
1000101111111110
0000100000000000
0001100111111100
0010100100000100
0100100111111100
1000100100000100
0000100111111100
0000100100000100
0101000100010100
0010000100001000