0000000000000000
0100010111111100
0010100100000100
0001000100000100
0010100111100100
0100100100100100
1000100100100100
0000101111111110
0001101000000010
0010101011111010
0100101010001010
1000101010001010
0000101011111010
0000101000000010
0101001000001010
0010001000000100