0000000010000000
1000100001000000
0101001111111100
0010001000000100
0101001000000100
1001001111111100
0001001000000000
0001001000000000
0011001111111100
0101001101010100
1001001101010100
0001010111111100
0001010101010100
0001010101010100
1010100101000100
0100000100001100