0000100000010000
0100100100010100
0100100100010010
0100100100010010
0111111100010000
0000000011111110
0111111100010000
0000000000010000
0111111100010000
0100000100101000
0111111100101000
0100000100101000
0010001001000100
0000111101000100
1111000010000100
0100000100000010