0000000000100000
0100010001000000
0010100111111100
0001000100000100
0010100111111100
0100100100000100
1000100111111100
0000100001000000
0001101111111110
0010100010001000
0100100100100100
1000101000100010
0000110111111100
0000100000100000
0101000000100000
0010000000100000