0000000001000000
1000100001000000
0101011111111100
0010000001000000
0101001111111000
1001000010000000
0001011111111100
0001000100010000
0011001001101000
0101010111000110
1001000001000000
0001001111111000
0001000011100000
0001000101011000
1010011001000100
0100000001000000