0000000000100000
0100010111111100
0010100010001000
0001000001010000
0010101111111110
0100100000000000
1000100111111100
0000100100000100
0001100111111100
0010100100000100
0100100111111100
1000100000100000
0000101111111110
0000100000100000
0101000000100000
0010000000100000