0000000100000000
1000100100000010
0101000100011100
0010011111010000
0101000100010000
1001011111010000
0001010101011110
0001011111010100
0011010101010100
0101011111010100
1001000100010100
0001011111010100
0001000100010100
0001000100100100
1010000100100100
0100000101000100