0000000001000000
1001000001000000
0101011111111100
0010000010100000
0101010100010100
1001001000001000
0001011111111100
0001101000001010
0011001111111000
0101001000001000
1001001111111000
0001000001000000
0001001001001000
0001010001000100
1010100101000100
0100000010000000