0000001000000000
1001001110011110
0101010010001010
0010100100001010
0110011111010010
1010010101100110
0010010101000000
0010011111010100
0110010101011110
1010010101100100
0010011111000100
0010010101000100
0010010101011110
0010010101000100
1010010001000100
0100100011000100