0000000000000000
1001011111111100
0101001001001000
0010010001000100
0110111111111110
1010010001000100
0010011011101100
0010010101010100
0110011011101100
1010010001000100
0010011011101100
0010010101010100
0010011011101100
0010010001000100
1010010001010100
0100010000001000