0000000001000000
1000100001111100
0101000001000000
0010001111111100
0101001001000100
1001001111110000
0001001001000100
0001001011111100
0011001010101000
0101001011111000
1001001010101000
0001001011111000
0001001000000000
0001010111111100
1010010101010100
0100101111111110