0000010001000000
0000010001000000
0000010001000000
1111110001111110
0000010001000000
0000010001000000
0000010001000000
0111110001111100
0000010001000000
0000010001000000
0000010001000000
0000010001000000
1111110001111110
0000010001000000
0000010001000000
0000010001000000