0000000000000000
0000000000000000
0000100010001000
0000100010001000
0000100010001000
0001000100010000
0001000100010000
0010001000100000
0010001000100000
0001000100010000
0001000100010000
0000100010001000
0000100010001000
0000100010001000
0000000000000000
0000000000000000