0000000000000000
0000010000010000
0000010000010000
0000100000100000
0000100000100000
0001000001000000
0010000010000000
0100000100000000
0010000010000000
0001000001000000
0000100000100000
0000100000100000
0000010000010000
0000010000010000
0000000000000000
0000000000000000