0000000000000000
0010000000000000
0001000000000000
0001000000000000
1000000000000000
0100000000000000
0100100000000000
0000100000000000
0001000000000000
0001000000000000
1110000000000000
0010000000000000
0010000000000000
0010000000000000
0010000000000000
0000000000000000