0000000100000000
0010000100000000
0001000100000000
0001000100000000
1000011111110000
0100000100010000
0100100100010000
0000100100010000
0001000100010000
0001000100010000
1110000100010000
0010001000010010
0010001000010010
0010010000010010
0010100000001110
0001000000000000