0000000001000000
0010000001000000
0001000001000000
0001000001000000
1000000001000000
0100000001000000
0100100001000000
0000100001000000
0001000010100000
0001000010100000
1110000010100000
0010000100010000
0010000100010000
0010001000001000
0010010000000100
0000100000000010