0000000001000000
0010000000100000
0001000000100000
0001000000000000
1000011111111110
0100000100000000
0100100100000000
0000100100000000
0001000100000000
0001000100000000
1110000100000000
0010000100000000
0010000100000000
0010000100000000
0010000111111100
0000000000000000