0000000001000000
0010000001000000
0001000001000000
0001011111111110
1000000001000000
0100000001000000
0100000001000000
0001011111111100
0001001000000100
0010001000001000
1110000100010000
0010000010100000
0010000001000000
0010000010100000
0010001100011000
0000110000000110