0000000000001000
0010000000111100
0001001111100000
0001001000100000
1000001000100000
0100001000100000
0100101000100000
0000101111111110
0001001000100000
0001001000010000
1110001000010000
0010001000010010
0010001000001010
0010001010001010
0010001100000110
0000001000000010