0000000000000000
0010000000000000
0001011111111100
0001010000000100
1000010000000100
0100010000000100
0100010000000100
0001011111110100
0001010000000100
0010010000000100
1110010000000100
0010010000000100
0010010000000100
0010011111111100
0010010000000100
0000000000000000