0000000000000000
0010000000000000
0001001111111100
0001000000000000
1000000000000000
0100000000000000
0100011111111110
0001000001000000
0001000001000000
0010000010000000
1110000010000000
0010000100001000
0010001000000100
0010011111111110
0010001000000010
0000000000000000