0000000001000000
0100000001000000
0010000001000000
0010111111111110
0000000001000000
1000000001000000
0100011111111100
0101010001000100
0001010001000100
0010010001000100
1110010001000100
0010010001010100
0010010001001000
0010000001000000
0010000001000000
0000000001000000