0000000000100000
0010000000100000
0001000000100000
0001001111111110
1000000000100000
0100000000100000
0100100000100000
0000100111111100
0001000000100000
0001000000100000
1110000000100000
0010011111111110
0010000000100000
0010000000100000
0010000000100000
0000000000100000