0000000010000000
0010000001000000
0001000001000000
0001001111111100
1000001000000100
0100001000000100
0100001000000100
0001001111111100
0001001000000100
0010001000000000
1110001000000000
0010001000000000
0010010000000000
0010010000000000
0010100000000000
0001000000000000