0000000100000000
0000000100001000
0111110100010000
0000010110100000
0000100101100000
0011000100011000
1100010100000110
0000001000000000
0111111111111100
0000010000000000
0000100000000000
0001111111111000
0010100000001000
1100100000001000
0000111111111000
0000100000001000