0000000100100000
0010000100100000
0001000100100000
0001011111111000
1000000100101000
0100000100101000
0100011111111000
0001010100100000
0001010100100000
0010011111111100
1110000100100100
0010000100100100
0010001000110100
0010001000101000
0010010000100000
0000100000100000