0000000000000000
0010001111111100
0001001000000100
0001001000000100
1000001000000100
0100001011110100
0100101010010100
0000101010010100
0001001010010100
0001001010010100
1110001011110100
0010001010010100
0010001000000100
0010001000000100
0010001000010100
0000001000001000