0000000010000000
0010000010000000
0001000011111000
0001000100001000
1000001100010000
0100010010100000
0100000001000000
0001000010100000
0001001100011000
0010110000000110
1110000011000000
0010000000100000
0010000000010000
0010000110000000
0010000001100000
0000000000010000