0000000100000000
0000001000000000
0001111111110000
0001000000010000
0001000000010000
0001111111110000
0001000000010000
0001000000010000
0001111111110000
0000000100000100
0111110110001000
0000100101010000
0001000100100000
0010000100011000
1100010100000110
0000001000000000