0000000001000000
0010000001000000
0001000001000000
0001011111111100
1000000001000000
0100000001000000
0100000101010000
0001000100010000
0001000100010000
0010111111111110
1110000100010000
0010000100010000
0010001000010000
0010001000010000
0010010000010000
0000100000010000