0000000000000000
0010000010000000
0001000001000000
0001000000101000
1000000100101000
0100000100001000
0100000100010000
0001010100010100
0001010100100010
0010010100100010
1110010101000010
0010100110001000
0010000100001000
0010001100001000
0010010011111000
0000100000000000