0000000001000000
0010000001000000
0001000001000000
0001000001000000
1000011111111100
0100000001000000
0100000001000000
0001000001000000
0001111111111110
0010000001000000
1110000010000000
0010000100000000
0010001000010000
0010010000001000
0010111111111100
0000010000000100