0000000000010000
0010000001111000
0001011111000000
0001000001000000
1000010001000100
0100001001000100
0100001001001000
0001000001000000
0001011111111110
0010000001000000
1110000001000000
0010000001000000
0010000001000000
0010000001000000
0010000101000000
0000000010000000