0000000100000000
0010000100000000
0001000111111100
0001001000000100
1000001000000100
0100011111100100
0100101000100100
0001001000100100
0001001000100100
0010001111100100
1110001000010100
0010001000001000
0010001000000010
0010001000000010
0010000111111110
0000000000000000