0000000000000000
0010011111111100
0001010000000100
0001010001000100
1000010001000100
0100010001000100
0100011111111100
0001010001000100
0001010001000100
0010010010100100
1110010010010100
0010010100010100
0010011000000100
0010010000000100
0010011111111100
0000010000000100