0000000100000000
0010000100000000
0001001111111000
0001001000001000
1000010000010000
0100101111111110
0100001000000000
0001001011111000
0001001010001000
0010001010001000
1110001010101000
0010001010010000
0010001010000010
0010010010000010
0010010001111110
0000100000000000