0000000000001000
0010000000111100
0001001111000000
0001001000000000
1000001000000000
0100001111111110
0100101000000000
0000101000000000
0001001000000000
0001001011111100
1110001010000100
0010001010000100
0010010010000100
0010010010000100
0010100011111100
0000000010000100