0000000001000000
0010000001000000
0001000001000000
0001011111111110
1000000010000000
0100000010000000
0100100101111100
0000100100001000
0001001100010000
0001010100010000
1110000111111110
0010000100010000
0010000100010000
0010000100010000
0010000101010000
0000000100100000