0000000001000000
0010000010000000
0001001111111100
0001001000000100
1000001000000100
0100001000000100
0100101111111100
0000101000000100
0001001000000100
0001001000000100
1110001111111100
0010001000000100
0010001000000100
0010001000000100
0010001111111100
0000001000000100