0000000100100000
0100000100101000
0010000100100100
0010001000100100
0000001000100000
1000011000100000
0100101011111100
0100001000100000
0001001000100000
0010001001010000
1110001001010000
0010001001010000
0010001010001000
0010001010001000
0010001100000100
0000001000000010