0000000001000000
0010000001000000
0001001111111000
0001000001000000
1000000001000000
0100000001000000
0100011111111100
0001000000000000
0001000001000000
0010000001000000
1110001111111000
0010000001000000
0010000001000000
0010000001000000
0010011111111100
0000000000000000