0000000000001000
0010000000111100
0001011111000000
0001010000000000
1000010000011100
0100010111100000
0100010100100000
0001010100100010
0001010100100100
0010010100101000
1110010100010000
0010010100010000
0010010100001000
0010100101000100
0010100110000010
0001000100000000