0000000001010000
0010000001010000
0001000001010000
0001000001010000
1000001111111110
0100001001010010
0100101001010010
0000101001010010
0001001001010010
0001001111111110
1110001001010010
0010001001010010
0010001001010010
0010001001010010
0010001111111110
0000001000000010