0000000001000000
0010000001000000
0001000001000000
0001011111111100
1000000001000000
0100001001001000
0101000101010000
0001000001000000
0001111111111110
0010000010100000
1110000010100000
0010000100010000
0010000100010000
0010001000001000
0010010000000100
0000100000000010