0000100001000000
0100100001000000
0010100011111100
0000100100000100
0001101010001000
0010100001010000
0100100001100000
1000100110000000
0000000100000100
0111110110001000
0000010101010000
0000100100100000
0001000100010000
0010000100001000
1100010100000110
0000001000000000