0000000010000000
0010000010000000
0001000010111100
0001001111000000
1000000001010000
0100000000100100
0100100011010100
0000101100001100
0001000000000000
0001011111111110
1110000010010000
0010000010010000
0010000100010010
0010000100010010
0010001000001110
0000010000000000