0000000001000000
0010000001000000
0001000001000000
0001011111111100
1000010001000100
0100010001000100
0100010001000100
0001010001000100
0001011111111100
0010010001000100
1110000001000000
0010000001001000
0010000001000100
0010111111111110
0010010000000010
0000000000000000