0000000000000000
0010011111111100
0001000000000000
0001000000000000
1000001111111000
0100001000001000
0100101000001000
0000101000001000
0001001000001000
0001001111111000
1110000000000000
0010001000001000
0010000100001000
0010000100010000
0010111111111110
0000000000000000