0000000001001000
0100000001000100
0010111111111110
0010000001000000
0000000001000000
1000011111111100
0100010001000100
0101010001000100
0001011111111100
0010010001000100
1110010001000100
0010011111111100
0010010001000100
0010010001000100
0010010001010100
0000010000001000