0000000001000000
0010000000100000
0001001111111100
0001001000000100
1000001000000100
0100001111111100
0100101000000000
0000101000100000
0001001000100000
0001001111111110
1110001000100000
0010001001010000
0010001001010000
0010010010001000
0010010100000100
0000101000000010