0000000001000000
0100111101000100
0010000101000100
0010000101001000
0000000101001000
1000111101010000
0100100001000000
0101100011111110
0001100001010000
0010111101010000
1110000101001000
0010000101001000
0010000101000100
0010000101000100
0010101001100010
0000010001000000