0000000000011100
0010001111100000
0001000010000100
0001001001000100
1000000101001000
0100000100010000
0101011111111110
0001010000000010
0001000000000000
0010001111111000
1110000100001000
0010000100010000
0010000010100000
0010000001000000
0010000110110000
0000011000001110