0000000010000000
0010000001000000
0001011111111110
0001000100100000
1000000100100000
0100001000111100
0100001001000100
0001011001100100
0001001010010100
0010001101001000
1110001001001000
0010001000110000
0010001000100000
0010001001010000
0010001010001000
0000001100000110