0000000000111000
0010001111000000
0001000001000000
0001000001000000
1000011111111100
0100000101010000
0100001001001000
0001010010000110
0001000010000000
0010011111111100
1110000100010000
0010001000010000
0010000110100000
0010000001100000
0010000010010000
0000001100001000