0000000001000000
0010001001001000
0001000101010000
0001011111111100
1000000010000000
0100000100000000
0100111111111110
0001001000010000
0001010000001000
0010101111110100
1111001000010010
0010001000010000
0010001001010000
0010001000100100
0010001000000100
0000000111111100