0000000001000000
0010000001000000
0001011111111100
0001000001000000
1000001111111000
0100000010000000
0100011111111100
0001000100010000
0001001001001000
0010010001000110
1110000111110000
0010000001000000
0010011111111100
0010000001000000
0010000001000000
0000000001000000