0000000001000000
0010001001000100
0001001001000100
0001010001001000
1000000010100000
0100000100010000
0100011000001000
0001000001000100
0001000001000000
0010001001001000
1110001001001000
0010010001010000
0010000010100000
0010000100010000
0010001000001000
0000110000000110