0000000010010000
0010000010010000
0001000010010000
0001011110011110
1000000010010000
0100000010010000
0100100010010000
0000101110011100
0001000010010000
0001000010010000
1110000010010000
0010011110011110
0010000010010000
0010000010010000
0010000010010000
0000000010010000