0000000100000000
0010000100000000
0001001111110000
0001010000010000
1000100000100000
0100011111111100
0100010000000100
0001010010100100
0001010100010100
0010010001000100
1110000001000000
0010111111111110
0010000010100000
0010000100010000
0010001000001000
0000110000000110