0000000010000000
0010000001000000
0001011111111100
0001000100010000
1000001000001000
0100010000000100
0100001111111000
0001001000001000
0001001000001000
0010001111111000
1110000100010000
0010000100010000
0010000100010010
0010001000010010
0010010000001110
0000100000000000