0000001000001000
0010000100010000
0001011111111110
0001000001000000
1000000001000000
0100001111111100
0100100001000000
0000100001000000
0001011111111110
0001000000000000
1110000001000000
0010011111111100
0010000010100000
0010000100010000
0010001000001000
0000110000000110