0000000001000000
0100000001000000
0010111111111110
0010000001000000
0000011111111100
1000010001000100
0100010101010100
0101010011100100
0001010001000100
0010011111111100
1110000011100000
0010000101010000
0010001001001000
0010110001000110
0010000001000000
0000000001000000