0000000100001000
0010000100001000
0001011111111110
0001000100001000
1000000111111000
0100000100001000
0100100111111000
0000100100001000
0001000100001000
0001011111111110
1110001001010000
0010001010001000
0010001100000100
0010001000000000
0010001111111100
0000000000000000