0000000001000000
0010010001000100
0001010001000100
0001010001000100
1000011111111100
0100000100000000
0100000100000000
0001011111111110
0001000100100000
0010001000100000
1110001010100100
0010001010101000
0010010101010000
0010010001010000
0010100010001000
0000000100000110