0000000100010000
0010000010100000
0001000000000000
0001011111111110
1000000010100000
0100001111111000
0100000010101000
0001011111111110
0001000010101000
0010001111111000
1110000010100000
0010000110110000
0010001010101000
0010110010100110
0010000010100000
0000000010100000