0000000000111000
0010001111000000
0001000001000000
0001011111111100
1000000101010000
0100000101010100
0100011101011000
0001000101010100
0001001101010100
0010010101001100
1110000011100000
0010000101010000
0010001001001000
0010010001000100
0010100001000010
0000000001000000