0000000000000000
0010011111111100
0001000000001000
0001001111001000
1000001001001000
0100001001001000
0100001111001000
0001000000000000
0001111111111110
0010000000001000
1110001111001000
0010001001001000
0010001001001000
0010001111001000
0010000000101000
0000000000010000