0000000010000000
0010000001000000
0001011111111100
0001000100010000
1000001001001000
0100010010000100
0100000100100000
0001001111110000
0001000000010000
0010000010001000
1110000101010000
0010001100100000
0010010100010000
0010100101001000
0010000110000110
0000000100000000