0000000100001000
0010000100001000
0001000100001000
0001011111010000
1000000100011110
0100011110010100
0101000100100100
0001111111010100
0001001000010100
0010001111010100
1110001001010100
0010001001001000
0010001001001000
0010010011010100
0010010000100100
0000100001000010