0000000000100000
0010001000100010
0001001000100010
0001001111111110
1000000000000000
0100001111111110
0100101000100000
0000101111111100
0001001000100000
0001001111111110
1110001000000000
0010001000100000
0010010111111100
0010010000100000
0010101111111110
0000000000000000