0000001000010000
0100001000010000
0010010001010000
0010100101011100
0000000101010000
1000001001010000
0100011011111110
0101101000000000
0001001000010000
0010001001010000
1110001001011100
0010001001010000
0010001010110000
0010001010010000
0010001100001110
0000001000000000