0000000000000000
0010011111111100
0001010000000000
0001010011111000
1000010010001000
0100010010001000
0100010011111000
0001010000000000
0001010111011100
0010010101010100
1110010101010100
0010010101010100
0010010111011100
0010010000000000
0010011111111110
0000000000000000