0000001111111000
0010001000001000
0001001111111000
0001001000001000
1000001111111000
0100000000000000
0100011111111100
0001010010100100
0001010010100100
0010011111111100
1110000000000000
0010001111111000
0010000100010000
0010000011100000
0010001100011000
0000110000000110