0000000001000000
0010000001000000
0001011111111100
0001000001000000
1000010101010100
0100001001001000
0100010101010100
0001000001000000
0001010101010100
0010001001001000
1110010101010100
0010000010100000
0010000010100000
0010000100010000
0010001000001000
0000110000000110