0000000000000000
0010011110111100
0001000010000100
0001010010100100
1000001010010100
0100010010100100
0100000001010000
0001000110001000
0001011000100110
0010000011000000
1110001100010000
0010000001100100
0010001110001000
0010000000110000
0010000011000000
0000011100000000