0000000000000000
0010011111111100
0001010000000100
0001011111111100
1000010000100000
0100010010101000
0100010001110000
0001010010101000
0001010100000100
0010010010100000
1110010011111100
0010010100100000
0010010000100000
0010101111111110
0010100000100000
0001000000100000