0000000100001000
0010000100001000
0001011111001000
0001000100010000
1000000100011110
0100011111100100
0100010101010100
0001010101010100
0001011111010100
0010000100010100
1110001110010100
0010010101001000
0010100101001000
0010000100010100
0010000100010100
0000000100100010