0000000000000000
0010011111111100
0001010010100100
0001010010100100
1000010010100100
0100011111111100
0100000010000000
0001000101000100
0001011001101000
0010000010110000
1110000100101000
0010011001101000
0010000010100100
0010000100100010
0010011010100000
0000000001000000