0000000001000000
0010001111111000
0001000001001000
0001011111111110
1000000001001000
0100001111111000
0100000001000000
0001010101010100
0001011101011100
0010010001000100
1110011111111100
0010010001000100
0010011101011100
0010010101010100
0010010101010100
0000100001000100