0000000100000000
0100000100011110
0010011111010010
0010000100010010
0000000100010010
1000011111011110
0100010001010010
0101011111010010
0001010001010010
0010011111011110
1110000100010010
0010000100010010
0010111111010010
0010000100100010
0010000100101010
0000000101000100