0000000000000000
0010001111111100
0001000000000100
0001001111111100
1000000000000100
0100001111111100
0100100000000000
0000101110111100
0001000100100100
0001011110111100
1110000000001000
0010001111111110
0010000100001000
0010000010001000
0010000010101000
0000000000010000