0000000000100000
0010011110100100
0001000010101000
0001001010010010
1000000100010100
0100001000001000
0101010111110100
0001100000000010
0001001111111000
0010001000001000
1110001000001000
0010001111111000
0010001000001000
0010000100010000
0010111111111110
0000000000000000