0000000001000000
0010001111111000
0001000001001000
0001011111111110
1000000001001000
0100001111111000
0100000001000000
0001011111111110
0001000000000000
0010001111111000
1110001001001000
0010001111111000
0010001001001000
0010001111111000
0010000000000000
0000011111111110