0000000000000000
0100011111111100
0010000001000000
0010111111111110
0000100001000010
1000001101011000
0100000001000000
0101001101011000
0001000000000000
0010011111111100
1110000000000000
0010111111111110
0010000100000000
0010001000001000
0010011111111100
0000001000000100