0000000101000000
0010000101000000
0001001001111110
0001010010000000
1000100101111100
0100000101000100
0100001001111100
0001011001000100
0001101001111100
0010001000100000
1110001000111100
0010001001000100
0010001010101000
0010001000010000
0010001000101000
0000001011000110