0000000000000000
0010000010000000
0001011100111100
0001010000000100
1000011110111100
0100010000000100
0100011111111100
0001001000000000
0001001111111100
0010010000000000
1110011111111110
0010000000000010
0010010101010010
0010010010101010
0010100010101010
0000000000000100