0000000100000000
0010011111111100
0001010001000100
0001010101010100
1000010001000100
0100011111111100
0100010011100100
0001010101010100
0001000000000000
0010111111111110
1110001000000000
0010001111111100
0010000000000100
0010000000000100
0010000000101000
0000000000010000