0000000001000000
0010000001111100
0001000001000000
0001011111111110
1000010001000010
0100010111111000
0100010001000100
0001010111111100
0001010100001000
0010010111111000
1110010000000000
0010010111111110
0010010000100000
0010101111111110
0010100010001000
0001001100000110