0000001111111000
0100001000001000
0010001000001000
0010001111111000
0000000000000000
1000011110111100
0100010010100100
0101010010100100
0001011110111100
0010000001000000
1110111111111110
0010000101100000
0010001001010000
0010010001001000
0011100001000110
0000000001000000