0000101010000000
0011000100111000
0010001010001000
0011100000111000
0010001010001000
0011100100111000
0010001010001000
0111111111111110
0100000100000010
1000000100000100
0111110110001000
0000100101010000
0001000100100000
0010000100011000
1100010100000110
0000001000000000