0000000000000000
0100011111111100
0010000001000000
0010111111111110
0000100001000010
1000001101011000
0100000001000000
0101001101011000
0001000010100000
0010001110011000
1110110001000110
0010001111110000
0010000000010000
0010001100100000
0010000011000000
0000000000100000