0000000010100000
0010010010100100
0001001010101000
0001000010100000
1000011111111100
0100000100010000
0100000010100000
0001011111111100
0001000001000000
0010001111111000
1110000001000000
0010011111111100
0010000101010000
0010001001001000
0010110001000110
0000000001000000