0000000010010000
0010001111111100
0001001010010100
0001001111111100
1000001010010100
0100001111111100
0100100000000000
0000101111111100
0001001000000000
0001001011111000
1110001000000000
0010001111111110
0010010100100000
0010010100010100
0010010101001000
0000100110000110