0000001111010100
0010001001010010
0001001001010010
0001001111010000
1000000000010000
0100111111111110
0100001001010000
0001001111010100
0001001001010100
0010001111010100
1110001001010100
0010001011111000
0010111101001010
0010010001001010
0010000001010110
0000000001100010