0000000000101000
0100000000100100
0010111101000000
0010100101111110
0000100111001000
1000111101001000
0100100101111110
0101100101001000
0001111101001000
0010100101111110
1110100101001000
0010100101001000
0010111101001000
0010100101111110
0010000001000000
0000000001000000