0000000001000000
0010011111111100
0001000100010000
0001000010100000
1000011111111110
0100010010100000
0100011111111000
0001010010101000
0001011111111110
0010010010101000
1110011111111000
0010010010100000
0010010110110000
0010101010101000
0010110010100110
0001000010100000