0000000100101000
0010000110101010
0001000101101100
0001001000101000
1000001011111110
0100011001000100
0101011000101000
0001101011111110
0001001000010000
0010001001111100
1110001000010000
0010001011111110
0010001000010000
0010001000101000
0010001001000100
0000001010000010