0100001000101000
0010001000100100
0010010001000000
1000010101111110
0100100111001000
0101111101001000
0000001001111110
0010010001001000
0010100101001000
0101111101111110
1100000101001000
0100000001001000
0101010101001000
0101010101111110
0101000001000000
0000000001000000