0000000000010100
0010011110010010
0001010010011110
0001010011110000
1000011110010100
0100010010001010
0100010010010110
0001011111100010
0001010010010100
0010010010010010
1110011110011110
0010000001110000
0010010100010100
0010010010001010
0010100010010110
0000000001100010