0000001010001000
0100001010101000
0010011010101000
0010101111110000
0000000000011110
1000001000100100
0100010111010100
0101110000010100
0001010111010100
0010010010010100
1110010010010100
0010010111001000
0010010010001000
0010010010010100
0010010111010100
0000010000100010