0000000010000000
1011111111111100
0100100000000000
0000111111111000
1000000000000000
0100111111111000
0100100000001000
0000111111111000
0010000010000000
0101110010011100
1101011111010100
0101110101010100
0101010101011100
0101110010010110
0101010101010110
0010111000100010