0000000000010000
1001111110010000
0100001001111010
0000010000010010
1000110000010100
0101001011111110
0100011100001000
0000101000010000
0011001100111100
0100011011100100
1100101010100100
0101001000111100
0100001000100100
0100001000100100
0100101000111100
0000010000100100