0000000001000000
0010011111111110
0001010010010010
0001001111111100
1000000010010000
0100001111111100
0100000010010000
0001011111111110
0001000100001000
0010001111111100
1110010100001010
0010000111111000
0010001001000000
0010001001111100
0010010101000000
0000100011111110