0000011111111100
0100010001000100
0010011111111100
0010010001000100
0000011111111100
1000000000000000
0100111110111110
0101101010101010
0001111110111110
0010101010101010
1110111110111110
0010000001000000
0010000001000000
0010011111111100
0010000001000000
0000111111111110