0000010010010010
0100001010010100
0010111111111110
0010000100010000
0000011111111100
1000000001000000
0100001111111000
0101000001000000
0001111111111110
0010010010000000
1110011110111100
0010010010010100
0010011110010100
0010010011001000
0010111110010100
0000000010100010