0000011110111100
0010010010100100
0001011110111100
0001010010100100
1000011110111100
0100010010100100
0100011110111100
0001000100100000
0001001111111110
0010001000100000
1110011111111100
0010101000100000
0010001111111100
0010001000100000
0010001111111110
0000001000000000