0000010100001000
1001111111001000
0101010101011100
0001111111001000
1001010101001000
0101111111111110
0100000000001000
0001111111010000
0010000000010100
0100111110111110
1100100010000000
0100111110111110
0100100010101010
0100010100101010
0100001110101010
0001110001111110