0100011111111100
0010000001000000
0010111111111110
1000100001000010
0100001101011000
0100010100000000
0000111110111100
0010010100100100
0010011100100100
0100001000111100
1100111110100100
0100101010100100
0100111110111100
0100001000100100
0101111110100100
0000001001001100