0000000000000000
1001111111011110
0101000001000100
0001111111001000
1001000001011110
0101111111010010
0100100010010010
0001010101011110
0011110111010010
0100100010011110
1101010101010010
0101110111010010
0100000000011110
0101010101000000
0101010101001100
0000000000010010