0000010001000000
0000010000100000
0000100000010000
0001000000001000
0010000000000100
0100010001000010
1000010001000010
0000010001000000
0000010001000000
0000010001000000
0000010001000000
0000100001000010
0000100001000010
0001000001000010
0010000000111110
0100000000000000