0010000010000000
0010000010000000
0010000010000000
0010000111111000
1111110100001000
0010101000001000
0010100010001000
0010100001001000
0010100001001000
0010100000001000
0010100000001000
0010100001010000
0010100000100010
0100100000000010
0100011111111110
1000000000000000