0000000000000000
0000000111111100
1111111000100000
0010010000100000
0010010000100000
0010010111111100
0010010000100000
0010010000100000
0010010000100000
0010010000100000
0010011111111110
0010010000000000
0010010000000000
0100010000000010
0100001111111110
1000000000000000