0000000100000000
0000000100000000
0111111111111100
0000000100000000
0000100100100000
0000100000100000
1111111111111110
0000100000100000
0000100000100000
0111111111111100
0000010001000000
0000010001000000
0000100001000000
0001000001000010
0010000001000010
1100000000111110