0010000100010000
0001011111111110
0001000010000000
0000001111111000
1111001000001000
0001001111111000
0001001000001000
0001001111111000
0001001000001000
0001001111111000
0010100000000000
0100011111111110
0000000000100000
1111111111111110
0000100000100000
0000010001100000