0100100100100000
0010101000111110
0111111101001000
0101110110101000
0110101100010000
0100010101101110
0011111111111000
0010000000001000
0011111011111000
0000001010000000
0111101011111000
0000101011011000
1111111010101000
0000101011011000
0111101010001010
0000000111111110