0001000000000000
0001000011111100
0011110000000100
0010010000000100
0100100001111100
1011111000000100
0010101000000100
0010101011111110
0011111000010000
0010101010010010
0010101001010100
0011111000111000
0010101001010100
0100101010010010
0100001001010000
1000011000100000