0000001000000000
0000000100000000
0011111111111100
0010000000000100
0010000000000100
0011111111111100
0010000000000000
0010000000000000
0010111111110000
0010000000100000
0010000011000000
0010000100000000
0100001000000000
0100010000000100
1000010000000100
0000001111111100