0000001000000000
0000000100000000
0011111111111100
0010000000000100
0010000000000100
0011111111111100
0010000010000000
0010000010000000
0010000010000000
0010111111111100
0010000101000000
0010000101000000
0100001000100000
0100010000010000
1000100000001000
0001000000000110