0000000000000000
1111110001111110
0000010001000000
0000010001000000
0000010001000000
0111110001111100
0100010001000100
0100010001000100
0100010001000100
0111110001111100
0000010001000100
0000100001000000
0000100001000000
0001000001000000
0010000001000000
0100000001000000