0000001000000000
0000000100000000
0011111111111100
0010000000000100
0010000000000100
0011111111111100
0010000000000000
0010000000000000
0010111111111100
0010100000000100
0010100111100100
0010100100100100
0100100100100100
0100100111100100
1000100000010100
0000100000001000