0000000000000000
1111111111111110
0000001000000000
0000001000000000
0000010000000000
0011111111111000
0010000000001000
0010000000001000
0010011111001000
0010010001001000
0010010001001000
0010011111001000
0010000000001000
0010000000001000
0011111111111000
0010000000001000