0000000000001000
0000000001111100
0000011110000000
0111100000000000
0000000100000000
0000000100000000
0000000100000000
0010000100001000
0010000100001000
0010000100001000
0010000100001000
0010000100001000
0010000100001000
0011111111111000
0000000000001000
0000000000000000