0001000000000000
0001000000000000
0001000111111100
0001000001000100
0101010001000100
0101010101000100
0101010101000100
0101010101000100
0101010101000100
0101011001000100
0101010001000100
0101110010000100
0110010010000100
0000000100000100
0000001000101000
0000010000010000