0001000000100000
0001000000100000
0001000000100000
0001000000100000
0101010100100100
0101010100100100
0101010100100100
0101010100100100
0101010100100100
0101010100100100
0101010100100100
0101110100100100
0110010100100100
0000000111111100
0000000000000100
0000000000000000