0001000000000000
0001000011111100
0001000010000100
0001000010000100
0101010010000100
0101010011111100
0101010010000100
0101010010000100
0101010010000100
0101010011111100
0101010010000100
0101110010000100
0110010100000100
0000000100000100
0000001000010100
0000010000001000