0001000000000000
0001000111111100
0001000010001000
0001000010001000
0101010010001000
0101010010001000
0101010010001000
0101011111111110
0101010010001000
0101010010001000
0101010010001000
0101110010001000
0110010010001000
0000000100001000
0000000100001000
0000001000001000