0000000100000000
0010000100001000
0010000100001000
0011111111111000
0000000000000000
0001111111110000
0001000000010000
0001000001010000
0001010001010000
0001001010010000
0001000100010000
0001001010010010
0010010001001010
0010100001001010
0100000000000110
1000000000000010