0001000000000000
0001000011111110
0001000010000000
0001000010000000
0101010010000000
0101010011111100
0101010010000100
0101010010000100
0101010010000100
0101010010000100
0101010011111100
0101110010000000
0110010010000000
0000000010000000
0000000011111110
0000000000000000