0000000100000000
0010000100001000
0010000100001000
0011111111111000
0000000000000000
0000000000000000
1111111111111110
0000000000010000
0000000000010000
0001111110010000
0001000010010000
0001000010010000
0001111110010000
0000000000010000
0000000001010000
0000000000100000