0001000000000000
0001000111111110
0001000000010000
0001000000010000
0101010000100000
0101010000100000
0101010001101000
0101010010100100
0101010100100010
0101011000100010
0101010000100000
0101110000100000
0110010000100000
0000000000000000
0000001111111110
0000000000000000