0001000001000000
0001000001000000
0001000001111100
0001000010000100
0101010110001000
0101011001010000
0101010000100000
0101010001010000
0101010010001000
0101011100000110
0101010001100000
0101110000010000
0110010000001000
0000000011000000
0000000000100000
0000000000010000