0001000000100000
0001000000010000
0001000000010000
0001001111111110
0101010000100000
0101010001000010
0101010010000100
0101010111111000
0101010000010000
0101010000100010
0101010011000100
0101111100001000
0110010000010000
0000000000101000
0000000011000100
0000001100000010