0001000000000000
0001000111111110
0001000100000010
0001000100000010
0101010101111010
0101010100000010
0101010100000010
0101010101111010
0101010101001010
0101010101001010
0101010101001010
0101110101111010
0110010100000010
0000000100000010
0000000100001010
0000000100000100