0001000000100000
0001000100100000
0001000100100000
0001000111111100
0101010100100000
0101011000100000
0101010000100000
0101011111111110
0101010000000000
0101010000000000
0101010111111100
0101110100000100
0110010100000100
0000000100000100
0000000111111100
0000000100000100