0010000001000000
0010000001000000
0010000001000000
0010011111111100
1010100001000000
1010101001001000
1010100101001000
1010100101010000
1010111111111110
1010100011100000
1010100101010000
1011100101010000
1100101001001000
0000010001000100
0000100001000010
0000000001000000