0010000001000000
0010000000100000
0010000000100000
0010001111111110
1010101000000010
1010110010010100
1010100100001000
1010101000000100
1010100000000000
1010100111111100
1010100000100000
1011100000100000
1100100000100000
0000000000100000
0000011111111110
0000000000000000