0000000100000000
0010000100001000
0010000100001000
0011111111111000
0000001000000000
0000000100000000
0111111111111110
0100000000000010
1001111111110100
0000000000000000
0111111111111100
0000000100000000
0001000100010000
0010000100001000
0100010100000100
0000001000000000