0010000010001000
0010000010001000
0010000010001000
0010000010001000
1010101111011110
1010100010001000
1010100010001000
1010100110011100
1010100111011100
1010101010101010
1010101010101010
1011110011001000
1100100010001000
0000000010001000
0000000010001000
0000000010001000