0000000100000000
0010000100001000
0010000100001000
0011111111111000
0000000100000000
0000001010000000
0000110001100000
0011000000011000
1100111111100110
0000000100000000
0000000100000000
0011111111111000
0001000100010000
0000100100100000
1111111111111110
0000000000000000