0010000110000100
0010000001101000
0010000000110000
0010000011001000
1010101100100100
1010100000100000
1010101111111110
1010100001000000
1010100011111100
1010100110000100
1010101011111100
1011100010000100
1100100011111100
0000000010000100
0000000010010100
0000000010001000