0000000100000000
0010000100001000
0010000100001000
0011111111111000
0001000000010000
0001000010010000
0001000010010000
1111110100001000
0011000101001000
0011101001000100
0101010001000010
0101000010010000
1001000010001000
0001000100001000
0001001111111100
0001000100000100