0001000001000000
0001000000100000
0001001111111110
0001000000000000
0101010010001000
0101010010001000
0101010101010100
0101011000100010
0101010000000000
0101010000100000
0101011111111110
0101110000100000
0110010000100000
0000000000100000
0000000000100000
0000000000100000