0000000100000000
0010000100001000
0010000100001000
0011111111111000
0000000000000000
0011111100000100
0010000100100100
0011111100100100
0010000100100100
0011111100100100
0010000100100100
0010000100100100
0011111100100100
0001001000000100
0010000100010100
0100000010001000