0010000001000000
0010000000100000
0010000111111100
0010000000000000
1010100010001000
1010100001010000
1010101111111110
1010101000100010
1010110000100100
1010100111111100
1010100100100100
1011100100100100
1100100100110100
0000000100101000
0000000000100000
0000000000100000