0000000100000000
0010000100001000
0010000100001000
0011111111111000
0000000000100000
0010001000100000
0010001000111110
1111111101000010
0010001010010100
0010001000010000
0011111000010000
0010001000010000
0010001000101000
0011111000101000
0010001001000100
0000000010000010