0000000001000000
0111111101000000
0001001001111110
0000110010001000
1111111101001000
0001100101001000
0010101001010000
0100100000100000
1010100001010000
0001000110001100
0000000100000000
0010000100001000
0010000100001000
0010000100001000
0011111111111000
0000000000001000