0000000100000000
0010000100001000
0010000100001000
0011111111111000
0000000000000000
0001111111110000
0001000000010000
0001000011010000
0001011100010000
0001000100010000
0001011111010000
0001010101010000
0010011111001010
0010000100101010
0100111111100110
1000000000100010