0000000100000000
0010000100001000
0010000100001000
0011111111111000
0000000000000000
0001111111110000
0001000000010000
0001000000010000
0001111111110000
0000000000000000
0111111011111100
0100001010000100
0100001010000100
0100001010000100
0111111011111100
0100001010000100