0000000100000000
0010000100001000
0010000100001000
0011111111111000
0000001010000000
0000110001100000
0011011111011000
1100000000000110
0011111000001000
0010001001001000
0011111001001000
0010001001001000
0011111001001000
0010001000001000
0010001000101000
0010011000010000