0010000001000000
0010000010000000
0010000111111100
0010000100000100
1010100100000100
1010100111111100
1010100100000000
1010100111111110
1010100100000000
1010100111111110
1010100000000010
1011101010101010
1100101010101010
0000010000000010
0000000000010100
0000000000001000