0000000100000000
0010000100001000
0010000100001000
0011111111111000
0000001000000000
0000010000000000
0011111111111000
0010000100001000
0011111111111000
0010000100001000
0011111111111000
0000001010010000
0000010010101000
0000100011111010
0011000010001010
1100000001111110