0001000010001000
0001000001010000
0001000000000000
0001000111111110
0101010001010000
0101010111111100
0101010001010100
0101011111111110
0101010001010100
0101010111111100
0101010001010000
0101110011011000
0110010101010100
0000001001010010
0000000001010000
0000000001010000