0010000001000000
0010000000100000
0010001111111110
0010001000000010
1010110010010100
1010100100001000
1010101001100100
1010100010010000
1010100100001000
1010101000000100
1010110111111010
1011100100001000
1100100100001000
0000000100001000
0000000111111000
0000000100001000