0010000001000000
0010001001001000
0010000101010000
0010001001001000
1010110010100100
1010100100011000
1010111000000110
1010101111111000
1010101000001000
1010101111111000
1010101000001000
1011101111111000
1100101000001000
0000001000001000
0000001000101000
0000001000010000