0000000100000000
0010000100001000
0010000100001000
0011111111111000
0000000010100000
0000000010010000
0111100111111110
0100100100100000
0100101100100000
0100110111111100
0100100100100000
0100100111111100
0111100100100000
0100100100100000
0000000111111110
0000000100000000