0001000000100000
0001000000100000
0001000111111100
0001000000100000
0101010101010100
0101010010001000
0101010100000100
0101011011111010
0101010010001000
0101010011111000
0101010010001000
0101110011111000
0110010000100000
0000000010101000
0000000100100100
0000000001100000