0000000100000000
0100000100000100
0111111111111100
0000000100000000
0000100010000000
0001111111111100
0011000010000000
0101111111111000
0001000010000000
0001111111111000
0001000010000000
0001111111111100
0001000000000000
0010010010001000
0010001001000100
0100001001000100