0001000010000000
0001000011111000
0001000100001000
0001001111111110
0101010101000100
0101010110010010
0101010111111110
0101010100000000
0101010101111100
0101010100000000
0101010101111100
0101110100000000
0110010101111100
0000001001000100
0000001001111100
0000010001000100