0100000100000100
0111111111111100
0000000000000000
0011111000101000
0010001000100100
0011111000100100
0000000000100000
1111111111111110
0010001000100000
0011111000101000
0010001000101000
0011111000010000
0010001000010010
0010111100101010
1111001001000110
0100001010000010