0001000010001000
0001001111111110
0001000010001000
0001000111111100
0101010100000100
0101010111111100
0101010100000100
0101010111111100
0101010010000000
0101010111111110
0101011000100010
0101110101010010
0110010100000010
0000000111111010
0000000000001010
0000000000000100