0000010000000000
0011111111111000
0010000000001000
0010100100101000
0010010101001000
0010111111101000
0010010101001000
0010100100101000
0000001000000000
1111111111111110
0000100000100000
0011000100011000
1101000100010110
0001000100010000
0001111111110000
0000000000010000