0010000010001000
0010001010101010
0010001011011100
0010010010001000
1010100101010100
1010101000100010
1010100000000000
1010101111111110
1010101000100010
1010100000100000
1010101111111110
1011100001110000
1100100010101000
0000000100100100
0000011000100010
0000000000100000