0010000100010000
0010000010010000
0010001111011110
0010000000010000
1010101001011110
1010100110000010
1010101111011110
1010100000010000
1010101111011110
1010101001010000
1010101111011110
1011101001010000
1100101111011110
0000001001010000
0000001001010010
0000001011001110