0000000000000000
0001111111110000
0001000000010000
0001000000010000
0001111111110000
0000000000000000
0011111111111000
0010000100001000
0010000100001000
0010000100001000
0011111111111000
0010000000001000
0010000000000010
0010000000000010
0001111111111110
0000000000000000