0000000000000000
0111111101111100
0000000101000100
0000000101001000
0000000101001000
0000000101010000
0011111101001000
0010000101001000
0010000001000100
0010000001000100
0010000001000100
0010000101101000
0010011001010000
0011100001000000
0010000001000000
0000000001000000