0000100000000000
0000010000111110
0000010000100010
0011111110100100
0010000000100100
0010000000101000
0010000000100100
0010000000100100
0010000000100010
0010000000100010
0010000000100010
0010000000110100
0010000000101000
0100000000100000
0100000000100000
1000000000100000