0000000000000000
0111111100111110
0001000100100010
0001000100100100
0010000100100100
0010010100101000
0100001000100100
1000000000100100
0011111100100010
0010000100100010
0010000100100010
0010000100110100
0010000100101000
0011111100100000
0010000100100000
0000000000100000