0010000000000000
0010000000111110
0111111100100010
0100000100100100
1000000100100100
0111100100101000
0100100100100100
0100100100100100
0111100100100010
0100100100100010
0100100100100010
0111100100110100
0100000100101000
0000000100100000
0000101000100000
0000010000100000