0000010000000000
0000010100111110
0000010010100010
0000010000100100
0111111110100100
0100010000101000
0100010000100100
0111010100100100
0101010100100010
0101010100100010
0101010100100010
0101001000110100
0101001010101000
1010011010100000
1000100110100000
0001000010100000