0000000000000000
0111111110111110
0000000000100010
0000000000100100
0011111100100100
0010000100101000
0010000100100100
0010000100100100
0011111100100010
0000000000100010
0010000100100010
0001000100110100
0001001000101000
0000011110100000
0111100000100000
0010000000100000