0000100000000000
0000100000111110
0111111100100010
0000100000100100
0000100000100100
0000100000101000
1111111110100100
0001001000100100
0001001000100010
0101001100100010
0101001010100010
1001001010110100
0010001000101000
0010001000100000
0100101000100000
1000010000100000