0000000000000000
0111111101111100
0100000101000100
0100000101001000
0100000101001000
0111111101010000
0000000001001000
0111111101001000
0000100001000100
0000100001000100
0111111101000100
0000100001101000
0000100001010000
0000111101000000
1111000001000000
0100000001000000