0000000000000000
0011111000111110
0010001000100010
0010001000100100
0011111000100100
0000000000101000
0111111100100100
0100000100100100
0100100100100010
0100100100100010
0100100100100010
0100100100110100
0001010000101000
0001001000100000
0010000100100000
1100000100100000