0000000000000000
0111011100111110
0101010100100010
0101010100100100
0111011100100100
0000000000101000
0111111100100100
0000000000100100
1111111110100010
0010000000100010
0011111100100010
0000000100110100
0000000100101000
0000000100100000
0000101000100000
0000010000100000