0010001000000000
0010001000111110
1111111110100010
0010001000100100
0111111100100100
0100000100101000
0111111100100100
0100000100100100
0111111100100010
0000100000100010
1111111110100010
0000100000110100
0001010000101000
0010001000100000
0100000100100000
1000000100100000