0001001000000000
1111111110011110
0001001010010010
0111111110010010
0101001000010100
0111111111010100
0010001001011000
0111111101010100
1010000111010010
0011111100010010
0010000100010010
0011111100011010
0010000100010100
0011111100010000
0001001000010000
0010000100010000