0010001000000000
1111011110111110
0010001000100010
1111011110100100
0101010100100100
1000100010101000
0111111100100100
0000100000100100
0111111100100010
0100100100100010
0111111100100010
0100100100110100
0111111100101000
0000100000100000
1111111110100000
0000100000100000