0010001000000000
0010001000011110
1111111110010010
0010001000010010
0011111000010100
0100000100010100
0101110101011000
1101010110010100
0101010100010010
0101010101010010
1101110101010010
0100000011011010
0000000000010100
0101010010010000
0100101001010000
1000101001010000