0010000000100000
0001000000100000
0000000000100000
1111111001010000
0010000001010000
0010000010001000
0011110100000100
0010011000000010
0010010001100000
0010010000010000
0010010000000000
0010010011000000
0100010000100000
0101010000010000
1000100000001000
0000000000000000