0010000010000000
0001000010000000
0001000011111110
0000000100010000
1111111000010000
0010000010010000
0010000011111110
0011110010010000
0010010100010000
0010010000010000
0010010011111110
0010010000010000
0010010000010000
0100010000010000
0101010111111110
1000100000000000