0010000100000000
0001000100000000
0000000111111110
1111111000000000
0010010101000000
0010001001001100
0011101001100100
0010101101001100
0010101001100100
0010101010100100
0010101110101100
0010101010100100
0100111111111110
0110100010010000
1001000100001000
0000001000000100