0000000000000000
0011111111111110
0010000000000000
0010000000010000
0010000011111000
0010011110000000
0010000010000000
0010000010000000
0010000011111110
0011111110000000
0010000010000000
0010000010000010
0010000010000010
0100000010000010
0100000001111110
1000000000000000