0000000000000000
0011111111111110
0010000000000000
0010000000000000
0010111111111110
0010000100000000
0010000100000000
0010000111111000
0010000100001000
0010000100001000
0010000100001000
0010001000001000
0010001000001000
0100010000001000
0100100001010000
1001000000100000