0000000000000000
0011111111111110
0010000000000000
0010000010000000
0010000010000000
0010000010000000
0010000010000000
0010111111111100
0010000010000000
0010000010000000
0010000010010000
0010000010001000
0010000010001000
0100000010000000
0101111111111110
1000000000000000