0000000000000000
0011111111111110
0010000000000000
0010000010000000
0010000010000000
0010111111111100
0010000100000000
0010001001000000
0010010001000000
0010011111111100
0010000001000000
0010000001000000
0100111111111110
0100000001000000
1000000001000000
0000000001000000