0000000000000000
0011111111111110
0010000001000000
0010000001000000
0010011111111100
0010000001000000
0010000001000000
0010111111111110
0010000000000000
0010000001000000
0010000001000000
0010011111111100
0010000001000000
0100000001000000
0100111111111110
1000000000000000