0000000000000000
0011111111111110
0010000000000000
0010000000111000
0010011111000000
0010000001000000
0010011111111100
0010001001001000
0010001001001000
0010111111111110
0010001001001000
0010001001001000
0010111111111110
0100000001000000
0100000001000000
1000011111111100