0000000000000000
0011111111111110
0010000100010000
0010111111111110
0010000100010000
0010000111110000
0010000001000000
0010011111111100
0010010001000100
0010011111111100
0010000001000000
0010111111111110
0010000001000000
0100011111111100
0100000001000000
1000111111111110