0000000000010000
0000000011111000
0001111100000000
0001000000000000
0001000000000000
0001000000000000
0001111111111110
0001000001000000
0001000001000000
0001000001000000
0001000001000000
0001000001000000
0010000001000000
0010000001000000
0100000001000000
1000000001000000