0001000000001000
0001000000011100
0001000011100000
1111111010000000
0001000010000000
0111110010000000
0101010011111110
0111110010010000
0101010010010000
0111110010010000
0001000010010000
1111111010010000
0001000010010000
0001000100010000
0001000100010000
0001001000010000