0010001000000000
0010001000000100
0111111101111000
0010001001000000
0010001001000000
0011111001000000
0010001001111110
0010001001001000
0011111001001000
0010001001001000
0010001001001000
1111111101001000
0000010001001000
0010001010001000
0100000110001000
1000000100001000