0111111111000010
0100000001011100
0111111111010000
0101001001010000
0100101010010000
0101001001011110
0101111111010100
0101010101010100
0101111111010100
0110010001010100
0101111101010100
0101010101010100
0101111101010100
0100010001010100
1011111101100100
0000000010000100