0000100000010000
0000100000010000
0000100000010000
0000100000010000
0111111111111110
0000100000010000
0000100000010000
0000100000010000
0000100000010000
0000111111110000
0000100000010000
0000100000010000
0000100000010000
0000100000010000
0000111111110000
0000100000010000