0001000000001000
0001000000011100
0001000011100000
1111111000100000
0001000000100000
0111110000111100
0001000011100000
1111111000100000
0001000000100000
0011100000111110
0011010111100000
0101010000100000
0101000000100010
1001000000100010
0001000000100010
0001000000011110