0001000000000000
0001000111111110
0001000100000000
1111111100000000
0001000100000000
0111110111111100
0001000100000100
1111111100000100
0001000100000100
0011100100000100
0011010111111100
0101010100000000
0101000100000000
1001000100000000
0001000111111110
0001000000000000