0001000010001000
0001000010001000
0001001111111110
1111110010001000
0001000000000000
0111101111111110
0001001000000010
1111110001000100
0001000001000000
0011101111111100
0011010001000100
0101010010000100
1001000010000100
0001000100000100
0001001000101000
0001010000010000