0001000000100000
0001000100100100
0001000010100100
1111110010101000
0001000000100000
0111101111111110
0001001000000010
1111111000000010
0001001011111010
0011101010001010
0011011010001010
0101001010001010
0101001011111010
1001001000000010
0001001000001010
0001001000000100