0001001111111100
0001000001000000
0001000111111000
1111110100001000
0001000111111000
0111100100001000
0001011111111110
1111110001000010
0001001010100100
0011101010001010
0011010001111010
0101000010000000
0101000111111000
1001001010001000
0001000001110000
0001001110001110