0001000001000000
0001000000100000
0001001111111110
1111111001001000
0001001111111110
0111101001001000
0001001011101100
1111111101011010
0001001001001000
0011101111111110
0011011000100000
0101001001111100
0101001011000100
1001001101000100
0001010001111100
0001100001000100