0000000000000000
0000111111100000
0000100000100000
0000100000100000
0000100000100000
0000100000100000
0000100000100000
0111100000111100
0100000000000100
0100000000000100
0100000000000100
0100000000000100
0100000000000100
0100000000000100
0111111111111100
0100000000000100