0000010001000000
0010010001001000
0001010001010000
0000010001000000
1111111111111110
0000000000000000
0000010001000000
0010001010001000
0010111111101000
0010000100001000
0010000100001000
0010111111101000
0010000100001000
0010000100001000
0011111111111000
0000000000001000