0000100000100000
0000100000100000
0000100000100000
0000100000100000
0000100000100000
0111111011111110
0000100000100000
0000100000100000
0000100001010000
0001010001010000
0001001001010000
0001001010001000
0010000010001000
0010000100000100
0100001000000100
1000010000000010