0000001000000000
0000001000000000
0111111111111100
0000010001000000
0000100000100000
0011000000011000
1101111111110110
0001000000000000
0001001000100000
0001000101000000
0001000010000000
0001000101000000
0001001000100000
0001000000000000
0001111111111000
0000000000000000