0000100000000100
0000100000000100
0001000001000100
0001001001000100
0010001001000100
0111110001000100
0000100001000100
0001000001000100
0010010001001100
0111111001010100
0000001001100100
0000000001000100
0101001000000100
0100100100000100
1000100100000100
0000000000000100