0001000001000000
0001000001000000
0010000010000000
0010010011111100
0100010100000100
1111101000000100
0001000000000100
0010000100000100
0100100010000100
1111110001000100
0000010001000100
0000000000000100
0101010000000100
0101010000000100
1000000000101000
0000000000010000