0000001000000000
0000000100000000
0111111111111100
0000100000100000
0000011111000000
0001100000110000
1110001000001110
0000010000100000
0001111111000000
0000000110000000
0000011000010000
0011111111111000
0000000100001000
0001000100100000
0010010100010000
0100001000001000