0001000000001000
0001000010001000
0010000001001000
0010010001001000
0100010000001000
1111100010001000
0001000001001000
0010000001001000
0100100000001000
1111110000001110
0000010111111000
0000000000001000
0101010000001000
0101010000001000
1000000000001000
0000000000001000