0001000001000000
0001000000100000
0010000000100000
0010010111111110
0100010001000000
1111100001000000
0001000001000000
0010000001111100
0100100001000100
1111110001000100
0000010001000100
0000000001000100
0101010010000100
0101010010000100
1000000100101000
0000001000010000