0000000100000000
0000000100000000
0011111111111000
0000000100000000
0000000100000000
0111111111111110
0100001000000010
1000010000100100
0001111111000000
0000000110000000
0000011000010000
0011111111111000
0000000100001000
0001000100100000
0010010100010000
0100001000001000