0001000000100000
0001000000100000
0010000100100000
0010010100100000
0100010111111100
1111100100100000
0001001000100000
0010000000100000
0100101111111110
1111110000100000
0000010001010000
0000000001010000
0101010010001000
0101010010001000
1000000100000100
0000001000000010