0000100010000000
0010100010001000
0010111011110000
0010100010000100
0010111010000100
1111000001111100
0000001000000000
0000010000100000
0001111111000000
0000000110000000
0000011000010000
0011111111111000
0000000100001000
0001000100100000
0010010100010000
0100001000001000