0000010000100000
0000010000100000
0111111110100000
0000111000100010
0001010100100010
0110010010011110
0000001000000000
0000010000100000
0001111111000000
0000000110000000
0000011000010000
0011111111111000
0000000100001000
0001000100100000
0010010100010000
0100001000001000