0001000001010000
0001000001001000
0010000001001000
0010010001000000
0100011111111110
1111100010000000
0001000010000000
0010000011111100
0100100101000100
1111110101000100
0000010100101000
0000000100101000
1010101000010000
1010101000101000
1000010001000100
0000000110000010