0001000001000000
0001000000100000
0010000000000000
0010010111111110
0100010000100000
1111100000100000
0001000000100000
0010000000100000
0100100111111100
1111110000100000
0000010000100000
0000000000100000
0101010000100000
0101010000100000
1000001111111110
0000000000000000