0001000000000000
0001000111111100
0010000001000100
0010010001000100
0100010001000100
1111100001000100
0001000010010100
0010000010001000
0100100100000000
1111110011111100
0000010010000100
0000000010000100
0101010010000100
0101010010000100
1000000011111100
0000000010000100