0001000010010000
0001000010010000
0010000010010000
0010101111111100
0100100010010100
1111000010010100
0001001111111100
0010001010010000
0100101010010000
1111101111111110
0000100010010010
0000000010010010
1010100100011010
1010100100010100
1000001000010000
0000010000010000