0001000000100000
0001000000010000
0010000000010000
0010010111111110
0100010000100000
1111100000100100
0001000001000100
0010000011111000
0100100000010010
1111110000100010
0000010001000100
0000000110001000
0101010000010000
0101010000101000
1000000001000100
0000000110000010