0001000001000000
0001000001000000
0010000011111000
0010010100001000
0100011000010000
1111100111111100
0001000100100100
0010000100100100
0100100100100100
1111110111111100
0000010100000000
0000000100000000
0101010100000010
0101010100000010
1000000011111110
0000000000000000