0111111001111100
0001001001000100
0010101001001000
0100010001000100
1011111001000100
0010001001010100
0010001001001000
0011111000000000
0000010001000000
0000100010000000
0001111100000000
0000001000010000
0011111111111000
0000000100001000
0001010100100000
0010001000010000