0001000000011100
0001001111100000
0010000010000100
0010101001000100
0100100101001000
1111000100010000
0001011111111110
0010010000000010
0100100000000000
1111101111111000
0000100100001000
0000000100010000
1010100010100000
1010100001000000
1000000110110000
0000011000001110