0001000001000000
0000100001000000
0011111001111110
0010001010001000
0010001101010000
0011111000100000
0010000001011000
0100000110000110
1000010001000000
0000100010000000
0001111100000000
0000001000010000
0011111111111000
0000000100001000
0001010100100000
0010001000010000