0001000000100000
0001000001000000
0010000111111100
0010100100000100
0100100111111100
1111000100000100
0001000111111100
0010000000100000
0100100000100000
1111101111111110
0000101000100010
0000001000100010
1010101000101010
1010101000100100
1000000000100000
0000000000100000