0001000000001000
0001000000001100
0010000000001010
0010101111111110
0100101000001000
1111001000001000
0001001011101000
0010001000001010
0100101000001010
1111101011101100
0000101010101100
0000001010101000
1010101011101010
1010101000011010
1000001000100110
0000010001000010