0001000000000000
0001000111111000
0010000100001000
0010100100001000
0100100111111000
1111000000000000
0001011111111110
0010000100001000
0100100111111000
1111100100001000
0000100111111000
0000000100001000
1010100100111110
1010111111001000
1000000000001000
0000000000001000