0001000010000000
0001001100111000
0010001000101000
0010101000101000
0100101110101000
1111001001000110
0001001000000000
0010001001111100
0100101110100100
1111101000100100
0000101000101000
0000001110101000
1010111000010000
1010101000101000
1000001001000100
0000001010000010