0001000000001000
0001000000111100
0010000111100000
0010100000100000
0100101111111110
1111000000100000
0001000111111100
0010000100100100
0100100111111100
1111110100100100
0000010111111100
0000000000100000
0101010111111100
0101010000100000
1000001111111110
0000000000000000