0001000010000000
0001000011111100
0010000100000100
0010100111111000
0100100000001000
1111001111111110
0001000001000000
0010000010100010
0100101100110100
1111100001011000
0000100010010100
0000001100110100
1010100001010010
1010100010010000
1000001101010000
0000000000100000