0001000010001000
0001000001001000
0010000001010000
0010010111111100
0100010100000100
1111100100000100
0001000100000100
0010000111111100
0100100000100000
1111110000010000
0000010001010100
0000000101000010
0101010101000010
0101010101001010
1000001000111000
0000000000000000