0001001001000100
0001000100100100
0010000100101000
0010010001111110
0100010000010000
1111101101010100
0001000101010100
0010000101010100
0100100101111100
1111110100010100
0000010100100000
0000000100100000
1010100101000000
1010101010000000
1000010001111110
0000000000000000