0000000000000000
0111110000001100
0100010011110000
0111110000100000
0100010001000100
0111110011111000
0100010000010000
0111110000100100
0100010011111110
1111111000010010
0001000001010000
0101010001010100
0101001010010010
1001001100010010
0101000001010000
0010000000100000