0001000000100000
0001000000010000
0010001111111110
0010101000000010
0100100010000000
1111000011111110
0001000100010000
0010001100100000
0100110101111100
1111100101000100
0000100101000100
0000000101111100
1010100101000100
1010100101000100
1000000101111100
0000000101000100