0001000000100000
0001001111111110
0010000000100000
0010010111111100
0100010100100100
1111100111111100
0001000100100100
0010000111111100
0100100000100010
1111110111111110
0000010000001000
0000000111111110
0101010100001000
0101010010001000
1000000000101000
0000000000010000