0001000000000000
0001000111111000
0010000100001000
0010100111111000
0100100100001000
1111000111111000
0001000000000000
0010001111111100
0100101010010100
1111101111111100
0000100000000000
0000000111111000
1010100010010000
1010100001100000
1000000110011000
0000011000000110