0001000000000000
0001001111111110
0010000001010000
0010010111111100
0100010101010100
1111100101010100
0001000111111100
0010000000000000
0100100111111100
1111110000000000
0000011111111110
0000000000100000
0101010010101000
0101010100100100
1000001010100010
0000000001000000