0000000100000000
0010010010001000
0010010000100100
0100001111100100
0000000000000000
0010010000100100
0001001000010010
1010000010100000
1010010010100100
0001110000011100
0000010000100000
0001111111000000
0000001000010000
0011111111111000
0000100100100000
0001001100010000