0001000000100000
0001000111111100
0010000000100100
0010101111111110
0100100000100100
1111000111111100
0001000000100000
0010001111111110
0100100000000000
1111110111111100
0000010100100100
0000000111111100
0101010100100100
0101010111111100
1000000000000000
0000001111111110