0001000000000000
0001000111111100
0010000000100000
0010101111111110
0100101000100010
1111000110101100
0001000000100000
0010000110101100
0100100000000000
1111110111111100
0000010000000000
0000001111111110
0101010001000000
0101010010001000
1000000111111100
0000000010000100