0001000000000000
0001001111111110
0010000000000000
0010010111111100
0100010100100100
1111100111111100
0001000100100100
0010001111111110
0100100000000000
1111110111111100
0000010100100100
0000000111111100
0101010100100100
0101010111111100
1000000000000000
0000001111111110