0001000000000000
0001001111111100
0010001010010100
0010101010010100
0100101111111100
1111000000000000
0001011111111110
0010000000000000
0100101111111100
1111101000000100
0000101111111100
0000000010100010
1010100100010100
1010101100001000
1000110101000100
0000000110000010