0001000010001000
0001001111111110
0010000010001000
0010100100000000
0100101111111100
1111010101010100
0001000011010100
0010001100100100
0100100001010100
1111100010010100
0000101101001000
0000000000100000
1010100010100100
1010101010001010
1000001010001010
0000010001111000