0001000010001000
0001010001001000
0010001001010000
0010100011111100
0100100000100000
1111000001010000
0001011010010100
0010001000111000
0100101001010000
1111101010011000
0000101000110100
0000001001010100
1010101010010000
1010101000100000
1000010111111110
0000100000000000