0001000111111100
0001000100100100
0010000111111100
0010100100100100
0100101111111110
1111001010101010
0001001111111110
0010001010101010
0100101111111110
1111100010001000
0000100111110000
0000000001100100
1010101111111110
1010100100100100
1000001000100010
0000000001100000