0001000000100000
0001000000100000
0010000000100000
0010010111111110
0100010000100000
1111100000100000
0001000011111100
0010000000100000
0100000000100000
1111110111111110
0100000000100010
0000000000100010
0001110000101010
1110000000100100
0100000000100000
0000000000100000