0001000010000000
0001000001000000
0010000001000000
0010011111111100
0100100100010000
1111000100010000
0001000100010000
0010000100010000
0100000100010000
1111100010100000
0100000010100000
0000000001000000
0001100010100000
1110000100010000
0100001000001000
0000110000000110