0001000000000100
0001000111100100
0010000000100100
0010010000100100
0100010000100100
1111100111100100
0001000100000100
0010000100000100
0100000100000100
1111110111100100
0100000000100100
0000000000100100
0001110000100100
1110000000100100
0100000101000100
0000000010000100