0001000000000000
0001001111111110
0010000000100000
0010010000100000
0100010111111100
1111100100100100
0001000100100100
0010000111111100
0100000100100100
1111110100100100
0100000111111100
0000000100100000
0001110010100000
1110000001000000
0100000010110000
0000001100001110