0001000000000000
0001000001010000
0010000001001000
0010010010000100
0100010100100100
1111100000100000
0001000001010000
0010000010001000
0100000100000110
1111110011111000
0100000010001000
0000000010001000
0001110010001000
1110000010001000
0100000011111000
0000000010001000