0001000001000000
0001000001000100
0010001111110100
0010000001001000
0100100001010000
1111011111111110
0001000001000000
0010000010000000
0100000111111000
1111101100001000
0100010100001000
0000000111111000
0001100100001000
1110000100001000
0100000111111000
0000000100001000