0001000000100000
0001000000100000
0010000111111100
0010000000100000
0100100000100000
1111101111111110
0001000010001000
0010000101000100
0100001001000010
1111100011111000
0100000110001000
0000001001010000
0001100000100000
1110000001010000
0100000110001000
0000011000000110