0001000001000000
0001000000100000
0010001111111110
0010001000000010
0100100000000000
1111100111111100
0001000000000000
0010000000000000
0100001111111110
1111100000100000
0100000100101000
0000000100100100
0001101000100010
1110010000100010
0100000010100000
0000000001000000