0010000000010100
0010000000010010
0010000000010000
0100011111111110
0101010000010000
1111010000010000
0010010111010000
0010010000010010
0100010000010010
1111010111010100
0100010101010100
0000010101001000
0011010111011010
1100010000101010
0000100001000110
0001000010000010