0001000000000000
0001000111111100
0010000100100100
0010000100100100
0100100111111100
1111100100100100
0001000100100100
0010000111111100
0100000000000000
1111100001000000
0100000000100100
0000001010100010
0001101010001010
1110010010001000
0100000001111000
0000000000000000