0001000000100000
0001000100100100
0010000010101000
0010000000100000
0100101111111110
1111100010101000
0001000100100100
0010001000000010
0100000001000000
1111101111111110
0100000010001000
0000000100001000
0001100110010000
1110000001100000
0100000110011000
0000011000000100