0001000000000000
0001001111111100
0010000010010000
0010001010010100
0100100110011000
1111100010010000
0001011111111110
0010000000000000
0100000111111000
1111100100001000
0100000100001000
0000000111111000
0001100100001000
1110000100001000
0100000111111000
0000000100001000