0001000001000000
0001000000100000
0010001111111110
0010000000000000
0100100101010100
1111100100100100
0001000101010100
0010000111111100
0100000000100000
1111101111111110
0100001001000010
0000001010010010
0001101011111010
1110001000001010
0100001000000010
0000001000000110