0001000001000000
0001000000100000
0010001111111110
0010001000000010
0100110000010100
1111100111100000
0001000100000000
0010000100000000
0100000111111100
1111100100010000
0100000100010000
0000011111111110
0001100000000000
1110000010010000
0100000100001000
0000001000000100