0001000000010000
0001010011111110
0010001010010010
0010001011111110
0100100000010000
1111100111111110
0001000000000000
0010111011111110
0100001010000010
1111101011111110
0100001010000000
0000001011111110
0001101010000010
1110001011111110
0100010100000000
0000100011111110