0001000010000000
0001000010000000
0001000010000000
0001000010000000
1111110111110000
0001000010010000
0001000010010000
0001010010010000
0001100010010000
0011000010010000
1101000010010000
0001000010010010
0001000100010010
0001000100010010
0101001000001110
0010010000000000