0001000000000000
0001000000000000
0001000111111100
0001000000100000
1111111000100000
0001000000100000
0001000000100000
0001001000100000
0001110000100000
0011000000100000
1101000000100000
0001000000100000
0001000000100000
0001000000100000
0101001111111110
0010000000000000