0001000000010000
0001000010010000
0001000010010000
0001000010001000
1111110100001000
0001000100000100
0001001000000100
0001010111111010
0001100010001000
0011000010001000
1101000010001000
0001000010001000
0001000100001000
0001000100001000
0101001000101000
0010010000010000