0001000001000000
0001000001000000
0001000010100000
0001000010100000
1111110100010000
0001001010001000
0001010001000110
0001000001000000
0001100000000000
0011001111111000
1101000000001000
0001000000010000
0001000000010000
0001000000100000
0101000000100000
0010000001000000