0001000000100000
0001000000100000
0001000000100000
0001000001010000
1111110001010000
0001000010001000
0001010100000100
0001101000000010
0011000001100000
1101000000010000
0001000000000000
0001000011000000
0001000000100000
0001000000010000
0101000000001000
0010000000000000