0001000000100000
0001000000100000
0001000000100000
0001000000100000
1111110111111100
0001000000100000
0001000000100000
0001010000100000
0001101111111110
0011000000100000
1101000001010000
0001000001010000
0001000010001000
0001000010001000
0101000100000100
0010001000000010