0001000010010000
0001000010001000
0001000010001000
0001000010000000
1111110010111100
0001001111000000
0001000010000000
0001010010001000
0001100010001000
0011000010010000
1101000001100000
0001000001000100
0001000010100100
0001000100010100
0101001000001100
0010000000000100