0001000001000000
0001000001000000
0001000010000000
0001000010001000
1111110100000100
0001001111111110
0001000000000010
0001010010010000
0001100010010000
0011000010010000
1101000010010000
0001000010010000
0001000100010010
0001000100010010
0101001000001110
0010010000000000