0001000001000000
0001000001000000
0001000001000000
0001001111111000
1111100001001000
0001000001001000
0001010001001000
0001100001001000
0011011111111110
1101000001000000
0001000010100000
0001000010100000
0001000100010000
0001000100010000
0101001000001000
0010010000000110