0001000000001000
0001000000011100
0001000111110000
0001000101010000
1111110101010000
0001000101010000
0001000101010000
0001010101010000
0001100101010000
0011000101001000
1101000101001000
0001000101001000
0001000101000100
0001001001000100
0101001001000010
0010010000000000