0001001000010000
0001001000010000
0001001000010000
0001001001111100
1111101000010100
0001011110010100
0001001010010100
0001101010010100
0011001010100100
1101001010100100
0001001011010100
0001001010001010
0001010010000010
0001010010000010
0101100001111110
0011000000000000