0001000000100000
0001000000100000
0001000000100000
0001000111111100
1111110000100000
0001000001000000
0001000111111110
0001010001000000
0001100010000000
0011000111111100
1101000000000100
0001000010001000
0001000001010000
0001000000100000
0101000000010000
0010000000010000