0001000000000000
0001000000000000
0001011111111110
0001000000001000
1111110000001000
0001001111001000
0001001001001000
0001011001001000
0001101001001000
0011001001001000
1101001111001000
0001001001001000
0001000000001000
0001000000001000
0101000000101000
0010000000010000