0001000000000000
0001001111111100
0001001000000100
0001001000000100
1111111000000100
0001001111111100
0001001000100000
0001011000100000
0001101111111110
0011001000100000
1101001000100000
0001001000010000
0001001000010010
0001001010001010
0101001100000110
0010001000000010