0001000000000000
0001001111111100
0001000010000100
0001000010000100
1111110010000100
0001000100000100
0001000100010100
0001001000001000
0001110000000000
0011000111111100
1101000100000100
0001000100000100
0001000100000100
0001000100000100
0101000111111100
0010000100000100