0010001000000000
0010001000111000
0010001000101000
1111101110101000
0010001010101000
0010001010101000
0011010010101000
0010011010101010
1110101010101010
0010001010101010
0010000100100110
0010000101000000
0010001010000000
0010001001100000
1010010000011110
0100100000000000