0001000001000000
0001000001001000
0001001001000100
0001001001000000
1111101111111110
0001000010000000
0001010010000000
0001100011111100
0011000101000100
1101000101000100
0001000101001000
0001001001010000
0001001000100000
0001010001010000
0101100010001000
0010001100000110