0001000000101000
0001000000100100
0001000000100100
0001000000100000
1111101111111110
0001000000100000
0001010000100000
0001101110100000
0011000100100000
1101000100010000
0001000100010000
0001000100010000
0001000111001010
0001011100001010
0101001000000110
0010000000000010