0001000001000000
0001000001000000
0001000001000000
0001001111111110
1111110010000000
0001000010000000
0001000101111000
0001010100001000
0001101100010000
0011010100010000
1101000111111110
0001000100010000
0001000100010000
0001000100010000
0101000101010000
0010000100100000