0001000000000000
0001000000000000
1111111001111100
0010001001000100
0100001001000100
0011010001000100
0000100001111100
0011010000000000
1100001000100000
0001111111000000
0000000100000000
0011111111111000
0000000100000000
0111111111111100
0000000100000000
0000001100000000