0001000010010000
0001000010010000
0001000010010000
0001001010010010
1111110110010100
0001000010011000
0001000010010000
0001010110011000
0001101010010100
0011010010010010
1101000010010000
0001000010010000
0001000100010010
0001000100010010
0101001000010010
0010010000001110