0001000000100000
0001000000100000
0001001111111110
0001000000100000
1111110111111100
0001000000100100
0001000111111100
0001010100100000
0001100111111110
0011000000100010
1101000000101010
0001000001010100
0001000001010000
0001000010001000
0101000100000100
0010001000000010