0001000000100000
0001000000100000
0001001111111110
0001000000100000
1111110000100000
0001001111111110
0001001000000010
0001010000000100
0001100111111000
0011000000010000
1101000000100000
0001001111111110
0001000000100000
0001000000100000
0101000010100000
0010000001000000