0001000010000000
0001000010000000
0001000111111000
0001001000001000
1111110000010000
0001001111111100
0001001001000100
0001011001000100
0001101001000100
0011001111111100
1101000010100000
0001000010100000
0001000100100010
0001000100100010
0101001000011110
0010010000000000