0001000000101000
0001000000100100
0001000000100100
0001000000100000
1111110111111110
0001000000100000
0001000100100000
0001010010110010
0001100010110100
0011000001101000
1101000010101000
0001000100100100
0001001000100010
0001000000100000
0101000010100000
0010000001000000