0001000000000000
0001000111111100
0001000100000100
0001000100000100
1111110111111100
0001000100000100
0001000100000100
0001010111111100
0001100000100000
0011000000100000
1101000111111100
0001000000100000
0001000000100000
0001000000100000
0101001111111110
0010000000000000