0001000000000000
0001000011111100
0001000010000100
0001001010000100
1111111011111100
0001001010000100
0001001010000100
0001011011111100
0001101000000000
0011001111100000
1101000000100000
0001001111111110
0001000000100000
0001000001010000
0101000010001000
0010001100000110