0001000000000000
0001000111111000
0001000100001000
0001000100001000
1111110100001000
0001000100001000
0001000111111000
0001010000000000
0001100000000000
0011001111111100
1101001000000100
0001001000000100
0001001000000100
0001001000000100
0101001111111100
0010001000000100