0001000100000100
0001000010000100
0001000010001000
0001000000010000
1111110111111100
0001000100000100
0001000100000100
0001010100000100
0001100111111100
0011000001010000
1101000001010000
0001000010010000
0001000010010010
0001000100010010
0101001000001110
0010010000000000