0001000000000000
0001000011111000
0001000010001000
0001000010001000
1111110011111000
0001000000000000
0001000111111100
0001010100000100
0001100100100100
0011000100100100
1101000100100100
0001000100100100
0001000001010000
0001000001001000
0101000010000100
0010001100000100