0001000000001000
0001000000011100
0001000111100000
0001000100000000
1111110100000000
0001000111111110
0001000100010000
0001010100010000
0001100100010000
0011000100010000
1101011111111110
0001000000000000
0001000010010000
0001000100001000
0101001000000100
0010010000000010