0001000001000000
0001000001000000
0001000010100000
0001000010100000
1111110100010000
0001001000001000
0001010111110110
0001000000000000
0001100010001000
0011000001001000
1101001001001000
0001000101010000
0001000100010000
0001000000100000
0101011111111110
0010000000000000