0001000000001000
0001000000011100
0001000111100000
0001000100000000
1111110111111110
0001000100010000
0001010100010000
0001100100010000
0011011111111110
1101000000000000
0001000000100000
0001001000100010
0001001000100010
0001001000100010
0101001111111110
0010000000000010