0001000000100000
0001000000100000
0001001111111110
0001000001010000
1111110010101000
0001000100100100
0001001011111010
0001010000100000
0001100010101000
0011000010001000
1101001111111110
0001000010001000
0001000010001000
0001000010001000
0101000100001000
0010001000001000