0001000000000000
0001000011111100
0001000010000000
0001000011111000
1111110010000000
0001000011111000
0001000010000000
0001011111111110
0001100101000000
0011000100100100
1101000100101000
0001000100010000
0001000100001000
0001000101000100
0101000110000010
0010000100000000