0001000001000000
0001000000100000
0001001111111110
0001001000000000
1111111000100000
0001001000100000
0001001000111110
0001001000100000
0001101000100000
0011001011111100
1101001010000100
0001001010000100
0001001010000100
0001010010000100
0101010011111100
0010100010000100