0010000000000000
0010011110111100
0010000010000100
0010001010010100
1111100100001000
0010001010010100
0010010010100100
0010100001000000
0011000000000000
1110011110111100
0010000010100100
0010001010100100
0010000100101000
0010001010010000
1010010010101000
0100100001000110