0010010000000100
0011111110100100
0100010000100100
1111111110100100
0000010000100100
0011111110000100
0010010010010100
0010010110001000
0000000000100000
0001111111000000
0000000100000000
0011111111111000
0000000100000000
0111111111111100
0000000100000000
0000001100000000