0001000000000000
0001000111111100
0001000100000100
0001000111111100
1111110100000100
0001000111111100
0001000010000000
0001010010000000
0001100111111110
0011001001001010
1101010001001010
0001000010010010
0001000100100010
0001001001000010
0101000010010100
0010000100001000