0010010001000000
0010001001011110
0010001010010010
0010000000010010
1111111111010100
0010000100010100
0010000100011000
0010100100010100
0011011111110010
1110000100010010
0010000100010010
0010000100011010
0010001010010100
0010001001010000
1010010001010000
0100100000010000