0001000100001000
0001000010010000
0001000000000000
0001001111111100
1111110010010000
0001000010010000
0001000010010010
0001010010010010
0001101010010100
0011001010011000
1101000010010000
0001000010010000
0001000010010000
0001000010010000
0101011111111110
0010000000000000