0001000001000000
0001000000100000
0001001111111110
0001001000000010
1111110000000100
0001000111111100
0001010000000000
0001100111111100
0011000100000100
1101000111111100
0001000100000100
0001000111111100
0001000100000100
0001000000000000
0101001111111110
0010000000000000