0001000010000000
0001000010000000
0001000111111000
0001001000001000
1111110000010000
0001001111111110
0001001000000010
0001101001010010
0011001010001010
1101001000100010
0001000000100000
0001011111111110
0001000001010000
0001000010001000
0101000100000100
0010011000000010