0001000000000000
0001001111011110
0001001001010010
0001001001010010
1111101001010010
0001001111010010
0001001001010010
0001101001010010
0011001001010010
1101001111010010
0001001000011010
0001001010010100
0001001001010000
0001001010110000
0101001100010000
0010000000010000