0001000000001000
0001000000111100
0001000111100000
0001000000100000
1111101111111110
0001000000100000
0001010111111100
0001100100100100
0011000111111100
1101000100100100
0001000111111100
0001000000100000
0001000111111100
0001000000100000
0101001111111110
0010000000000000