0001000100001000
0001000010001000
0001000010010000
0001001111111100
1111111000000100
0001001000000100
0001001000000100
0001001111111100
0001100001000000
0011000000100000
1101000010100100
0001001010000010
0001001010001010
0001001010001010
0101010001111000
0010000000000000