0001000010001000
0001000010001000
0001001111111110
0001000010001000
1111110111111100
0001000010001000
0001001111111110
0001010000100000
0001100111111100
0011000100100100
1101000111111100
0001000100100100
0001001111111110
0001000100000100
0101000100010100
0010000100001000