0001000000100000
0001000000100000
0001000111111100
0001000000100000
1111110000100000
0001001111111110
0001000010000000
0001010100000100
0001101111111110
0011000000000010
1101001111111100
0001001010010100
0001001010010100
0001001010010100
0101011111111110
0010000000000000