0010000000010100
0010000000010010
0010000000010000
0010011111111110
1111110000010000
0010010000010000
0010011111110010
0010110010010010
0011010010010010
1110010110110100
0010011011010100
0010010010001000
0010010101001010
0010100100111010
1010101000100110
0101000001000010