0001000000000000
0001001111111110
0001000001010000
0001000001010000
1111101111111110
0001001001010010
0001011001010010
0001101111111110
0011000000100000
1101000000100000
0001001111111110
0001000001110000
0001000010101000
0001000100100100
0101011000100010
0010000000100000