0000000100000000
0111111111111110
0100010001000010
1001111111110100
0000010001000000
0011111111111000
0000010001000000
1111111111111110
0000100000100000
0001011111010000
0010000100001000
1101111111110110
0000000100000000
0111111111111000
0000000100000000
0000001100000000