0001000000000000
0001001111111110
0001001001010010
0001001001010010
1111101111111110
0001000000100000
0001010000100000
0001100111111100
0011000000100000
1101000000100000
0001011111111110
0001000001000000
0001000010001000
0001000100000100
0101001111111110
0010000100000010