0001000001000000
0001000000100000
0001001111111110
0001001000000010
1111110000010100
0001000111100000
0001000100000000
0001010100000000
0001100111111100
0011000100010000
1101000100010000
0001011111111110
0001000000000000
0001000010010000
0101000100001000
0010001000000100