0010000000000000
0010010001011100
0010001010010100
0010000100010100
1111101010010100
0010010001010100
0010000100100110
0010100100000000
0011011111011100
1110000100010100
0010010110010100
0010010101010100
0010100101001000
0010000100001000
1010010100010100
0100001000100010