0010000000000000
0010001111111100
0010001000000100
0010001000000100
1111101111111100
0010001000000000
0010001010000100
0010101001001000
0011001011111100
1110001001001000
0010001001001000
0010001111111110
0010010001001000
0010010001001000
1010100010001000
0101000100001000