0001000000100000
0001010001111100
0001001010000100
0001000101001000
1111110000110000
0001000011001110
0001011000010000
0001101001111100
0011001000010000
1101001001111100
0001001000010000
0001001011111110
0001001000010000
0001001000010000
0101010111111110
0010100000000000