0001000001000000
0001000000100000
0001001111111110
0001000000100000
1111110001001000
0001001011110010
0001000100100100
0001011001010010
0001100011111000
0011000000001000
1101000000100000
0001001111111110
0001000000100000
0001000000100000
0101000000100000
0010000000100000