0001000000100000
0001000100100100
0001000010101000
0001001111111110
1111101000000010
0001000011111000
0001010010001000
0001100010001000
0011000011111000
1101000000100000
0001000000100000
0001000111111100
0001000000100000
0001000000100000
0101001111111110
0010000000000000