0001000000000000
0001001111111100
0001001001000100
0001001111111100
1111111001000100
0001001111111100
0001000010000000
0001010100010000
0001101111100000
0011000001001000
1101000110000100
0001001111111110
0001000000100010
0001000100101000
0101001010100100
0010010001000010