0010000000000000
0010011110111110
0010010010001000
0010010010001000
1111011110101000
0010010010101000
0010010010101000
0010011110111110
0011010000010000
1110010100011000
0010010010011000
0010010110101000
0010011010101010
0010010001001010
1010000001000110
0100000010000000