0000000010000000
0011111111111110
0010010000010000
0011111101111100
0010011000111000
0010110101010100
0011010000010010
0010000000111000
0010011111000000
0010000001000000
0010011111111000
0010000001000000
0010111111111110
0100000001000000
0100000101000000
1000000010000000