0010000010010000
0010001010010000
0010001010011110
0010001010100010
1111101011010100
0010001110101000
0010000010010100
0010100010100100
0011011111111110
1110001010000100
0010001010100100
0010001010010100
0010001010010100
0010001010000100
1010010010010100
0100100010001000