0010001000000000
0010001001111100
0010001001000100
0010011101000100
1111101001111100
0010001001000100
0010001001000100
0010111101111100
0011001001000100
1110001001000100
0010001001111100
0010001000101000
0010010100101000
0010010101001010
1010100001001010
0101000010000110