0000100000100000
0111111100100000
0000100001111110
0111111001000100
0000100010100100
1111111100101000
0001000000010000
0001111000101000
0010001001100100
0101111111000010
1000000100000000
0011111111111000
0000000100000000
0111111111111100
0000000100000000
0000001100000000