0010000010001000
0010001010101010
0010001011011100
0010010010001000
1111100101010100
0010001000100010
0010000000000000
0010101111111110
0011001001000010
1110010001000100
0010001111111100
0010000001000100
0010000001000100
0010000010000100
1010000100010100
0100001000001000