0010010010000000
0010010010000010
0010010010011100
0010111111010000
1111010010010000
0010011110010000
0010010010011110
0010011110010100
0011010010010100
1110010010010100
0010111111010100
0010000000010100
0010010100010100
0010100010100100
1011000000100100
0100000001000100