0001000000100000
0001000100100100
0001000010101000
0001001111111110
1111110010101000
0001000100100100
0001001000100010
0001000100000100
0001100100000100
0011000111011110
1101001001000100
0001010101010100
0001000010011110
0001000100000100
0101001000000100
0010010000000100