0010000000000000
0010011110111100
0010010010100100
0010011110111100
1111110000100000
0010010010100100
0010001110011100
0010100000000000
0011000100010000
1110011111111100
0010000100010000
0010000100010000
0010111111111110
0010000100010000
1010001000001000
0100010000000100