0001000001010000
0001001001010010
0001000101010100
0001000001010000
1111101111111110
0001000010001000
0001010001010000
0001101111111110
0011000000100000
1101000111111100
0001000000100000
0001001111111110
0001000010101000
0001000100100100
0101011000100010
0010000000100000