0010000001000000
0010000010100000
0010000100010000
0010001001001000
1111110111110110
0010000010100000
0010001001001000
0010101010101000
0011001111111000
1110000001000000
0010011111111100
0010010010000100
0010010100100100
0010010111110100
1010010000010100
0100010000001100