0010000000000000
0010011111111100
0010001001001000
1111010001000100
0010111111111110
0010010001000100
0010011011101100
0011010101010100
1110011011101100
0010010001000100
0010011011101100
0010010101010100
0010011011101100
0010010001000100
1010010001010100
0100010000001000