0011111111111110
0010100010001000
0010111110001010
0010000000001000
0010111110111110
0010100010001000
0010111110001000
0010100010010100
0010100110100010
0010011111111000
0010000001000000
0010011111111100
0010000001000000
0101111111111110
0100000001000000
1000000011000000