0010000000000000
0010111111111110
0010100000001000
0010101111001000
1111101001001100
0010101111001010
0010101001001000
0010101111011110
0011100000001000
1110101111001000
0010101001001000
0010101111010100
0010101001010100
0010101111010100
1010101001010100
0101001011100010