0010000100010000
0010000100010100
0010011111010010
0010000100010000
1111111111111110
0010001010010000
0010010001010000
0010111111110100
0011010010010100
1110011111110100
0010010010010100
0010011111101000
0010010010001010
0010011111111010
1010010000100110
0100000001000010