0001000100100100
0001001001001000
0001000100100100
0001000000000000
1111101111111100
0001001010010100
0001011001100100
0001101010010100
0011001111111100
1101001001001000
0001001101101000
0001001001001000
0001001101101010
0001001001001010
0101001001000110
0010001101100010