0001000010001000
0001000010001000
0001001111111110
0001000010001000
1111110100010000
0001000111011110
0001001001010010
0001010101010100
0001101010001000
0011000101110100
1101001000000010
0001000111111100
0001000000100000
0001000100100100
0101001000100010
0010000001100000