0010000000100000
0010011111111110
0010010010001000
0010011111011110
1111110010001000
0010010111011100
0010011010101010
0010110010001000
0011010001010000
1110011111011110
0010010001010000
0010010111011100
0010010001010000
0010101111011110
1010100001010000
0101000001010000