0010000001000000
0010011111111100
0010001001001000
0010001111111000
1111000001000000
0010111111111110
0010101010101010
0010001110111000
0011000100010000
1110011111111100
0010000100010000
0010111111111110
0010000100101000
0010001100010000
1010110101001000
0100000110000110