0000000100000000
1111111111111110
0000001010000100
0111110101111000
0010010101010000
0010010101001000
0100110101100100
0010000000001000
0011111111111000
0010000000001000
0011111111111000
0100000000001000
0011111111111000
0010010001001000
0010010001001000
1111111111111110