0000000100000000
0000000100000000
0111111111111100
0000000100000000
0000000100000000
0011111111111000
0000000100000000
0000000100000000
1111111111111110
0000100000000000
0001111111110000
0010100000100000
0100010001000000
0000001110000000
0001110001110000
1110000000001110