0001000000100000
0001000000010000
1111111011111110
0101010000101000
0101010010010010
1011101010101010
0001000010000010
0011100011111110
0101010000010000
1010001011111110
0011110010100010
0100010010101010
1010100010111010
0001000010000010
0010100010001010
1100000010000100