0001000010000000
0001000010000000
1111111011111110
0001000100000010
0111111000100010
0001000010101010
1111111001110010
0010000000100010
0011110111111110
0100010000100010
0100100001110010
1010100010101010
0001000100100010
0010100000100010
0100000000001010
1000000000000100