0000001000000000
0000001000000000
0000001000000000
1111111111111110
0000010000000000
0000010000000000
0000010000000000
0000100000000000
0000111111111000
0001000010000000
0001000010000000
0010000010000000
0100000010000000
1000000010000000
0011111111111110
0000000000000000