0000000000000000
0111110111110000
0001000100010000
0001000100010000
0001000100010010
0001110100010010
1110001000001110
0100010000000000
0000000100000000
0011111111111000
0000000100000000
1111111111111110
0000001010000000
0000010001000000
0001100000110000
0110000000001100