0000100000100000
0000010001000000
0111111111111100
0000000100000000
0000000100000000
0011111111111000
0000001000000000
0000001000000000
1111111111111110
0000010000000000
0000100000000000
0001011111111000
0010000010000000
0100000010000000
1000000010000000
0001111111111100