0000000000000000
0111111111111000
0000000000010000
0000000000100000
0010000001000000
0001000110000000
0000100100000000
0000010100000000
0000001100000000
0000000100000000
0000000110000000
0000000101000000
0000000100110000
0000000100001100
0000010100000000
0000001000000000