0000000001000000
0111111001000000
0000001001000000
0000010001000000
0000100001000000
0000100001000000
0000101001000000
0000110001000000
0011100001000000
1100100001000000
0000100001000000
0000100001000010
0000100001000010
0000100001000010
0010100000111110
0001000000000000