0000000011111000
0111111100000000
0010001000010000
0001000100010000
0001000100100000
0000000000000000
0001111111100000
0000000001000000
0000000010000000
0000000100000000
1111111111111110
0000000100000000
0000000100000000
0000000100000000
0000010100000000
0000001000000000