0000100000100000
0001000000100000
0010001011111100
0111110000100100
0000100000100100
0001001001000100
0111111101010100
0000000010001000
0000000100000000
0011111111100000
0000000010000000
0000000100000000
1111111111111110
0000000100000000
0000010100000000
0000001000000000