0000000000000000
1111110111111110
0000010001001000
0000100001001000
0001000001001000
0001000111001110
0001010100000010
0001100100000010
0011000100000010
1101000111001110
0001000001001000
0001000001001000
0001000001001000
0001000001001000
0101001111111110
0010000000000000