0000100000100000
0011111001111110
0000100010100100
0111111100101000
0001110000010000
0010101000101000
0100100101000100
0011111111111110
0010000000000000
0010001111110000
0010000000100000
0010000001000000
0010111111111110
0100000001000000
0100000101000000
1000000010000000