0000000001000000
0111110001000000
0100010001000000
0111010001000000
0101010111111000
1111111001001000
1000001001001000
0111110001001000
0100010001001000
0111110001001000
0100010001001000
0111110001001010
0100010010001010
0100010010001010
0101010100000110
0100101000000000