0011111100010000
0010000100010100
0011110100010010
0010010100010010
0010010100010000
0111111110010110
0100000010111000
1011111100010000
0010000100010000
0011111100010000
0010000100010000
0011111100010000
0010000100001010
0010000100001010
0010010100000110
0010001000000010