0000000000100000
0111110000100000
0100010000100000
0111010000100000
0101010111111110
1111111001110000
1000001010101000
0111110010101000
0100010100100100
0111110100100100
0100011000100010
0111110011111000
0100010000100000
0100010000100000
0101010000100000
0100100000100000