0000000000100000
0111110000010000
0100010000010000
0111010011111110
0101010000000000
1111111001000100
1000001010000010
0111110100000000
0100010001000100
0111110001000100
0100010000101000
0111110000101000
0100010000010000
0100010000101000
0101010001000100
0100100010000010