0000000010000100
0111110001000100
0100010001001000
0111010111111110
0101010000100000
1111111011111100
1000001000100000
0111110111111110
0100010001000000
0111110010000000
0100010011111110
0111110100010000
0100011000010000
0100010000010000
0101010111111110
0100100000000000