0000000000100000
0111110111111100
0100010100100100
0111011111111110
0101010100100100
1111111111111100
1000001000100000
0111110111111100
0100010100100100
0111110111111100
0100010001000000
0111110111111110
0100010010001000
0100010111010000
0101010001110000
0100101110001100