0000000000100000
0111110000100000
0100010011111100
0111010000100000
0101010111111110
1111111010001000
1000001111011100
0111110010001000
0100010011001000
0111110110111100
0100010000000000
0111110111111110
0100010001010000
0100010001010000
0101010010010100
0100100100001100