0000000001000000
0111110001000000
0000010001000000
0000010001111100
0000010010000100
0111110010001000
0100000100100000
0100000000100000
0100000000100000
0111110001010000
0000010001010000
0000010001010000
0000010010001000
0000010010001000
0010100100000100
0001001000000010