0000000000000000
1111101111111110
0000100100001000
0000100100001000
0000100100001000
0111100111111000
0100000100001000
0100000100001000
0100000111111000
0111100100001000
0000100100001000
0000100100011110
0000101111101000
0000100000001000
0101000000001000
0010000000001000