0000000000100000
0111110100100100
0000010010100100
0000010010101000
0000010000100000
0111110111111100
0100000100000100
0100000100000100
0100000111111100
0111110100000100
0000010100000100
0000010111111100
0000010100000100
0000010100000100
0010100100010100
0001000100001000