0000000000000000
1111100111111000
0000100100001000
0000100100001000
0000100111111000
0111100000000000
0100001111111100
0100001000000100
0100001000000100
0111101111111100
0000101000000100
0000101000000100
0000101111111100
0000101000000100
0101001000010100
0010001000001000