0000000001000000
1111100000100000
0000101111111110
0000100000000000
0000100000000000
0111100111111100
0100000100000100
0100000100000100
0100000100000100
0111100111111100
0000100000100000
0000100010101000
0000100100100100
0000101000100010
0101000010100000
0010000001000000