0000000100000100
1111100010001000
0000100001010000
0000100111111100
0000100100100100
0111100100100100
0100000111111100
0100000100100100
0100000100100100
0111100111111100
0000100000100000
0000100000100000
0000101111111110
0000100000100000
0101000000100000
0010000000100000