0001000000000000
1111111001111000
0001000001001000
0111110001001000
0000000001001000
1111111010000110
1000001000000000
0111110011111100
0000000001000100
0111110001000100
0000010000101000
0111110000101000
0100000000010000
0111110000101000
0000010001000100
0000110110000010