0000000000010000
0000000011111000
0001111100100000
0001001000100000
0001001000100000
0001001000100000
0001001000100000
0001001000100000
0001001000100000
0001001000010000
0001001000010000
0010001000010000
0010001000001000
0100001000001000
0100001000000100
1000000000000010