0001000000000000
0001000011111100
0010100001000000
0010010001000000
0100001001000000
1001000101111000
0000100001001000
0000100001001000
1111111010101000
0000001010011000
0100010010001000
0010100010001000
0001000010101010
0000100011001010
0000100010001010
0000000000000110