0001000000000000
0001000111111100
0010000010000000
0010100010000000
0100010010000000
1111111011111000
0100001010001000
0000000010001000
0111110101001000
0100010100101000
0100010100101000
0100010100001000
0100010100001000
0111110101001010
0100010110001010
0000000100000110