0000000000000000
1111110111111100
0010000100100100
0010000100100100
0010000111111100
0011110100100100
0010010100100100
0010010111111100
0101010000100000
0100110111111100
0100010000100000
0100010000100000
0101010111111110
0110010000000010
0100001111111110
0000000000000000