0000001000000000
0000111101111100
0111100000100000
0000100000100000
1111111110100000
0010101000111000
0010101000101000
1111111110101000
0010101001011000
0010101001001000
1111111111001000
0000100001001000
0000100001011010
0000111101101010
1111000001001010
0100000000000110