0010001000000000
0010001011111100
0100010001000000
1110111001000000
0100010001000000
0100010001111000
0100010001001000
0100010001001000
1110111110101000
0100010010011000
0100010010001000
0100010010001000
0100010010101010
0100010011001010
0100010010001010
1000010000000110