0000100000000000
0100100101111100
0010101000100000
0000100000100000
1111111100100000
0010101000111000
0100100100101000
1000100000101000
0100001001011000
0111011101001000
1001001001001000
0101101001001000
0010111101011010
0010001001101010
0100001001001010
1000001000000110