0000100000010000
1111111101111110
0000100000010000
0111111001111100
0100001000000100
0111111001001000
0010010000111000
0001111001000100
1110111111110000
0000100000000000
0000111111110000
0000100000000000
1111111111111110
0001000100010000
0001010011100000
0001100000011100