0000001000000000
0000001000000000
0011111111100000
0000010000100000
0000100000100010
0011000000100010
1100000000011110
0000000000000000
0001111111110000
0001000000010000
0001000000010000
0001111111110000
0001000000010000
0001000000010000
0001111111110000
0001000000010000