0000000000000000
0000000111111000
0111110000010000
0100010000100000
0100010001000000
0100010010000000
0100010111111110
0111110010010010
0100010010010010
0100010010010010
0100010100010010
0100010100100010
0111111000100010
0100010001000010
0000000010010100
0000000100001000