0000000000000000
0000000111111100
0111110100000100
0100010100000100
0100010100000100
0100010100000100
0100010100000100
0111110111111100
0100010100000100
0100010100000100
0100010100000100
0100010100000100
0111110100000100
0100010111111100
0000000100000100
0000000000000000