0000000000000000
0011111111111000
0010000000001000
0011111111111000
0010000010000000
0011111111111100
0010000001000000
0010110000100100
0011000000010100
0010000000001100
0001111111110000
0001000000010000
0001111111110000
0001000000010000
0001111111110000
0001000000010000