0001111111110000
0001000000010000
0001000000010000
0001111111110000
0001000000010000
0001000000010000
0001111111110000
0000000000000000
1111111111111110
0000000100000000
0001000100000000
0001000111111000
0001000100000000
0010100100000000
0100010100000000
1000001111111110