0000000000000000
0000000111111100
0111100100000100
0100100100000100
0100100100000100
0100100111111100
0100100100000000
0111100101000000
0100100101000100
0100100101001000
0100100101110000
0100100101000000
0111100101000010
0100101001000010
0000001000111110
0000010000000000