0000000001000000
0000000000100000
0111100000010000
0100100111100000
0100100000100010
0100100000110100
0111101110111000
0100100010110000
0100100010101000
0100100010101000
0100100100101000
0111100100100100
0100101000100100
0000010000100010
0000000010100000
0000000001000000