0000000001000000
0000000001000000
0111100111111100
0100100010000100
0100101111111110
0100100000000000
0100100111111100
0111100100000100
0100100111111100
0100100000100000
0100101111111110
0100100000100000
0111101000100000
0100101111111110
0000000000100000
0000000000100000