0000000100001000
0000000010001000
0111100010010000
0100101111111100
0100100001000000
0100100111111000
0100100001000000
0111101111111110
0100100010000000
0100100100000000
0100100111111100
0100101000100000
0111110000100000
0100100000100000
0000001111111110
0000000000000000