0000000000100000
0000000001000000
0111100111111100
0100100100000100
0100100111111100
0100100100000100
0111100111111100
0100100001000000
0100101111111110
0100100010001000
0100100100100100
0111101000100010
0100110111111100
0000000000100000
0000000000100000
0000000000100000