0001111111110000
0001000000010000
0001111111110000
0001000000010000
0001111111110000
0000100000100000
0111111111111100
0000100000100000
1111111111111110
0000100000100000
0011000100011000
1100100100100110
0000010101000000
0000100100100000
0001010100010000
0010001000001000