0001111111110000
0001000000010000
0001111111110000
0001000000010000
0111111111111100
0100010001000100
0111110001111100
0100010001000100
0111111111111100
0010000000000000
0010111111111000
0010000000000000
0011111111111100
0010010001001000
0100010000110000
1000011000001110