0000000000000000
0000001111111110
1111001001010010
1001001001010010
1001001111111110
1001000100001000
1001000101010100
1111001001011110
1001011110110100
1001000100011110
1001001001010100
1001011111011110
1111000000010100
1001010101010100
0000010101011110
0000000000010000