0000111110111110
0000000000000000
1111011110111100
1001010010100100
1001011010110100
1001010010100100
1001000001000000
1111011111111110
1001010010100000
1001011111111100
1001010010100100
1001011111111100
1111010100010010
1001100111011100
0000100100010010
0001000111001110