0000000001000000
0000000001000000
0111110001000000
0100010001111100
0100010010000100
0100010010001000
0100010100100000
0111110000100000
0100010000100000
0100010001010000
0100010001010000
0100010001010000
0111110010001000
0100010010001000
0000000100000100
0000001000000010