0000100000100000
0000100000100000
0111111100100000
0001010000111110
0010001000100010
0100000101000100
1111111101010000
0000001010010000
0111101000010000
0100101000010000
0100101000010000
0111101000101000
0100101000101000
0000001001000100
0000101001000100
0000010010000010