0000000000100000
1111011100100000
0001000100100000
0101010101111110
0010001001000010
0101010110000100
1000100100010000
0001000000010000
0000000000010000
1111011100010000
0001000100101000
0101010100101000
0010001000101000
0101010101000100
1000100101000100
0001000010000010