0010000000100000
0010000000100000
0011111100100000
0100100000111110
1000100000100010
0111111101000100
0001010001010000
0010001010010000
0111111100010000
1010010000010000
0011111100010000
0010010000101000
0011111100101000
0010010001000100
0011111101000100
0010000010000010