0001000000100000
0001111000100000
0001000000100000
0111111100111110
0101000100100010
0101110001000100
0111001001010000
0100111010010000
0100000000010000
0100101000010000
0110101010010000
0101101100101000
0100101000101000
1000111101000100
0111100001000100
0000000010000010