0000100000100000
0000100000100000
0001010000100000
0010001001111110
0100000101000010
1011111010000100
0000000000010000
0000000000010000
0111011100010000
0101010100010000
0101010100101000
0111011100101000
0010001000101000
0010001001000100
0101010101000100
1000100010000010