0000000000000000
1111111111111110
0000000100000000
0000000100000000
0001000100001000
0001000100001000
0001000100010000
0010000100100000
0100001010000000
0000001010000000
0000010001000000
0000010001000000
0000100000100000
0001000000010000
0010000000001000
1100000000000110