0001000000000000
0001000000000000
0001001111111110
0001000000100000
0101010000100000
0101100000100000
0101000000100000
1001000000100000
0001000000100000
0001000000100000
0001000000100000
0010100000100000
0010010000100000
0100010000100000
0100000010100000
1000000001000000