0000000000000000
0111111111111000
0000001000000000
0100001000000000
0100001000000000
0111111111111100
0000010010000000
0000100010000000
0001000010000100
0010000010000100
1100000001111100
0000000000000000
0010010010001000
0010001001000100
0100001001000100
1000000000000100