0001000001000000
0001000001000000
0001000001000000
0001001001111100
0101001010000100
0101010010001000
0101100100100000
1001000000100000
0001000000100000
0001000001010000
0010100001010000
0010100001010000
0010010010001000
0100010010001000
0100000100000100
1000001000000010