0001000000100000
0001000000100000
0001000000100000
0001000111111100
0101010000100000
0101100000100000
0101000000100000
1001000111111100
0001000000100000
0001000000100000
0001000000100000
0010101111111110
0010010000100000
0100010000100000
0100000000100000
1000000000100000