0001000000100000
0001000000100000
0001000000100000
0001000010101000
0101010010100100
0101100010100010
0101000100100010
1001000100100000
0001001000100100
0001000000100100
0001000000101000
0010100000001000
0010010000010000
0100010000100000
0100000011000000
1000001100000000