0001000010000000
0001000001000000
0001000001000000
0001001111111100
0101010000000000
0101100000000000
0101000111110000
1001000100010000
0001000100010000
0001000100010000
0001000100010000
0010100100010010
0010010100010010
0100011000010010
0100001000001110
1000010000000000