0001000010000000
0001000010000000
0001000111111100
0001010100000100
0101101000000100
0101010111110100
0101000100010100
1001000100010100
0001000100010100
0001000111110100
0001000100000100
0010100100101000
0010010100010010
0100010100000010
0100000011111110
1000000000000000