0000001000000000
0000010000000000
0001111111110000
0001000000010000
0001000000010000
0001111111110000
0001000000000000
0001111111111110
0001000000000000
0001111111111100
0000000000000100
0000100100100100
0010010010010100
0010010010010100
0100000000101000
0000000000010000