0001000000000000
0001001111111110
0001000000100000
0001000001000000
0101010111111100
0101100100000100
0101000100000100
1001000100100100
0001000100100100
0001000100100100
0001000100100100
0010100101000100
0010010001010000
0100010010001000
0100000100000100
1000001000000100