0001000110000100
0001000001101000
0001000000110000
0001010011001000
0101101100000100
0101000001000000
0101001111111110
1001000010100000
0001000100100000
0001001111111100
0001010100100100
0010100100100100
0010010100110100
0100000100101000
0100000000100000
1000000000100000