0001000010001000
0001000010001000
0001001111111110
0001000010001000
0101010000000000
0101100010000000
0101000011111100
1001000100000100
0001001000000100
0001010010000100
0001000001000100
0010100001000100
0010010000000100
0100010000000100
0100000000101000
1000000000010000