0001000001000000
0001000001000000
0001000011111100
0001000010001000
0101010101010000
0101100000100000
0101000011011000
1001001100100110
0001000011111000
0001000000100000
0001000011111000
0010100000100000
0010011111111110
0100010000100000
0100000000100000
1000000000100000