0001000000100000
0001000100100100
0001000010100100
0001000010101000
0101010000100000
0101100111111100
0101000100000100
1001000100000100
0001000111111100
0001000100000100
0001000100000100
0010100111111100
0010010100000100
0100010100000100
0100000100010100
1000000100001000