0000000000000000
0111111111111100
0000000100000000
0001000111111000
0001000100000000
0001000100000000
1111111111111110
0000100000000000
0000111111111000
0001000000000000
0001111111111100
0000000000000100
0010100100100100
0010010010010100
0100000000101000
0000000000010000