0010010000100000
0010010000100000
0010010000100000
0011110111111100
0000010000100000
1111110000100000
0010010000100000
0010010011111000
0100010000000000
0000000100000000
0001000100010000
0001000100100000
0010001010000000
0000010001000000
0001100000110000
1110000000001110