0001000001000000
0001000000100000
0001000111111100
0001000000000000
0101010100001000
0101100010010000
0101000000000000
1001001111111110
0001000000000000
0001000000000000
0001000111111100
0010100100000100
0010010100000100
0100010100000100
0100000111111100
1000000100000100