0001000001000000
0001000000100000
0001001111111110
0001000000000000
0101010111111100
0101100100000100
0101000111111100
1001000000000000
0001000111111100
0001000000001000
0001000000010000
0010101111111110
0010010000100000
0100010000100000
0100000010100000
1000000001000000