0001000010010000
0001000010010000
0001000100001000
0001010101001000
0101101001000100
0101010010010010
0101000100001000
1001001111111100
0001000001000100
0001000000100000
0001000010100100
0010101010000010
0010011010001010
0100001010001010
0100010001111000
1000000000000000