0010000000010000
0010000010010000
0010011100010000
0010010000111110
1010110000100010
1011010001000100
1010011110010000
1010010100010000
0010010100010000
0010010100010000
0010010100101000
0010010100101000
0101010100101000
0100100101000100
0100100101000100
1001000010000010