0001000000000000
0001001111111110
0001001000000010
0001011010001010
0101101001010010
0101001111111110
0101001000100010
1001001000100010
0001001010101010
0001001010101010
0001001010101010
0010101011111010
0010011000000010
0100001000000010
0100001000001010
1000001000000100