0001000000100000
0001000001000000
0001000111111100
0001010100000100
0101100111111100
0101000100000100
0101000111111100
1001000000000000
0001001111111110
0001000000100000
0001000000100000
0010100111111100
0010010000100000
0100000000100000
0100001111111110
1000000000000000