0001000000010000
0000100000100000
1111111111111110
0000000000000000
0011111001001000
0010001001001000
0011111001001000
0010001001001000
0011111000001000
0010001000001000
0010101000101000
0010010000010000
0000000000000000
0100100010001000
0100010001000100
1000010001000100