0001000000100000
0001000100100100
0001000100100100
0001000100100100
0101010111111100
0101100000000000
0101001111111110
1001000000100000
0001000001000000
0001000111111100
0001000101010100
0010100101010100
0010010101010100
0100010101010100
0100000101010100
1000000100001100