0001000000000000
0001001111111110
0001001000100010
0001001111111110
0101011000100010
0101101111111110
0101000000000000
1001000111111100
0001000100000100
0001000111111100
0001000100000100
0010100111111100
0010010100000100
0100010100000100
0100000100010100
1000000100001000