0001000010001000
0001000010001000
0001001111111110
0001000010001000
0101010010001000
0101100011111000
0101000010001000
1001000010001000
0001000011111000
0001000000100000
0001001111111110
0010100001110000
0010010010101000
0100010100100100
0100001000100010
1000000000100000