0000000000000000
0111110111111100
0100010001000100
0100010001000100
0100010001000100
0100010010010100
0111110100001000
0100010011111100
0100010010000100
0100010010000100
0100010010000100
0111110011111100
0000000000000000
0100100010001000
0100010001000100
1000010001000100