0001000100001000
0001000010001000
0001000010010000
0001011111111110
0101100010010000
0101000010010000
0101001111111100
1001001010010100
0001001010010100
0001001100001100
0001001000000100
0010101111111100
0010011000000100
0100001000000100
0100001111111100
1000001000000100