0001000000100000
0001000000100000
0001000111111100
0001010000100000
0101100000100000
0101001111111110
0101000010000000
1001000100000100
0001001111111110
0001000000000010
0001001111111100
0010101010010100
0010011010010100
0100001010010100
0100011111111110
1000000000000000