0001000000000000
0001000111111100
0001000100100100
0001010111111100
0101100100100100
0101000111111100
0101000010101000
1001000010101000
0001001111111110
0001000010101000
0001000010101000
0010100111111100
0010010000100000
0100001111111110
0100000000100000
1000000000100000