0010000001000000
0010001111111000
0010001001001000
0010111111111110
1010101001001000
1011001111111000
1010000001000000
1010001111111000
0010001001001000
0010001111111000
0010000010000000
0010111111111110
0101000100010000
0100100011100000
0100001100011000
1000110000000100