0001000000011100
0001000111100000
0001000001000000
0001011111111110
0101100010001000
0101000100000100
0101001011111010
1001010010001000
0001000011111000
0001000000000000
0001001111111110
0010101000000010
0010011011111010
0100001010001010
0100001011111010
1000001000000110