0010001111111000
0001001000001000
1001001111111000
0100001000001000
0100001111111000
0001000000000000
0010111111111110
1110001000000000
0010011111111100
0010100100100100
0010001001010100
0000010110001000
0001000100010000
0010001010100000
0000110001100000
0111000000011100