0010000000000000
0010011110111110
0010010010010010
0010010010010010
1010110010101010
1011011110100100
1010010011000000
1010010010111110
0010010010100010
0010010010100010
0010011110111110
0010010010100010
0101000000000000
0100101010100100
0100001001010010
1000010001010010