0010000001000000
0010000010100000
0010001100011000
0010110111110110
1011000000000000
1010011111111100
1010010101010100
1010010011100100
0010011111111100
0010000000000000
0010001111111000
0010001000001000
0101001111111000
0100101000001000
0100101111111000
1000001000001000