0010000000000000
0010011111111110
0010010001000100
0010010110011000
1010110010001000
1011011111011110
1010010010001000
1010010111011100
0010011010101010
0010010010001000
0010010000100000
0010010100100000
0101010100111100
0100100100100000
0100100100100000
1001011111111110