0001001111011110
0001001001010010
0001001111011110
0001011001010010
0101101111011110
0101001000100010
0101001011111010
1001001000100010
0001001011111010
0001001010101010
0001001011111010
0010101010101010
0010011011111010
0100001001110010
0100001010101010
1000001000100110