0001000000011110
0001001111100000
0001000100100010
0001010010010100
0101101111111110
0101001001010010
0101001111111110
1001000000000100
0001001111000100
0001001001111110
0001001111000100
0010101001010100
0010011111001100
0100001010000100
0100001011010100
1000001101001000