0000000100000000
0000000100000000
0000000111111100
0000000100000000
0000000100000000
0001111111111000
0001000000001000
0001000000001000
0001000000001000
0001111111111000
0001000000001000
0001000000000000
0010000000000000
0010000000000000
0100000000000000
1000000000000000