0000000000100000
0111111110100000
0100100000100000
0100100000100000
0100100000100000
0111111100110000
0100000100101000
0100000100100100
0100000100100010
0111111100100010
0100100000100000
0100100000100000
0100100000100000
0111111110100000
0000000000100000
0000000000100000