0000000100000000
0000000100000000
0000000111111100
0000000100000000
0001111111110000
0001000000010000
0001111110010000
0001000010010000
0111111111111100
0100000000000100
0100111111100100
0100100000100100
0100100000100100
0100111111100100
0100000000010100
0100000000001000