0000100000000000
0001000000000000
0011111001111100
0010001000010000
0011001000010000
0010101000010000
0010101000010000
1111111000010000
0010001000010000
0011001000010000
0010101000010000
0010101000010000
0010001000010000
0100001000010000
0100101011111110
1000010000000000