0001000000000100
0010000000001110
0111110011110000
0100010010000000
0110010010000000
0101010011111100
0101010010100100
1111110010100100
0100010010100100
0110010010101000
0101010010101000
0101010010010000
0100010100010000
0100010100101000
0101011001000100
1000100010000010