0000100000000000
0001000001111000
0011111001001000
0010001001001000
0011001001001000
0010101010000110
0010101000000000
1111111011111100
0010001001000100
0011001001000100
0010101000101000
0010101000101000
0010001000010000
0100001000101000
0100101001000100
1000010110000010