0001000000000000
0010000111111100
0111110100000100
0100010100000100
0110010100100100
0101010100100100
0101010100100100
1111110100100100
0100010100100100
0110010101010100
0101010001010000
0101010001010000
0100010010010000
0100010010010010
0101010100010010
1000101000001110