0001000000100000
0010000000010000
0111110000010000
0100010111111110
0110010000100000
0101010000100000
0101010001000100
1111110010000100
0100010111111000
0110010000010000
0101010000100000
0101010001000100
0100010010000010
0100010111111110
0101010010000010
1000100000000000