0001000000100000
0010000000100000
0111110001010000
0100010010001000
0110010100000100
0101011011111010
0101010000100000
1111110000100000
0100011111111110
0110010000100000
0101010100101000
0101010100100100
0100011000100010
0100010000100010
0101010010100000
1000100001000000