0001000000100000
0010000000010000
0111110111111110
0100010010000100
0110010001001000
0101010111111110
0101010100000010
1111111000100100
0100010000010000
0110010111111110
0101010001000000
0101010001111100
0100010001000100
0100010010000100
0101010010010100
1000100100001000