0001000000100000
0010000111111100
0111110100100100
0100011111111110
0110010100100100
0101010111111100
0101010000100000
1111110111111100
0100010100100100
0110010111111100
0101010001000000
0101011111111110
0100010010001000
0100010111010000
0101010001110000
1000101110001100