0001000001000000
0010000001111100
0111100001000000
0100101111111100
0110101001000100
0101101111110000
0100101001000100
1111101011111100
0100101010101000
0100101011111000
0110101010101000
0101101011111000
0100101000000000
0100110111111100
0100100101010100
1001101111111110