0000000000000000
0000001111111000
0000001000001000
0000001000001000
0000001000001000
0000001000001000
0000001000001000
0000001000001000
0000001000001000
0000001000001000
0000001000101000
0000001000010000
0000001000000000
0000001000000000
0000001000000000
0000001000000000