0000000000000000
0000000000000000
1111111011111100
0001000010000100
0001000010000100
0001000010000100
0001000010000100
0001000010000100
0001000010000100
0001000010000100
0001111010000100
1111000010101000
0100000010010000
0000000010000000
0000000010000000
0000000010000000