0001010000000000
0001001000000000
0010000101111100
0100100101000100
0000100001000100
0001010001000100
0010001001000100
0100000101000100
1011111001000100
0010001001000100
0010001001000100
0010001001010100
0010001001001000
0011111001000000
0010001001000000
0000000001000000