0000000000000000
0011111111111000
0010000000001000
0010000000001000
0010000000001000
0011111111111000
0010000000001000
0010000000001000
0010000000001000
0011111111111000
0010000000001000
0010000000001000
0010000000001000
0010000000001000
0011111111111000
0010000000001000