0000000000000000
0000000111111100
0111110000100000
0100010000100000
0100010000100000
0111110000100000
0100010000100000
0100011111111110
0111110000100000
0100010000100000
0100010000100000
0100010000100000
0111110000100000
0100010000100000
0000000000100000
0000000000100000