0000000001000000
0000000001000000
0111110010000000
0100010011111100
0100010100000100
0111111000000100
0100010010000100
0100010001000100
0111110001000100
0100010000010100
0100010000100100
0100010001000100
0111110110000100
0100010000000100
0000000000101000
0000000000010000