0000000000100000
0000000000100000
0111100000100000
0100101111111110
0100100000100000
0111100100100100
0100100100100100
0100100100100100
0111100100100100
0100100111111100
0100100000100100
0100100000100000
0111100000100010
0100100000100010
0000000000011110
0000000000000000