0000000001111100
0011111110000000
0010000010000000
0011111111111100
0010000010000000
0010111111111000
0010100000001000
0010100000001000
0010111111111000
0010100000001000
0010100000001000
0010111111111000
0100100000001000
0100100000001000
1000111111111000
0000100000001000