0000000000000000
0011111111111000
0010000100001000
0010000100001000
0011111111111000
0010000000000000
0010111111111000
0010100000001000
0010100000001000
0010111111111000
0010100000001000
0010111111111000
0100100000001000
0100100000001000
1000111111111000
0000100000001000