0000000000100000
0000000000100000
0111110000100000
0100010111111100
0100010100100100
0111110100100100
0100010100100100
0100010100100100
0111110100100100
0100011111111110
0100010000100000
0100010001010000
0111110001010000
0100010010001000
0000000100000100
0000001000000010