0000000000000000
0000000111111100
0111110100000100
0100010100000100
0100010100000100
0111110111111100
0100010100100000
0100010100100000
0111110111111110
0100010100100000
0100010100100000
0100010100010000
0111110100010010
0100010101001010
0000000110000110
0000000100000010