0000000100000000
0001000100010000
0000100100100000
0011111111111000
0000001000000000
0111111111111100
0000100000100000
0001000000010000
0010111111101000
1100100000100110
0000111111100000
0000100000100000
0000111111100000
0000100000100000
0000111111100000
0000100000100000