0000000000000000
0111111111111100
0100010001000100
0100010001000100
0111111111111100
0000000000000000
0000000011111100
0111111100000000
0001000100010000
0001000100010000
0001000100010000
0010100100101000
0010010100101000
0100010101000100
1000000110000010
0000000100000000