0000000000100000
0000000000100000
0111100100100100
0100100100100100
0100100100100100
0111100100100100
0100101010101010
0100110001110010
0111100000100000
0100100000100000
0100100111111100
0100100000100000
0111100000100000
0100100000100000
0000001111111110
0000000000000000