0000000001000000
0000000001000000
0111100010100000
0100100010100000
0100100100010000
0111101000001000
0100110111110110
0100100000000000
0111100010001000
0100100001001000
0100101001001000
0100100101010000
0111100100010000
0100100000100000
0000011111111110
0000000000000000