0000000010010000
0000000010010000
0111100010010000
0100101111111100
0100101010010100
0111101010010100
0100101010010100
0100101111111100
0111101010010100
0100101010010100
0100101010010100
0100111111111110
0111100000000000
0100100010010000
0000000100001000
0000001000000100