0000000000100000
0111111000100000
0100001001111110
0111111010100100
0100100000100100
0111111100101000
0100100000010000
0110010100101000
0100001101000110
0001111111110000
0001000000010000
0001111111110000
0001000000010000
0001111111110000
0001000000010000
0001111111110000