0000000000000000
0000000111111100
0111100100000100
0100100111111100
0100100100000100
0111100111111100
0100100000100000
0100100100100000
0111100111111110
0100101000100000
0100100000100000
0100100111111100
0111100000100000
0100100000100000
0000001111111110
0000000000000000