0000000000000000
0000001111111110
0111101000100010
0100100000100000
0100101111111110
0111100000100000
0100100111111100
0100100100100100
0111100111111100
0100100100100100
0100100111111100
0100100000100000
0111101111111110
0100100000100000
0000000000100000
0000000000100000