0000000000001000
0000000000011100
0111100111110000
0100100100010000
0100100100010000
0111100111111110
0100100100010000
0100100101111100
0111100101000100
0100100101111100
0100100101000100
0100100101111100
0111100101000100
0100101001000100
0000001001111100
0000010001000100