0000000010001000
0000000010001000
0111101111111110
0100100010001000
0100100010001000
0111100000000000
0100100111111100
0100100100100100
0111100100100100
0100100100100100
0100100111111100
0100100100100100
0111100100100100
0100100100100100
0000000111111100
0000000100000100