0000000010010000
0000000010001000
0111100100000100
0100101001000010
0100110010001000
0111100111111100
0100100000000100
0100100000000000
0111101111011110
0100100001000010
0100101001010010
0100100101001010
0111101001010010
0100100001000010
0000000101001010
0000000010000100