0000000000000000
0111101111011110
0100101001010010
0100101111011110
0100101001010010
0111101111011110
0100101000000010
0100101011111010
0111101000100010
0100101001110010
0100101000100010
0100101000100010
0111101011111010
0100101000000010
0000001000001010
0000001000000100