0000100000100000
0100100100100000
0010101000111110
0111111101001000
0100100101001000
0101110110101000
0110101100010000
0100100100101000
0100001101000110
0001111111110000
0001000000010000
0001111111110000
0001000000010000
0001111111110000
0001000000010000
0001111111110000