0000001010001000
0000001010101000
1111011010101000
1001101111110000
1001000000011110
1111001000100100
1001010111010100
1001110000010100
1111010000010100
1001010111010100
1001010101010100
1001010101001000
1111010101101000
1001010101010100
0000011000010100
0000010000100010