0000000011001000
0000011100001000
1111000100101010
1001000100101100
1001111111001000
1111000100001000
1001001110001000
1001010101010100
1111100100010100
1001000100100010
1001000001000000
1001000000100100
1111010100100010
1001010100001010
0000100100001000
0000000011111000