0000000000000000
0000001111011110
0111100001000010
0100101001010010
0100100101001010
0111101001010010
0100100010010000
0100100100001000
0111101111111110
0100110100010000
0100100111111110
0100100100010000
0111100111111110
0100100100010000
0000000111111110
0000000100000000