0000000010001000
0000001111111110
0111100010101000
0100100010010000
0100100111111110
0111101100100000
0100100111111100
0100100100100000
0111100111111100
0100100100100000
0100100111111110
0100100100000000
0111101111111100
0100100010001000
0000000001110000
0000001110001110