0000000100001000
0000000100010000
1111001000111110
1001001000100010
1001010010111110
1111011100100010
1001000100111110
1001001000001000
1111010010111110
1001011110101010
1001000000101010
1001000010101010
1111010101101010
1001010100101110
0000010000001000
0000000000001000