0000000000000000
0000001111111110
0111101001001000
0100101111111110
0100101001001000
0111101011111100
0100101010100100
0100101011111100
0111101010100100
0100101011111100
0100101000100000
0100101111111110
0111101100101010
0100110101111010
0000010100001010
0000100100000110