0000000100000000
0011111111111000
0000000100000000
0000111111100000
0000100000100000
0000100100100000
0000100100100000
0111111111111100
0000100000100000
0111111011111100
0000100000100000
0011111011111000
0010001010001000
0010101010101000
0010101010101000
1111111111111110