0001000001000000
0001000001000000
0011111101111110
0100100010010000
1000010100001000
0000001000000000
0000000100000000
1111111111111110
0000100000000000
0000100000000000
0000100000000000
0000100000000000
0000100000000000
0000100000000000
0000111111111100
0000000000000000