0001000001000000
0001000001000000
0011111101111110
0100100010010000
1000010100001000
0011111111110000
0000001000010000
0000001000010000
1111111111111110
0000001000010000
0000010000010000
0011111111110000
0000100000010000
0001000000000000
0010000000000000
1100000000000000