0001000001000000
0001000001000000
0011111101111110
0010100010010000
0100010100001000
1000000011110000
0011111100000000
0000000100000000
0000000100000000
1111111111111110
0000000100000000
0000001010000000
0000010001000000
0000100000100000
0011000000011000
1100000000000110