0001000001000000
0001000001000000
0001111101111110
0010100010010000
0010010010001000
0100010100001000
1000000100000000
0000000111111110
0000000100000000
0000000100000000
0011111111111000
0010000000001000
0010000000001000
0010000000001000
0011111111111000
0010000000001000