0001000001000000
0001000001000000
0011111101111110
0010100010010000
0100010100001000
1001000100000000
0001000100000000
0011111111111100
0100000100000000
1000000100000000
0000000100000000
0011111111111000
0000000100000000
0000000100000000
0000000100000000
1111111111111110