0001000001000000
0001000001000000
0011111101111110
0100100010010000
1000010100001000
0011111111111000
0010000000001000
0010111111001000
0010000001001000
0010011010001000
0010000100001000
0010001010001000
0010110001001000
0010000000001000
0011111111111000
0010000000001000