0001000001000000
0001000001000000
0011111101111110
0010100010010000
0100010100001000
1000000001111000
0001111110100000
0001001000100000
0001001000100000
0001001000100000
0001001000010000
0001001010010000
0010001001001000
0010001010101000
0100001100100100
1000001000000010