0001000001000000
0001000001000000
0011111101111110
0100100010010000
1000010100001000
0011111111110000
0000000100010000
1111111111111110
0000000100010000
0011111111110000
0000000100000000
0011111111111000
0000000100000000
1111111111111110
0000000100000000
0000000100000000