0010000001000000
0010000001000000
0111111011111110
0101000100010000
1000101000001000
0000000100000000
0111111111111100
0000100000100000
0001000000010000
0010010001001000
0100010001000100
0000001010000000
0000000100000000
0000011011000000
0001100000110000
1110000000001110