0001000001000000
0001000001000000
0011111101111110
0100100010010000
1000010100001000
0000000000000000
0111110111110000
0001000100010000
0001000100010000
0001000110010000
0001000101010000
0001110100010010
1110001000010010
0100001000010010
0000010000001110
0000100000000000