0010000001000000
0011111101111110
0100100010010000
1000010100001000
0001000000000000
0010000111111100
0100000000000000
1000100000000000
0001001111111110
0011000000100000
0101000000100000
1001000000100000
0001000000100000
0001000000100000
0001000010100000
0001000001000000