0001000001000000
0001000001000000
0011111101111110
0100100010010000
1000010100001000
0000000100000000
0111111111111100
0000000100000000
0011111111111000
0000000100000000
1111111111111110
0000010101000000
0000100100100000
0011000100011000
1100000100000110
0000000100000000