0001000001000000
0001000001000000
0011111101111110
0010100010010000
0100010100001000
1001000010000000
0001000011111100
0111110100000100
0001001000000100
0001000010000100
0001000001010100
0001110000100100
1110000001000100
0100000110000100
0000000000101000
0000000000010000