0001000001000000
0001000001000000
0011111101111110
0010100010010000
0100010100001000
1000000000000000
0001111111110000
0001000000010000
0001000000010000
0001111111110000
0000000000000000
0011111111111000
0010000000001000
0010000000001000
0011111111111000
0010000000001000