0001000001000000
0001000001000000
0011111101111110
0010100010010000
0100010100001000
1001111111110000
0001000000010000
0001111111110000
0001000000010000
0001111111110000
0001000000010000
0001111111110000
0000010001000000
0000100001000010
0001000001000010
0110000000111110