0001000001000000
0001000001000000
0011111101111110
0100100010010000
1000010100001000
0001000001000000
0001000111111000
0001100001001000
0101010001001000
0101000001001000
0101001111111110
1001000001000000
0001000010100000
0001000100010000
0001001000001000
0001010000000110