0010000001000000
0011111101111110
0100100010010000
1000010100001000
0000000000000000
0011111111111000
0010000100001000
0010001010001000
0010010001001000
0000000000000000
0010000010000100
0011111010011000
0010000011100000
0010000010000100
0010011010000100
0011100001111100