0010000001000000
0011111101111110
0100100010010000
1000010100001000
0010000010000000
0001000100010000
0001001000001000
1000011111111100
0100001000000100
0101000000000000
0001001111111000
0010001000001000
1110001000001000
0010001000001000
0010001111111000
0010001000001000