0001000001000000
0001000001000000
0011111101111110
0100100010010000
1000010100101000
0001000001000000
0000100111111100
0100100100000100
0010000100000100
0010010100000100
0000010111111100
0000100100000100
0111000100000100
0001000100000100
0001000111111100
0001000100000100