0010000010000000
0011111011111110
0100100100010000
1000000011111000
0011111100000000
0000000100000000
0111111111111100
0000100100100000
0000100100100000
1111111111111110
0000100100100000
0000100100100000
0111111111111100
0000000100000000
0000000100000000
0011111111111000