0010000001000000
0011111101111110
0100100010010000
1000010100001000
0000100000000000
0001011111111100
0011000001000000
0101001111111000
1001001001001000
0001001111111000
0001001001001000
0001001111111000
0001000101000000
0001000011000000
0001001100110000
0001110000001110