0010000001000000
0011111101111110
0100100010010000
1000010100001000
0011111111111000
0010000000001000
0011111111111000
0010010000010000
0010001000100000
0010111111111000
0010001000100000
0010001000100000
0010111111111100
0100001000100000
0100010000100000
1000100000100000