0010000001000000
0011111001111110
0100100010010000
1001111111110000
0000000100000000
0111111111111100
0000000100000000
0001111111110000
0001000100010000
0001111111110000
0001000100010000
0001111111110000
0000000100000000
0011111111111000
0000000100000000
1111111111111110