0010000001000000
0011111101111110
0100100010010000
1000010100001000
0000000100000000
0011111111111000
0000000100000000
0111111111111100
0000100000000000
0001000000010000
0011111111111000
0000000000000000
0011111111111000
0010010001001000
0010010001001000
1111111111111110