0010000001000000
0011111101111110
0100100010010000
1000010101001000
0111111111111100
0000010001000000
0011111111111000
0000010001000000
1111111111111110
0001000100010000
0001111111110000
0001000100010000
1111111111111110
0001000000010000
0001000001010000
0001000000100000