0010000001000000
0011111101111110
0100100010010000
1000010100001000
0001000010000000
0001000111111000
0010001010001000
0110100001110000
1010101110101110
0010100000100000
0010100111111100
0010100000100000
0010100010101000
0010100100100100
0010001010100100
0010000001000000