0010000001000000
0011111101111110
0100100010010000
1000010100001000
0000010010000000
0010010010000000
0010010011111100
0010010010100000
0010010100010000
0000000000000000
0011111111111000
0010010001001000
0010010001001000
0010010001001000
1111111111111110
0000000000000000