0010000010000000
0011111011111110
0100100100010000
1011111111111000
0000000100000000
0011111111111000
0000000100000000
1111111111111110
0001000000010000
0001111111110000
0001000000010000
0001111111110000
0001000000010000
0001111111110000
0000100000100000
0001000000010000