0010000010000000
0011111011111110
0100100100010000
1011111111111000
0010000000001000
0011111111111000
0010000000000000
0010011111110000
0010010000010000
0010011111110000
0010000000000000
0010111111111000
0010100010001000
0100111111111000
0100100000000010
1000011111111110