0010000001000000
0011111101111110
0100100010010000
1000010100001000
0000100000100000
0111111111111100
0000100000100000
0000111111100000
0000100000100000
0000111111100000
0000100000100000
1111111111111110
0001000100010000
0010111111101000
1100000100000110
0011111111111000