0010000001000000
0011111101111110
0100100010010000
1000010100001000
0000000010000000
0011111111111110
0010001000100000
0011111111111100
0010001000100100
0011111111111100
0010100001000000
0010100001001000
0010111101110000
0100100001000100
0100101101000100
1000110000111100