0010000001000000
0011111101111110
0100100010010000
1000010100001000
0000000000000100
0111111100001000
0100100100010000
0101110101100000
0100100100000100
0111111100001000
0100000100010000
0101110101100010
0101010100000100
0101110100001000
0100010100010000
1000001001100000