0010000001000000
0011111101111110
0100100010010000
1000010100001000
0010001111111000
0001001000001000
1001001111111000
0100001000001000
0100001111111000
0001000000000000
0010111111111110
1110001000000000
0010011111111100
0010100100100100
0010001001010100
0000010010001000