0010000001000000
0011111101111110
0100100010010000
1000010100001000
0011111001111100
0010001001000100
0011111001111100
0010001001000100
0011111001111100
0010000000000100
0010011111100100
0010010000100100
0010011111100100
0010010000100100
0010011111110100
0010000000001000