0010000001000000
0011111001111110
0100100010010000
1011111111111000
0010010001001000
0011111111111000
0000000000000000
0001111111110000
0001000000010000
0001111111110000
0001000000010000
0001111111110000
0001000000010000
0001111111110000
0000100000100000
0001000000010000