0010000001000000
0011111101111110
0100100010010000
1000010100001000
0000000010010000
0111111010100000
0000010001000100
0010100000101000
0001011111010000
0010000000001000
1101111111110110
0001000000010000
0001111111110000
0000100000100000
0000010001000000
0111111111111100