0010000001000000
0011111101111110
0100100010010000
1000010100001000
0000000010000000
0111100011111000
0100100100001000
0100101010010000
0111100001100000
0001000110011000
0001001000000110
0101110111111000
0101000100001000
0101000100001000
0101110111111000
1110000100001000