0010000001000000
0011111101111110
0100100010010000
1000010100001000
0111111111111100
0001000100010000
0010100100101000
0100010101000100
1111111111111110
0000100000100000
0011000000011000
1101111111110110
0001000000010000
0001000000010000
0001111111110000
0001000000010000