0010000001000000
0011111101111110
0100100010010000
1000010100001000
0010000111111000
0001000100001000
0001000111101000
0000000100101000
0111001111111100
0001001000000100
0001001011110100
0001001010010100
0001001011110100
0001001000010100
0010101000001000
0100011111111110