0010000001000000
0011111101111110
0101000010010000
1000100100001000
0000001010000000
0000010001000000
0001100000110000
0110011111001100
0000000000000000
0011111011111000
0010001010001000
0010001010001000
0011111011111000
0000100000100000
0001010001010000
0010001010001000