0010000001000000
0011111101111110
0100100010010000
1000010100001000
0000100001000000
0001010001000000
0010101011111110
0111111100010000
1010001000010000
0011111011111110
0010001010010010
0011111010010010
0010100010011010
0010010010010100
0010101000010000
0011000000010000