0010000001000000
0011111101111110
0100100010010000
1000010100001000
0001000001001000
0111110011111100
0001000001001000
0111110001001000
0001000111111110
1111111000000000
0001000011111100
0011100010000100
0101010011111100
1001010010000100
0001000011111100
0001000010000100