0010000010000000
0011111011111110
0100100100010000
1010000000111000
0001011111000000
0001001001001000
1000000101010000
0100011111111100
0101001001001000
0001010000000100
0010101111111010
1110001001001000
0010001111111000
0010001001001000
0010001111111000
0010001000001000