0010000001000000
0011111101111110
0100100010010000
1000010100001000
0001000001000000
0001000110111100
0001000100010100
1111110101010100
0001000110101100
0011000001000000
0011100111111100
0101010100100100
0101000111111100
1001000100100100
0001000111111100
0001000100000100