0010000001000000
0011111101111110
0100100010010000
1000010100001000
0000100000100000
0001010000100000
0010001000111110
0101110101000100
1000000010100100
0111011100100100
0101010100101000
0111011100101000
0010001000010000
0010001000101000
0101010101000100
1000100010000010