0010000010000000
0011111011111110
0100100100010000
1000001010000000
0000110001100000
0011011111011000
1100000000000110
0011101110111000
0010101010101000
0011101110111000
0000000000000000
0011111111111000
0010010010001000
0011111111111000
0010010010001000
0010010010111000