0010000001000000
0011111101111110
0100100010010000
1000010111111100
0001000000100000
0010101111111110
0100010000100000
1011100111111100
0001000100100100
0111110111111100
0001000100100100
1001010111111100
0101000000100000
0001110111111110
1110000000100000
0100011111111110