0010000010000000
0011111011111110
0100100100010000
1000100010000010
0101000100011100
0101110111010000
0100100010010000
0101110111010000
0100010001011110
0111111111110100
0101000100010100
0101110111010100
0100100010010100
0101110111010100
0100010001010100
0111111111100100