0010000001000000
0011111001111110
0100100010010000
1011111101111110
0001001000100100
0001101100110100
0001001010100100
0011111111111100
0010001001000000
0011111111111000
0010001001001000
0011111111111000
0010100001000100
0010111101111000
0100100001000010
1000111100111110