0010000001000000
0011111001111110
0100100010010000
1011111111111000
0000000100000000
0111111111111110
0100000100000010
1001110101110100
0000000100000000
0001110101110000
0100100010010000
0111111011111100
1100100110010000
0111111011111100
0100100010010000
0111111011111100