0010000000100000
0010000000100000
0010000100100000
0011110100100000
0010010111111100
0100010100100000
0100011000100000
1010010000100000
0001010000100000
0000100111111100
0000100000100000
0001000000100000
0001000000100000
0010000000100000
0100001111111110
1000000000000000