0011111000000100
0010000000011000
0011111001100000
0010000000000100
0011111000011000
0010000001100010
1111111100000100
0010001000011000
0111111101100000
0000001000000000
0111111111111100
0000010000000000
0000011111110000
0000100000010000
0001000010100000
0110000001000000