0011111000000100
0010000000011000
0011111001100000
0010000000000100
0011111000011000
0010000001100010
1111111100000100
0010001000011000
0111111101100000
0000000100000000
0111111111111100
0100000100000100
0000001010000000
0000010010000010
0001100010000010
1110000001111110