0011111000000100
0010000000011000
0011111001100000
0010000000000100
0011111000011000
0010000001100010
1111111100000100
0010001000011000
0111111101100000
0000000000000000
0111111111111000
0000100000001000
0001000000110000
0011111111111000
1101000000001000
0001111111111000