0011111000000100
0010000000011000
0011111001100000
0010000000000100
0011111000011000
0010000001100010
1111111100000100
0010001000011000
0111111101100000
0000100010000000
0000100010001000
0010111010010000
0010100011100000
0010100010000100
0010111010000100
1111000001111100