0011111100001000
0010000000110000
0011111011000100
0010000000011000
1111111101100010
0010001000001100
0111111101110000
0000000000000000
0000000011111000
0011111100000000
0000000100000000
1111111111111110
0000000100000000
0001111111110000
0001000000010000
0001111111110000