0011111000000100
0010000000011000
0011111001100000
0010000000000100
0011111000011000
0010000001100010
1111111100000100
0010001000011000
0111111101100000
0000000000001000
0011111001001000
0000100001001000
0111111101001000
0001110001001000
0010101000001000
0100100100011000