0011111100001000
0010000000110000
0011111011000100
0010000000011000
1111111101100010
0010001000001100
0111111101110000
0000010001000000
0010001110001000
0010010001001000
0011111111111000
0001010000010000
0010111111101000
0001010001000000
0000001110000000
0111110001111000