0011111100000100
0010000000011000
1111111101100010
0010001000001100
0111111101110000
0001000000010000
0000100000100000
1111111111111110
0000000000000000
0011111000001000
0010001001001000
0011111001001000
0010001001001000
0011111001001000
0010001000001000
0010011000011000