0011111000000100
0010000000011000
0011111001100000
0010000000000100
0011111000011000
0010000001100010
1111111100000100
0010001000011000
0111111101100000
0000000000000000
0111110000010000
0001000001010010
1111111010010100
0011100000101000
0101010001000100
1001001010000010