0000100000000000
0000100000000000
0001000000000000
0010000000000000
0100100000000000
0000100000000000
0001000000000000
0011000000000000
0101000000000000
1001000000000000
0001000000000000
0001000000000000
0001000000000000
0001000000000000
0001000000000000
0001000000000000