0000100001000000
0000100000100000
0001000000100000
0010001111111110
0100100010000000
0000100010000000
0001000010000000
0011000011111100
0101000010000100
1001000010000100
0001000010000100
0001000010000100
0001000100000100
0001000100000100
0001001000101000
0001010000010000