0000100000000000
0000100000000000
0001001111111100
0010001000000100
0100101000000100
0000101011110100
0001001010010100
0011001010010100
0101001010010100
1001001010010100
0001001011110100
0001001000000100
0001001000000100
0001001111111100
0001001000000100
0001000000000000