0001000001000000
0001000001000000
0010111111111110
0100000001000000
1001011111111100
0001010001000100
0010010101010100
0110010011100100
1010010001000100
0010011111111100
0010000011100000
0010000101010000
0010001001001000
0010110001000110
0010000001000000
0010000001000000