0000100100000000
0000100100000000
0001000111111110
0010001000000000
0100110111111100
0000100100000100
0001000111111100
0011000100000100
0101000111111100
1001000010000000
0001000011111100
0001000100001000
0001001010010000
0001000001100000
0001000110011000
0001011000000110