0001000000111100
0001011111100000
0010010000100000
0100010000100000
1001011111111110
0001010000100000
0010010111111100
0110010100000100
1010010100000100
0010010111111100
0010010100000100
0010010111111100
0010100100000100
0010100100000100
0011000111111100
0010000100000100