0000100000000000
0000101111111110
0001000000100000
0010000100111100
0100100100100000
0000100100100000
0001011111111110
0011000000000000
0101011111111110
1001000000100000
0001000100100000
0001000100111100
0001000100100000
0001000100100000
0001011111111110
0001000000000000