0000000010000000
0000000010000000
0000000010000000
0010000010000000
0010000010000000
0010000101000000
0010000101000000
0010001000100000
0010001000100000
0010010000010000
0010100000001000
0011000000000110
0010000000000000
0010000000000000
0011111111111110
0000000000000000