0000000100000000
0000000100000000
0000001010000000
0000010001000000
0000100000100000
0001000000010000
0010000100001000
1100000100000110
0000000100000000
0000000100000000
1111111111111110
0000000100000000
0000000100000000
0000000100000000
0000000100000000
0000000100000000