0000100000000000
0000101111111000
0000100000001000
0001000000010000
0001000000100000
0011000001000000
0011000001000000
0101011111111110
1001000001000000
0001000001000000
0001000001000000
0001000001000000
0001000001000000
0001000001000000
0001000101000000
0001000010000000