0000100000010000
0000100000010000
0000100000010000
0001000000010000
0001011111111110
0011000000010000
0011000000010000
0101000000010000
1001000100010000
0001000010010000
0001000010010000
0001000000010000
0001000000010000
0001000000010000
0001000001010000
0001000000100000