0000100000010000
0000100001111000
0000101111000000
0001000001000000
0001000001000000
0011000001000000
0011000001000000
0101000001111110
1001011111000000
0001000001000000
0001000001000000
0001000001000010
0001000001000010
0001000001000010
0001000000111110
0001000000000000