0000100001000000
0000100001000000
0000100001000000
0001000001000000
0001000001000000
0011000001000000
0011000001111100
0101000001000000
1001000001000000
0001000001000000
0001000001000000
0001000001000000
0001000001000000
0001000001000000
0001011111111110
0001000000000000