0000100000100000
0000101000100000
0000101000100000
0001001000100010
0001001000100010
0011001000100100
0011001110101000
0101001000110000
1001001000100000
0001001000100000
0001001000100000
0001001000100010
0001001010100010
0001001100100010
0001001000011110
0001000000000000