0000100000100000
0000100100100000
0000100100100000
0001000100010000
0001000100010000
0011001001001000
0011001001001000
0101010001000100
1001100010000010
0001000010000000
0001000100010000
0001000100001000
0001001000001000
0001011111111100
0001001000000100
0001000000000000