0000000100000000
0000000100000000
0000001010000000
0000010001000000
0000100000100000
0011000100011000
1100000100000110
0000000100000000
0001000100000000
0001000111111000
0001000100000000
0001000100000000
0001000100000000
0001000100000000
1111111111111110
0000000000000000