0000100001000000
0000100001000000
0000100001000000
0001011111111100
0001000001000000
0011001001001000
0011001001001000
0101001001001000
1001001001001000
0001001111111000
0001000001001000
0001000001000000
0001000001000010
0001000001000010
0001000000111110
0001000000000000