0000100100000000
0000100100000000
0000100100000000
0001000111111100
0001001010100100
0011010010100100
0011000010100100
0101000100100100
1001000100100100
0001001001000100
0001010001000100
0001000010000100
0001000100000100
0001001000000100
0001010000101000
0001000000010000