0000100000000000
0000100111110000
0000100100010000
0001000100010000
0001000100010000
0011001000001110
0011010000000000
0101001111111000
1001000100001000
0001000100010000
0001000010010000
0001000010100000
0001000001000000
0001000010100000
0001001100011000
0001110000000110