0000100000001000
0000100000011100
0000100111100000
0001000100000000
0001000100000000
0011000100000000
0011000111111110
0101000100010000
1001000100010000
0001000100010000
0001000100010000
0001000100010000
0001000100010000
0001001000010000
0001001000010000
0001010000010000