0000000100000000
0000000100000000
0000001010000000
0000010001000000
0000100000100000
0001000000010000
0010100000101000
1100100000100110
0000100000100000
0000100000100000
0000100000100000
0001010001010000
0001001001010000
0010001010001000
0100000100000100
1000001000000010