0001000100000000
0001000100000000
0001001000000000
0010001111111100
0010010000000100
0110100000000100
0110001111100100
1010001000100100
0010001000100100
0010001000100100
0010001000100100
0010001111100100
0010001000100100
0010000000000100
0010000000101000
0010000000010000