0001000001000000
0001000001000000
0001000010100000
0010000010100000
0010000100010000
0110001000001000
0110010001000100
1010100001000010
0010000001000000
0010010001000100
0010010001000100
0010010001000100
0010010001000100
0010010001000100
0010011111111100
0010000000000100