0000100000000000
0000100000000000
0000111111111100
0001000100000000
0001000100000000
0011000111110000
0011000100010000
0101000100010000
1001000110010000
0001001001010000
0001001001010000
0001001000010000
0001001000010010
0001001010010010
0001001100010010
0001001000001110