0001000000000000
0001011111111100
0001010000000100
0010010000000100
0010010111110100
0110010001000100
0110010001000100
1010010111110100
0010010101010100
0010010101010100
0010010101010100
0010010101010100
0010010101110100
0010010001000110
0010010001000110
0010100001000010