0000100100000000
0000100100000000
0000100111111000
0001001100010000
0001010010100000
0011000001000000
0011000110110000
0101011001001110
1001000001000000
0001001111111100
0001000001000000
0001010001000000
0001011111111110
0001000001000000
0001000001000000
0001000001000000