0000100001000000
0000100001000000
0000100001000000
0001111111111110
0001000001000000
0011000001000000
0011011111111100
0101000000000000
1001000000000000
0001001111111000
0001001000001000
0001001000001000
0001001000001000
0001001000001000
0001001111111000
0001001000001000