0001000100000000
0001000100000000
0001001111111000
0010001000001000
0010010000010000
0110101111111110
0110001000000000
1010001011111000
0010001010001000
0010001010001000
0010001010101000
0010001010010000
0010001010000010
0010010010000010
0010010001111110
0010100000000000