0001000001000000
0001001001000000
0001001001000000
0010001111111100
0010010001000000
0110100001000000
0110000001000000
1010011111111110
0010000100100000
0010000100100000
0010000100100000
0010000100100000
0010001000100010
0010001000100010
0010010000011110
0010100000000000