0000100001000000
0000100000100000
0000100000100000
0001011111111110
0001000001000000
0011000010000100
0011000100001000
0101001111110000
1001000000100010
0001000001000100
0001000110001000
0001011000010000
0001000000100000
0001000001010000
0001000110001000
0001011000000100