0001000001000000
0001000001000000
0001011111111110
0010000001000000
0010011111111100
0110000001000100
0110001111111100
1010001001000000
0010010001000000
0010011111111110
0010000001000010
0010000010101010
0010000010100100
0010000100010000
0010001000001000
0010110000000110