0000100001000000
0000100001000000
0000100001000000
0001001111111100
0001000001000000
0011000001000000
0011011111111110
0101000000010000
1001000000010000
0001011111111110
0001000000010000
0001001000010000
0001000100010000
0001000100010000
0001000001010000
0001000000100000