0000100001000000
0000100000100000
0000100000100000
0001001111111110
0001001000000010
0011010001000100
0011000001000000
0101001111111110
1001000010001000
0001000010001000
0001000100001000
0001000011010000
0001000000100000
0001000001010000
0001000010001000
0001001100000100