0000100010000000
0000100010000000
0000100100000000
0001000111111100
0001001000000100
0011010000000100
0011001111100100
0101001000100100
1001001000100100
0001001111100100
0001001000100100
0001001000100100
0001001111100100
0001000000000100
0001000000101000
0001000000010000