0000100100000000
0000100100000000
0000100100000000
0001000100011110
0001011111010010
0011001001010010
0011001001010010
0101001001010010
1001001001010010
0001010010010010
0001001010010010
0001000100010010
0001001010010010
0001001001011110
0001010001010010
0001100000000000