0000100010000000
0000100010001000
0000101111101000
0001000010010000
0001000010100000
0011011111111110
0011000010000000
0101000100000000
1001001111111100
0001010010000000
0001100100000000
0001000111111000
0001000000001000
0001000000001000
0001000001010000
0001000000100000