0000100010000000
0000100001000000
0000111111111110
0001001000001000
0001000100010000
0011000010100000
0011000001000000
0101000110110000
1001011000001110
0001000100010000
0001000100010000
0001000100010000
0001000100010000
0001001000010000
0001001000010000
0001010000010000