0000100001000000
0000101001001000
0000101001001000
0001001001001000
0001001111111000
0011000001000000
0011000010100000
0101000100010000
1001001010001000
0001010001000110
0001000001000000
0001001111110000
0001000000010000
0001000000100000
0001000000100000
0001000001000000