0000101000001000
0000100100001000
0000100100010000
0001000000100000
0001001111111000
0011001000001000
0011001000001000
0101001000001000
1001001111111000
0001000010100000
0001000010100000
0001000100100000
0001000100100010
0001001000100010
0001010000011110
0001100000000000