0001000001001000
0001000001000100
0001011111111110
0010000001000000
0010000001000000
0110011111111100
0110010001000100
1010010001000100
0010011111111100
0010010001000100
0010010001000100
0010011111111100
0010010001000100
0010010001000100
0010010001010100
0010010000001000