0000100000001000
0000100000111100
0000101111000000
0001000000000100
0001001001000100
0011000100101000
0011000000000000
0101001111111000
1001000000010000
0001000000100000
0001011111111110
0001000000100000
0001000000100000
0001000000100000
0001000010100000
0001000001000000