0001000001000000
0001000001000000
0001111111111110
0010000001000000
0010011111111100
0110010001000100
0110010001000100
1010011111111100
0010010001000100
0010010001000100
0010011111111100
0010000001000000
0011111111111110
0010000001000000
0010000001000000
0010000001000000