0000100000100000
0000100000100000
0000100000100000
0001001111111110
0001000000100000
0011000000100000
0011000000100000
0101000111111100
1001000001000000
0001000000100000
0001000010100100
0001001010000010
0001001010001010
0001001010001010
0001010001111000
0001000000000000