0001000000010000
0001000010010000
0001011100010000
0010010000111110
0010010000100010
0110010001000100
0110011110010000
1010010100010000
0010010100010000
0010010100010000
0010010100101000
0010010100101000
0010010100101000
0010100101000100
0010100101000100
0011000010000010