0000100100000000
0000100100000000
0000100100000000
0001001111011110
0001001010010010
0011010010010010
0011000010010010
0101000010010010
1001001111110010
0001000010010010
0001000010010010
0001000101010010
0001000101011110
0001001000100000
0001010000100000
0001100000000000