0001000010000000
0001000010000000
0001000111111000
0010000100001000
0010101010010000
0110110001100000
1010100110011000
0010111001000110
0010100001010000
0010100001001000
0010101111111100
0010100001000000
0010100010100000
0010000100010000
0010001000001000
0010010000000100