0001000000000000
0001011111111100
0001010000000100
0010010000000100
0010011111111100
0110010000100000
0110010100100100
1010010100100100
0010010100100100
0010010111111100
0010010000100000
0010010100100100
0010010100100100
0010100100100100
0010100111111100
0011000000000100