0000100000010000
0000100001111000
0000101111000000
0001000001000000
0001000001000000
0011011111111100
0011001001001000
0101001001001000
1001111111111110
0001001001001000
0001001001001000
0001011111111100
0001000001000000
0001000001000000
0001011111111100
0001000000000000