0001000000000000
0001011110111100
0001010010100100
0010010010100100
0010010010100100
0110011110111100
0110010010100100
1010010010100100
0010010010100100
0010011110111100
0010010010100100
0010010010100100
0010010010100100
0010010010100100
0010101010100100
0011000101001100