0000100001000000
0000100001000000
0000100001111110
0001000001000000
0001001111111100
0011001000000100
0011001111111100
0101001000000100
1001001111111100
0001001001000100
0001000001000000
0001011111111110
0001000001000000
0001000001000000
0001000001000000
0001000001000000