0000100000000000
0000101111111000
0000101001001000
0001001001001000
0001001111111000
0011001001001000
0011001001001000
0101001111111000
1001000001000000
0001011111111100
0001000011100000
0001000101010000
0001001001001000
0001010001000110
0001000001000000
0001000001000000