0001000000000000
0001011111111100
0001000001000000
0010000010000000
0010011111111100
0110010010100100
0110010010100100
1010010010100100
0010010010000100
0010010001001100
0010000001000000
0010111111111110
0010000010100000
0010000100010000
0010001000001000
0010110000000110