0000100000000000
0000101111111000
0000101000001000
0001001111111000
0001001000001000
0011001111111000
0011000100000000
0101001111111100
1001010001000100
0001001001000100
0001001010100100
0001001000000100
0001001111110100
0001000000000100
0001000000101000
0001000000010000