0000100000000000
0000101111111000
0000101000001000
0001001000001000
0001001111111000
0011001000001000
0011001000001000
0101001111111000
1001000000000000
0001011111111110
0001000001000000
0001001001000000
0001001001111000
0001001001000000
0001010101000000
0001100011111110