0000100000000000
0000101111111000
0000101000001000
0001001000001000
0001001000001000
0011001000001000
0011001111111000
0101000000000000
1001000000000000
0001011110111100
0001010010100100
0001010010100100
0001010010100100
0001010010100100
0001011110111100
0001010010100100