0001001000010000
0001001000010000
0001001000010000
0010111110100000
0010001000111110
0110001001000100
0110001000100100
1010111110100100
0010100010100100
0010100010101000
0010100010101000
0010100010010000
0010111110101000
0010100000101000
0010000001000100
0010000010000010