0001000000001000
0001000000111100
0001011111000000
0010000001000000
0010000001000000
0110111111111110
0110000001000000
1010000101000000
0010011001011100
0010010001000100
0010010001000100
0010011101011100
0010010001000100
0010010001000100
0010011111111100
0010010000000100