0000100000000000
0000101111111110
0000100001010000
0001000001010000
0001001111111110
0011001001010010
0011001001010010
0101001111111110
1001000000000000
0001000001000000
0001011111111110
0001000010001000
0001000110010000
0001000001100000
0001000011011000
0001001100000100