0000100010000000
0000100001000000
0000111111111100
0001000000000000
0001001000001000
0011000100010000
0011111111111110
0101000000000000
1001001111111000
0001001000001000
0001001000001000
0001001111111000
0001001000001000
0001001000001000
0001001111111000
0001001000001000