0000100100000000
0000100100000000
0000101111111000
0001001000001000
0001010000010000
0011101111111100
0011001000000100
0101001111111100
1001001000000100
0001001111111100
0001001000000100
0001001111111100
0001000000000000
0001000100001000
0001001000000100
0001010000000010