0000100000000000
0000111111111110
0000100001000000
0001000010000000
0001001111111100
0011001010010100
0011001010010100
0101001011110100
1001001010010100
0001001010010100
0001001011110100
0001001010010100
0001001010010100
0001001010010100
0001001111111100
0001001000000100