0000100000000000
0000100111111000
0000100100001000
0001000100001000
0001000111111000
0011000000000000
0011011111111110
0101000100001000
1001000111111000
0001000100001000
0001000111111000
0001000100001000
0001000100111110
0001011111001000
0001000000001000
0001000000001000