0000100001000000
0000100001000000
0000100001111110
0001000001000000
0001001111111100
0011000000000100
0011000111111100
0101000000000100
1001001111111100
0001000001000000
0001001001000000
0001001001111100
0001001001000000
0001010101000000
0001010011111110
0001100000000000