0000100001000000
0000101001000000
0000100101000000
0001011111111000
0001000010001000
0011000010010000
0011000011111100
0101000100000100
1001000100001000
0001001111111110
0001001000000010
0001010000101010
0001101010101010
0001001010000010
0001010000010100
0001000000001000