0000100000000000
0000101111111100
0000101001000000
0001001111111000
0001001001000000
0011001111111000
0011001001000000
0101001001000000
1001001111111100
0001000000000100
0001010101010100
0001010101010100
0001010101010100
0001010000000100
0001000000101000
0001000000010000