0001000010000000
0001000001000000
0001011111111110
0010000000000000
0010001111111000
0110001000001000
0110001111111000
1010000000000000
0010011111111100
0010010000000100
0010010111110100
0010010100010100
0010010111110100
0010010000000100
0010010000010100
0010010000001000