0000100001000000
0000100001000000
0000111111111100
0001000001000000
0001001111111000
0011000010000000
0011011111111100
0101000100010000
1001001001001000
0001010001000110
0001001001001000
0001000101010000
0001001001001000
0001010001000100
0001000101000000
0001000010000000