0001000000100000
0001000000100000
0001100011111010
0010010000100100
0010010000101000
0110000111111110
0110000000100000
1011110001000000
0010010011111100
0010010101000100
0010011001000100
0010010001111100
0010010101000100
0010011001000100
0010010001111100
0010000001000100