0000100010000000
0000100001000000
0000101111111000
0001000100010000
0001000010100000
0011011111111110
0011000000000000
0101001111111000
1001001000001000
0001001111111000
0001001000001000
0001001111111000
0001000100100000
0001000100100010
0001001000100010
0001110000011110