0001000000000000
0001011111111100
0001000001000000
0010001001111000
0010001001000000
0110111111111110
0110000100000000
1010000111111100
0010001000000000
0010001111111100
0010000000000100
0010010101010100
0010010101010100
0010100000000100
0010000000101000
0010000000010000