0001010100010000
0001010100010000
0001010100010000
0010111110010000
0010010100111110
0110011100100010
0110010101000100
1010011110010000
0010010100010000
0010010100010000
0010111110010000
0010000000101000
0010010100101000
0010100010100100
0011000001000100
0010000010000010