0001011111111100
0001010000000100
0001011111111100
0010010000000000
0010010111111000
0110010000010000
0110011111111110
1010010000100000
0010010001100000
0010011110011100
0010010010000100
0010010100001000
0010100111011110
0010111100001000
0011000100001000
0010001100011000