0001000000111100
0001011111000000
0001000001000100
0010001000100100
0010000100001000
0110011111111110
0110010000000010
1010101000001000
0010001000001000
0010001110111110
0010010010001000
0010101010101000
0010000100111110
0010001000001000
0010010000001000
0010100000001000