0001000001000000
0001000001000000
0001011111111100
0010000001000000
0010111111111110
0110000100010000
0110011110111100
1010000100010000
0010000110010000
0010011000111110
0010000000000000
0010111111111110
0010000100100000
0010000100100010
0010001000100010
0010110000011110