0001000001000000
0001011111111100
0001000001000000
0010000100010000
0010111111111110
0110000100010000
0110001111111000
1010001000001000
0010001111111000
0010001000001000
0010001111111000
0010001000001000
0010001111111000
0010000100010000
0010001000001000
0010010000000100