0001000100001000
0001011111111110
0001000100001000
0010000000000000
0010010010001000
0110111111111110
0110010010001000
1010010011111000
0010010000000000
0010011111111100
0010000001000000
0010111111111110
0010000101010000
0010001001001000
0010110001000110
0010000001000000