0001000100010000
0001000100010000
0001011110111100
0010000100010000
0010001110111000
0110010101010100
0110100100010010
1010000000000000
0010011111111100
0010000001000100
0010001001000000
0010001001111000
0010001001000000
0010010101000000
0010100011111110
0011000000000000