0001000000000000
0001011111111100
0001001001001000
0010010001000100
0010111111111110
0110010001000100
0110011011101100
1010010101010100
0010011011101100
0010010001000100
0010011011101100
0010010101010100
0010011011101100
0010010001000100
0010010001010100
0010010000001000