0001000000000000
0001111101111100
0001100101000100
0010100101111100
0010111101000100
0110100101000100
0110100101111100
1010111100100000
0010100101111110
0010100110101010
0010111100101010
0010000001001010
0010101010010010
0010100100100010
0010100101001010
0011000100000100