0001010100101000
0001011110111110
0001100101001000
0010011110111110
0010001100011000
0110010110101010
0110100101000110
1010001111111100
0010001000000100
0010001111111100
0010001000000100
0010001111111100
0010001000000100
0010001111111100
0010000100001000
0010001000000100