0001011110111100
0001010010100100
0001011110111100
0010000000000000
0010011111111110
0110010000000000
0110010110010000
1010010010011110
0010011111010100
0010010101100100
0010010111010100
0010010101010100
0010010111010100
0010010101101000
0010101111001000
0011000001010100