0010001000010000
0010001000010000
1111111100010000
0010001000010000
0011111000010000
0000100001111100
0111111100010000
0100100100010000
0100100100010000
0111111100010000
0000100000010000
1111111110010000
0000100000010000
0000100011111110
0000100000000000
0000100000000000