0010100000100000
0010100000100000
1111111000100000
0010100111111100
0011100100100100
0001000100100100
0111110100100100
0101010100100100
0101010100100100
0111111111111110
0001000000100000
1111111001010000
0001000001010000
0001000010001000
0001000100000100
0001001000000010