0010100000000100
0010100000011110
1111110111100000
0010100000100010
0011100100010010
0001000010010100
0111110010000000
0101010000100000
0101010111111110
0111110001000100
0001000010000100
1111110111001000
0001000000110000
0001000000101000
0001000011000100
0001001100000010