0010100000100000
0010100001000000
1111110011111110
0010100010010010
0011100010010010
0001000011111110
0111110010010010
0101010010100010
0101010011111110
0111110001001000
0001000010001000
1111110111111110
0001000000001000
0001000000001000
0001000000001000
0001000000001000