0101000010000010
0101000010000010
1111101010100010
0101000111001010
0111000010001010
0010001111101010
1111101000101010
1010101000101010
1010101111101010
1111101000101010
0010001000101010
1111101111101010
0010001000100010
0010001000100010
0010001010101010
0010001001000100