0101000000010000
0101000000010000
1111100001111100
0101011100010100
0111000111111110
0010000100010100
1111101001111100
1010101000010000
1010111101111100
1111100100010000
0010000111111110
1111110100010000
0010001000010000
0010001100000000
0010010011111110
0010100000000000