0010100010000000
0010100011111110
1111111010010000
0010100101111100
0011100101010100
0001001101010100
0111110101111100
0101010101010100
0101010101010100
0111110101111100
0001000110010000
1111111101010000
0001000100100000
0001000100110000
0001000101001000
0001000110000110