0101000100000000
0101000010011110
1111101111010010
0101000000010010
0111001111010100
0010001001010100
1111101111011000
1010100000010100
1010101111010010
1111100001010010
0010000010010010
1111100011011010
0010001110010100
0010000010010000
0010001010010000
0010000100010000