0010100000100000
0010100111111100
1111110100100100
0010100111111100
0011100000100000
0001001111111110
0111110000000000
0101010111111100
0101010100000100
0111110111111100
0001000100000100
1111110111111100
0001000100000100
0001000111111100
0001000010001000
0001000100000100