0010100000011000
0010100111100000
1111110001000000
0010101111111110
0011100010001000
0001000101110100
0111111001010010
0101010001110000
0101010000000000
0111110111111100
0001000100000100
1111110101110100
0001000101010100
0001000101110100
0001000100000100
0001000100001100