0000000100000000
0000000100000000
0000000100000000
0111111111111100
0100000100000100
0100001010000100
0100010001000100
0100100100100100
0101000100000100
0100000100000100
0100001010000100
0100001001000100
0100010001000100
0100100000000100
0100000000010100
0100000000001000