0000000000001000
0011110000001000
0010010000001000
0010010000001000
0010010111111110
0011110000001000
0010010000001000
0010010000001000
0010010010001000
0011110001001000
0010010001001000
0010010000001000
0010010000001000
0100010000001000
0101010000101000
1000100000010000