0000000000000000
0011110111111100
0010010100100100
0010010100100100
0010010100100100
0011110100100100
0010010100100100
0010010111111100
0010010100000100
0011110100000000
0010010100000000
0010010100000000
0010010100000010
0100010100000010
0101010011111110
1000100000000000