0000001000000000
0000000100000000
1111111111111110
0000100000000000
0001000000010000
0011111111111000
0000000000001000
0001111111110000
0001000000010000
0001111111110000
0001000000010000
0001111111110000
0001000000010000
0001000000010000
0001000001010000
0001000000100000