0000000000010000
0011110010010000
0010010010010000
0010010010001000
0010010100001000
0011110100000100
0010011000100100
0010010000100010
0010010000100000
0011110111111110
0010010000100000
0010010000100000
0010010000100000
0100010000100000
0101010000100000
1000100000100000