0000000000000000
0011110000000000
0010010011111100
0010010010000100
0010010010000100
0011110010000100
0010010011111100
0010010010000100
0010010010000100
0011110010000100
0010010011111100
0010010010000100
0010010000000000
0100010000000000
0101010111111110
1000100000000000