0000000000100000
0011110000100000
0010010000100000
0010010001000000
0010010001001000
0011110010000100
0010010111111110
0010010010000010
0010010000000000
0011110011111100
0010010010000100
0010010010000100
0010010010000100
0100010010000100
0101010011111100
1000100010000100