0000000000100000
0111100000100000
0100100100100000
0100100100100000
0100100111111100
0111100100100000
0100101000100000
0100100000100000
0100100000100000
0111100111111100
0100100000100000
0100100000100000
0100100000100000
0100100000100000
0100101111111110
1001100000000000