0000000000000100
0111100110001000
0100100001010000
0100100000100000
0100100001010000
0111100010001000
0100100100100100
0100100000100000
0100101111111110
0111100000100000
0100100010101000
0100100010100100
0100100100100010
0100101000100010
0100100010100000
1001100001000000