0000000000100000
0011110000100000
0010010100100100
0010010010100100
0010010010101000
0011110000100000
0010010000100000
0010011111111110
0010010001110000
0011110010101000
0010010010101000
0010010100100100
0010010100100100
0100011000100010
0101010000100000
1000100000100000