0000000001000000
0111100000100000
0100101111111110
0100100000000000
0100100111111000
0111100100001000
0100100100001000
0100100111111000
0100100000000000
0111101111111100
0100100000001000
0100100000110000
0100100000100000
0100100000100000
0100100010100000
1001100001000000