0000000000000000
0111100000000110
0100101110111000
0100100010001000
0100100010001000
0111100100001000
0100100100111110
0100101110001000
0100100010001000
0111101010001000
0100101010001000
0100100100111110
0100100100000000
0100101010000000
0100110001111110
1001100000000000