0000000000000000
0111100111111110
0100100100000000
0100100100000000
0100100101111100
0111100100000000
0100100100000000
0100100111111110
0100100101010000
0111100101010010
0100100101010100
0100100101001000
0100100101001000
0100101001000100
0100101001010010
1001110001100000