0001000010000000
0001000010000000
0001000111111000
0010000100001000
0010101010010000
0110110001100000
1010100110011000
0010111000000110
0010100111111000
0010100100001000
0010100111111000
0010100100001000
0010100111111000
0010000100001000
0010000100101000
0010000100010000