0000000000000000
0111100111111100
0100100100000100
0100100100000100
0100100100000100
0111100111111100
0100100000000000
0100100000000000
0100101111111110
0111100000100000
0100100000100000
0100100111111100
0100100000100000
0100100000100000
0100101111111110
1001100000000000