0000000000001000
0111100000111100
0100101111000000
0100100001000100
0100101000100100
0111100100101000
0100100100000000
0100100001000000
0100101111111110
0111100010001000
0100100100001000
0100101110010000
0100100001100000
0100100001010000
0100100110001000
1001111000000100