0000000000100000
0111100000100000
0100101111111110
0100100000100000
0100100111111100
0111100000100100
0100101111111110
0100100000100100
0100100111111100
0111100000100000
0100100100100000
0100100100111110
0100100100100000
0100101010100000
0100101001111110
1001110000000000