0000000000000000
0011110111111100
0010010100100100
0010010100100100
0010010111111100
0011110100100100
0010010100100100
0010010111111100
0010010000100000
0011111111111110
0010010001110000
0010010010101000
0010010100100100
0100011000100010
0101010000100000
1000100000100000