0000000000100000
0111100000100000
0100101111111110
0100100000100000
0100100111111100
0111100100100100
0100100111111100
0100100100100100
0100100111111100
0111100000100000
0100100001110000
0100100010101000
0100100100100100
0100111000100010
0100100000100000
1001100000100000