0000000000100000
0011110000100000
0010010111111100
0010010100100100
0010010100100100
0011110111111100
0010010100100100
0010010100100100
0010010111111100
0011110000000000
0010011111111110
0010010010001000
0010010010001000
0100010010001000
0101010100001000
1000101000001000