0000000001000000
0111100010100000
0100100100010000
0100101000001000
0100110111110110
0111100000000000
0100101111000100
0100101001010100
0100101001010100
0111101111010100
0100101001010100
0100101001010100
0100101111010100
0100101001000100
0100101001010100
1001101011001000