0000000000100000
0011110100100100
0010010100100100
0010010100100100
0010010111111100
0011110000000000
0010011111111110
0010010000100000
0010010001000000
0011110111111100
0010010101010100
0010010101010100
0010010101010100
0100010101010100
0101010101010100
1000100100001100