0000000000000000
0111100111111100
0100100100100100
0100100100100100
0100100111111100
0111100100100100
0100100100100100
0100100111111100
0100100000000000
0111100001000000
0100100000100100
0100101010100010
0100101010001010
0100110010001000
0100100001111000
1001100000000000