0000000000100000
0011110000100000
0010010010100000
0010010100101100
0010010100100100
0011110100100100
0010010110101100
0010010100100100
0010010100100100
0011110111111100
0010010100100100
0010010001010000
0010010001010000
0100010010001000
0101010100000100
1000101000000010