0000001001001000
0111100101001000
0100100101010000
0100111111111100
0100100001000000
0111111111111110
0100100100010000
0100101000001000
0100110111110110
0111100000010000
0100100100010000
0100100111111100
0100100000000100
0100101111100100
0100100000010100
1001100000001000