0000000001000000
0111100000100000
0100101111111100
0100100100001000
0100100010010000
0111101111111110
0100101000000010
0100110001000100
0100100000100000
0111101111111100
0100100010000000
0100100011111000
0100100010001000
0100100100001000
0100100100101000
1001101000010000