0000000000010000
0111101000100000
0100100101111100
0100100101000100
0100100001000100
0111100001111100
0100101101000000
0100100101000000
0100100101111100
0111100101000100
0100100101000100
0100100101111100
0100100101000100
0100101010000000
0100110001111110
1001100000000000