0000000000100000
0111100100100100
0100100010101000
0100101111111110
0100101000000010
0111100011111000
0100100010001000
0100100010001000
0100100011111000
0111100000100000
0100100000100000
0100100111111100
0100100000100000
0100100000100000
0100101111111110
1001100000000000