0000000000100000
0111100000100000
0100101111111110
0100100001110000
0100100010101100
0111101100100010
0100100001010000
0100100010001000
0100100100100100
0111101000100010
0100100100100100
0100100010101000
0100100100100100
0100101000100010
0100100010100000
1001100001000000