0000000000100000
0111100100100100
0100100010101000
0100100111111100
0100100001000000
0111101111111110
0100100010001000
0100100100000100
0100101111111110
0111110100000100
0100100111111100
0100100100000100
0100100111111100
0100100100000100
0100100111111100
1001100100000100