0000000010000010
0111100010000010
0100111111110100
0100100010001000
0100100010000000
0111101111100010
0100100000000010
0100101111100100
0100101000101000
0111101000100000
0100101111100000
0100101000100010
0100100101000010
0100100001110100
0100111110001000
1001101000010000