0000000000100000
0111101111111110
0100101010001000
0100101001010000
0100101111111110
0111101001010000
0100101011111100
0100101001010100
0100101111111110
0111101001010100
0100101011111100
0100101001010000
0100101011011000
0100110101010100
0100111001010010
1001100001010000