0000000001000000
0111100000100000
0100101111111110
0100101000000010
0100100111111100
0111100101001000
0100101001010000
0100100111111100
0100101100000100
0111100111111100
0100100100000100
0100100111111100
0100100100000100
0100100111111100
0100100010001000
1001100100000100