0000010000100000
0000111000100000
0111100000100000
0000100000100000
0000100000100000
1111111101000000
0000100001000000
0001100001000000
0001110001000000
0010101001001000
0010101010000100
0100100010000100
1000100111111110
0000100010000010
0000100000000010
0000100000000000