0000000001110000
0001111110000000
0000000100000000
0000000100000000
0111111111111100
0000010101000000
0000100100100000
0011000100011000
1100000000000110
0000111111000000
0000100001000000
0000100001000000
0000100001000100
0001000001000100
0010000000111100
0100000000000000