0000010000000000
0000111011111100
0111100000000100
0000100000001000
0000100000010000
1111111100100000
0000100000100000
0001100111111110
0001110000100000
0010101000100000
0010101000100000
0100100000100000
1000100000100000
0000100000100000
0000100010100000
0000100001000000