0000100000100000
0001110000100000
1111000000100000
0001000000100000
0001000111111100
1111110100100100
0001000100100100
0011000100100100
0011100100100100
0101010111111100
0101010100100100
1001000000100000
0001000000100000
0001000000100000
0001000000100000
0001000000100000