0000100000010000
0001110010010000
1111000010010000
0001000010001000
0001000100001000
1111110100000100
0001001000000100
0011010111111010
0011100010001000
0101010010001000
0101010010001000
1001000010001000
0001000100001000
0001000100001000
0001001000101000
0001010000010000