0000100000010000
0001110100010000
1111000010010000
0001000010010000
0001000000010000
1111110100010000
0001000010010000
0011100010010000
0011010000010000
0101000000011110
0101001111110000
1001000000010000
0001000000010000
0001000000010000
0001000000010000
0001000000010000