0000100000010000
0001110100010000
1111000100010000
0001000100010010
0001000100010010
1111110100010100
0001000111011000
0011000100010000
0011100100010000
0101010100010000
0101010100010000
1001000100010010
0001000101010010
0001000110010010
0001000100001110
0001000000000000