0000100000000000
0001110111111110
1111000000010000
0001000000010000
0001000000100000
1111110000100000
0001000001101000
0011100010100100
0011010100100010
0101001000100010
0101000000100000
1001000000100000
0001000000100000
0001000000000000
0001001111111110
0001000000000000