0000010000000000
0000111000000000
0111100011111100
0000100010000100
0000100010000100
1111111110000100
0000100010000100
0001100010000100
0001110011111100
0010101010000100
0010101000000000
0100100001001000
1000100001000100
0000100010000100
0000100010000010
0000100100000010