0000100000100000
0001110100100100
1111000100100100
0001000100100100
0001000111111100
1111110001000000
0001000001000000
0011100011111100
0011010100000100
0101001010000100
0101000001001000
1001000001010000
0001000000100000
0001000001000000
0001000010000000
0001001100000000