0000100000100000
0001110000100000
1111000111111100
0001000000100000
0001000000100000
1111110111111110
0001000010001000
0011000100000100
0011101000100010
0101010000100000
0101000111111100
1001000000100000
0001000000100000
0001000000100000
0001001111111110
0001000000000000