0000100010001000
0001110010001000
1111000010001000
0001001111111110
0001000010001000
1111110010001000
0001011111111110
0011000000000000
0011100111111100
0101010100000100
0101010100000100
1001000111111100
0001000100000100
0001000100000100
0001000111111100
0001000100000100