0000100010100000
0001110010010000
1111000010010000
0001000111111110
0001000100010000
1111111100010000
0001010111111110
0011000100010000
0011100100010000
0101010111111110
0101010100010000
1001000100010000
0001000100010000
0001000111111110
0001000100000000
0001000100000000