0001000000000000
0011101111111110
1110001000000010
0010001000011010
0010001011100010
1111101000100010
0010001000100010
0011001111111110
0110101000100010
0110001001110010
1010001010101010
0010001100100110
0010001000100010
0010001000100010
0010001111111110
0010001000000010