0000100001000000
0001110000100000
1111001111111110
0001000000000000
0001000010001000
1111110010001000
0001000101010100
0011001000100010
0011100000000000
0101010000100000
0101001111111110
1001000000100000
0001000000100000
0001000000100000
0001000000100000
0001000000100000