0001000000010100
0011100000010010
1110000000010000
0010011111111110
0010000000010000
1111100000010000
0010001111010010
0011001001010010
0110101001010010
0110001001010100
1010001111010100
0010000000001000
0010000011101010
0010011100011010
0010001000100110
0010000001000010