0000100000001000
0001110000111100
1111000111100000
0001000000100000
0001001111111110
1111110000100000
0001000111111100
0011000100100100
0011100111111100
0101010100100100
0101010111111100
1001000000100000
0001000111111100
0001000000100000
0001001111111110
0001000000000000