0000100000011110
0001110111100000
1111000001000100
0001000100100100
0001000010001000
1111110000100000
0001000111111100
0011100100100100
0011010100100100
0101010111111100
0101000100100100
1001000100100100
0001001111111110
0001000100000100
0001000100010100
0001000100001000