0000100000100000
0001110000100000
1111001111111110
0001000000100000
0001000111111100
1111110100000100
0001000111111100
0011100100000100
0011010111111100
0101010100000100
0101000111111100
1001000100000100
0001011111111110
0001000010001000
0001000100000100
0001001000000010