0000100010001000
0001110010001000
1111000111111110
0001000010001000
0001000000000000
1111110111111110
0001000010001000
0011000010001000
0011100011111000
0101010010001000
0101010011111000
1001000010001000
0001000010011110
0001000111101000
0001000000001000
0001000000001000