0000000000100000
0001100000100000
0111001111111110
0001000100100100
0001000100100100
1111101010101010
0001011111111110
0011000000000000
0011100111111100
0101010100000100
0101000101110100
1001000101010100
0001000101110100
0001000100000100
0001000111111100
0001000100000100