0001000000111110
1110011111000000
0010001001000100
0010000100101000
0010001111111000
1111100001000000
0010011111111100
0011000000000000
0110101111111000
0110000000001000
1010001111111000
0010000000001000
0010001111111000
0010010101000100
0010010100101010
0010100011111010