0000100001000000
0001110000100000
1111001111111110
0001001001010000
0001001111111110
1111111001010010
0001001111111110
0011001000000000
0011101010010100
0101011011011000
0101001010010000
1001001011010010
0001001010001110
0001010000000000
0001010101010100
0001101000101010