0001000000000000
0000100001111100
0000101001000100
0000001001000100
0001001001111100
0001001101000100
0101010011000100
0101010011111100
0101010001000100
1001100001000100
0001100101111100
0001000100101000
0011000100101000
0100111101001010
1000000001001010
0000000010000110