0000000000000000
0000000001111100
0111111101000100
0000100001000100
0000100001111100
0010101001000100
0010101001000100
0010101001111100
0101110101000100
0100100101000100
1000100001111100
0000100000101000
0000111100101000
1111000001001010
0100000001001010
0000000010000110