0001000000000000
0000100001111100
0111111101000100
0000000001000100
0010001001111100
0001010001000100
0111111101000100
0101000101111100
0000100001000100
0111111101000100
0001000001111100
0001111000101000
0001001000101000
0010001001001010
0010101001001010
0100010010000110