0000000000000000
1111111101111100
1000000101000100
0000000001000100
0111111001111100
0100001001000100
0111111001000100
0100001001111100
0111111001000100
0001000001000100
0000100001111100
1111111100101000
0000000000101000
0010010001001010
0100001001001010
1000000110000110