0000100000000100
0111111101111000
0000100001000000
0011111001000000
0010101001111110
0011111001001000
0010101001001000
1111111101001000
0000100010001000
0001111111110000
0001000000010000
0001111111110000
0001000000010000
0001111111110000
0000010001000010
0111100000111110