0000101000000000
0111010001111100
0001010101000100
0101001001000100
0010001001111100
0010000101000100
0101110101000100
1000000001111100
0111111001000100
0100001001000100
0100001001111100
0111111000101000
0100001000101000
0010010001001010
0000111101001010
1111000010000110