0000000101000100
1111100101010100
1000101101010100
1000110111111000
1111100000001110
1000100100010010
1000101011101010
1111111000001010
1000101000001010
1000101011101010
1111101010101010
0101001010100100
0101001010110100
0101011010101010
0101101100001010
1001001000010000