0000000000000000
1111111101111100
0101001001000100
1001000101000100
1111111111111100
1001000101000100
1101101101000100
1011010101111100
1101101101000100
1001000101000100
1101101101111100
1011010100101000
1101101100101000
1001000101001010
1001010101001010
1000001010000110