0000000100000000
0000010100000000
0011100101111000
0010000100001000
0010000100001000
0011110101111000
0010000100001000
0010000100001000
0010000100001000
0011111111111000
0010000100001000
0000001010000000
0000010001000000
0000100000100000
0011000000011000
1100000000000110