0000101000000000
0011001110111000
0010001000001000
0011101110111000
0010000010001000
0011101010111000
0010001010001000
1111111111111110
0000100000100000
0001000100010000
0010111111101000
1100000100000110
0001111111110000
0000000100000000
0000000100000000
0000000100000000