0001000001000000
0001000001000000
0001000010000000
0001000011111100
0001000100000100
1111110100000100
0001001000000100
0001010010000100
0001000001000100
0001000000100100
0001000000100100
0001110000000100
1110000000000100
0100000000000100
0000000000101000
0000000000010000