0001000001000000
0001000001000000
0001000001000000
0001000001000000
0001000001000000
1111111001000000
0001000001111100
0001000001000000
0001000001000000
0001000001000000
0001011001000000
0001100001000000
1110000001000000
0100000001000000
0000011111111110
0000000000000000