0001000100000000
0001000100000000
0001000100000000
0001000111111100
0001001010100100
1111110010100100
0001000010100100
0001000100100100
0001000100100100
0001001001000100
0001110001000100
1110000010000100
0100000100000100
0000001000000100
0000010000101000
0000000000010000