0001000000100000
0001000000100000
0001000000100000
0001001111111110
0001000000100000
1111110100100100
0001000100100100
0001000100100100
0001000100100100
0001000111111100
0001000000100100
0001110000100000
1110000000100010
0100000000100010
0000000000011110
0000000000000000