0001000000000000
0001000000000000
0001000111111100
0001000000000000
0001000000000000
1111110000000000
0001001111111110
0001000000100000
0001000000100000
0001000001000000
0001000001000000
0001110010001000
1110000100000100
0100001111111110
0000000100000010
0000000000000000