0001000100001000
0001000100001000
0001000100001000
0001000100001000
0001011111111110
1111110100001000
0001000100001000
0001000100001000
0001000100001000
0001000111111000
0001000100001000
0001110100001000
1110000100001000
0100000100001000
0000000111111000
0000000100001000