0001000000100000
0001000000100000
0001000000100000
0001000111111100
0001000100100100
1111110100100100
0001000100100100
0001000100100100
0001000100100100
0001001111111110
0001000000100000
0001110001010000
1110000001010000
0100000010001000
0000000100000100
0000001000000010