0001000010000000
0001000010000000
0001000100000000
0001000111111100
0001001000000100
1111110000000100
0001000111100100
0001000100100100
0001000100100100
0001000100100100
0001000111100100
0001110100100100
1110000000000100
0100000000000100
0000000000101000
0000000000010000