0001000001000000
0001000000100000
0001000000100000
0001001111111110
0001001000000010
1111110000000100
0001000000000000
0001000010010000
0001000010010000
0001000010010000
0001000010001000
0001110100001000
1110000100001000
0100000100000100
0000001000000100
0000010000000010