0001000000001000
0001000000011100
0001000111100000
0001000100000000
0001000100000000
1111110100000000
0001000111111110
0001000100010000
0001000100010000
0001000100110000
0001000100011000
0001110100010100
1110000100010010
0100001000010000
0000001000010000
0000010000010000