0001000010000000
0001000010000000
0001000111111100
0001000100000100
0001001000000100
1111110111110100
0001000100010100
0001000100010100
0001000100010100
0001000111110100
0001000100000100
0001110100101000
1110000100010010
0100000100000010
0000000011111110
0000000000000000