0001000000100000
0001000000100000
0001000001000000
0001000111111100
0001000100000100
1111110100000100
0001000100000100
0001000111111100
0001000100000100
0001000100000100
0001000111111100
0001110100000100
1110000100000100
0100000100000100
0000000111111100
0000000100000100