0001000010010000
0001000010010100
0001000010010010
0001000100010010
0001000100010000
1111111101111110
0001010100010000
0001000100010000
0001000100010000
0001000100101000
0001000100101000
0001110100101000
1110000100101000
0100000101000100
0000000101000100
0000000110000010