0010000001000000
0010000000100000
0010001111111110
0010001000000010
0010000000000000
1111100000111000
0010001111000000
0010000001000000
0010000001000000
0010000001111100
0010001111000000
0011100001000000
1110000001000010
0100000001000010
0000000000111110
0000000000000000