0000100010100000
0000100010010000
0001000010000000
0011000011111100
0101011110000000
1001000001001000
0001000001010000
0001000000100100
0001000001010100
0001000110001100
0001011000000100
0000000100000000
0011111111111000
0000000100000000
0000000100000000
1111111111111110