0001000000000000
0001001111111110
0001000000000000
0001000000000000
0001000111111100
1111110100000100
0001000100000100
0001000111111100
0001000100000100
0001000100000100
0001000111111100
0001110100000100
1110000000000000
0100000000000000
0000001111111110
0000000000000000