0001000010001000
0001000010001000
0001000010001000
0001000010001000
0001000111111110
1111110010001000
0001000010001000
0001000010001000
0001000010001000
0001001111111110
0001000000000000
0001110010001000
1110000010000100
0100000100000100
0000001000000010
0000010000000010