0010000010000000
0010000010000000
0010000100111100
0010001000000000
0010010010000000
1111100010000000
0010000101111110
0010001100001000
0010010100001000
0010000100001000
0010000100001000
0011100100001000
1110000100001000
0100000100001000
0000000100101000
0000000100010000