0001000010000000
0001000010000000
0001000011111000
0001000100001000
0001001000010000
1111110111111100
0001000100100100
0001000100100100
0001000111111100
0001000100100100
0001000100100100
0001110111111100
1110000100100100
0100001000100100
0000001000010100
0000010000001000