0001000000000000
0001000111111000
0001000000001000
0001000011010000
0001000000100000
1111110111111100
0001000100100100
0001000100100100
0001000111111100
0001000100100100
0001000100100100
0001110111111100
1110000100100100
0100000100100100
0000000100100100
0000000100001100