0001000000000000
0001000011111100
0001000010000100
0001000010000100
0001000011111100
1111110000000000
0001000111111110
0001000100000010
0001000100000010
0001000111111110
0001000100000010
0001110100000010
1110000111111110
0100000100000010
0000000100001010
0000000100000100