0010000000101000
0010000000100100
0010000000100000
0010011111111110
0010010000100000
1111110000100000
0010010000100100
0010011110100100
0010010010100100
0010010010101000
0010010010101000
0011110010010000
1110011010010010
0100100100101010
0000100001000110
0001000010000010