0001000000001000
0001000000111100
0001001111000000
0001000001000100
0001001000100100
1111110100101000
0001000100000000
0001000000010000
0001001111111110
0001000000010000
0001000100010000
0001110010010000
1110000010010000
0100000000010000
0000000001010000
0000000000100000