0001000000000000
0001000111111000
0001000100001000
0001000100001000
0001000111111000
1111110100001000
0001000111111000
0001000100001000
0001000111111000
0001000100001000
0001110100001000
1110001111111110
0100000000000000
0000000010010000
0000000100001000
0000001000000100