0010000010000000
0010000010000000
0010000011111000
0010000100001000
1111101000010000
0010010000000000
0010000001000000
0010001110011100
0010001000000100
0010001000000100
0010001110011100
0011101000000100
1110001000000100
0100001000000100
0000001111111100
0000001000000100