0001000001000000
0001000001000000
0111110001000000
0001000111111000
0001000001001000
1111111001001000
0100010001001000
0010100101001000
0111110011001000
0001000001001000
0001000010101000
1111111010101000
0001000010001010
0001000100001010
0001000100000110
0001001000000010