0001000000000000
0001000111111100
0001000100000100
0001000100000100
0001000111100100
1111110100100100
0001000100100100
0001001111111110
0001001000000010
0001001011111010
0001111010001010
1110001010001010
0100001011111010
0000001000000010
0000001000001010
0000001000000100