0010000010000000
0010000001000000
0010011111111100
0010000000000000
0010001000001000
1111100100010000
0010111111111110
0010000000000000
0010001111111000
0010001000001000
0010001000001000
0011101111111000
1110001000001000
0100001000001000
0000001111111000
0000001000001000