0010000001000000
0010000001000000
0010011111111100
0010000001000000
0010001111111000
1111100010000000
0010011111111110
0010000100010000
0010001000001000
0010011111111100
0011101000001010
1110001000001000
0100001111111000
0000001000001000
0000001000001000
0000001111111000