0011111111111000
0010000100001000
0011111111111000
0010000100001000
0011111111111000
0110000000001100
0001100000110000
0000011011000000
0001100000110000
0110000100001100
0000000100000000
0011111111111000
0000000100000000
0000000100000000
1111111111111110
0000000000000000