0010000100001000
0010000100001000
0010011111111110
0010000101001000
1111100000100000
0010011111111110
0010001000000000
0010001000000000
0010001111111100
0010000000000000
0010001001001000
0011101001001000
1110001001001000
0100010001001010
0000010001001010
0000100001000110