0010001000000000
0001010001111100
1111111101000100
0000100001111100
0100100101000100
0100100101111100
0111111101000100
0000100001000100
0001000010010100
0010000100001000
0100000100000000
0011111111111000
0000000100000000
0000000100000000
1111111111111110
0000000000000000