0010000100100000
0010000100010000
0010001000001000
0010010010000110
0010100100010000
1111101111111000
0010000000001000
0010000000000000
0010011110111100
0010000010000100
0010010010100100
0011101010010100
1110010010100100
0100000010000100
0000001010010100
0000000100001000