0010000001000000
0001000010100000
1001000100010000
0100001000001000
0100110111110110
0001000001000000
0010011111111100
1110000001000000
0010001001001000
0010010001000100
0010100101000010
0010000010000000
0000000100000000
0011111111111000
0000000100000000
1111111111111110