0010000000000000
0010011111111110
0010010000000010
0010100111110100
0010000000000000
1111101111111000
0010000010000000
0010000101000100
0010011001101000
0010000010110000
0011100100101000
1110011001101000
0100000010100100
0000000100100010
0000011010100000
0000000001000000