0010000000000000
0010001111111110
0010000000000000
0010000111111100
0010000100000100
1111100100000100
0010000111111100
0010000000000000
0010001111111110
0010001010001010
0010001001010010
0011101111111110
1110001000100010
0100001000100010
0000001000101010
0000001000000100