0010001000001000
0010000100001000
0010000100010000
0010000000000000
0010011111111100
1111100000000000
0010000100010000
0010001000001000
0010010000000100
0010001111111000
0010001010101000
0011101010101000
1110001010101000
0100001010101000
0000111111111110
0000000000000000