0010000010010000
0010000010010000
0010001111111100
0010000010010000
0010000010010000
1111100010010000
0010011111111110
0010000010010000
0010000101001000
0010001001000100
0010010001001010
0011100101010100
1110000101001010
0100001001001010
0000000101000000
0000000010000000