0001000010001000
0001000010001000
0001001111111110
0001000010001000
0001000000000000
1111110111111100
0001000100000100
0001000111111100
0001000100000100
0001000111111100
0001110000100000
1110001111111110
0100000001010000
0000000010001000
0000000100000100
0000001000000010