0010000000010100
0010000000010010
0010000000010000
0010011111111110
0010010000010000
1111110010010000
0010010011010010
0010010010010010
0010011111110010
0010010010010100
0011110010010100
1110010111001000
0100101010101010
0000100010011010
0001000110100110
0000000001000010