0010000001000000
0010000001111100
0010000001000000
0010001111111110
0010001001000010
1111101001111000
0010001111000100
0010001000111100
0010001000000000
0010001001010000
0010001001010100
0011101101010100
1110010011011000
0100010001010000
0000100111111110
0000000000000000