0001000000000000
0001001111011110
0001001001010010
0001001001010010
0001001111011110
1111110000000000
0001000111111100
0001000100100100
0001000111111100
0001000100100100
0001000111111100
0001110000100000
1110001111111110
0100000000100000
0000000000100000
0000000000100000