0010001000010000
0010000100010000
0010111111010000
0010000000010000
0010011110111110
1111110010100100
0010011111010100
0010000000010100
0010011110010100
0010000010010100
0010000100010100
0011100111001000
1110111100001000
0100000100010100
0000010100010100
0000001000100010