0010000010000000
0010000100000000
0010011111111100
0010010001000100
0010010101010100
1111110001000100
0010011111111100
0010010011100100
0010010101010100
0010010000000100
0011100001000000
1110011111111110
0100000010100000
0000000100010000
0000001000001000
0000110000000110