0010001000010000
0010010000010000
0010111110010000
0010100010010000
0010111110111110
1111100010100100
0010111111010100
0010010000010100
0010001000010100
0010111111010100
0010010000010100
0011011110001000
1110010010001000
0100100010010100
0000101010010100
0001000100100010