0010000001000000
0010011111111100
0010000000000000
0010001110111000
1111001010101000
0010001110111000
0010000100010000
0010011111111100
0010000100010000
0010011111111100
0011000100010000
1110111111111110
0100000100101000
0000001100010000
0000110101001000
0000000110000110