0001000001000000
0001000001000000
1111111001111000
0001000010001000
0111110000010000
0001000111111100
1111111000100100
0000000000100100
0111110111111110
0100010000100100
0111110000100100
0100010111111100
0111110000100100
0100010000100000
0101010010100000
0100100001000000