0001000000000000
0001000111111100
1111111100000100
0001000100000100
0111110111111100
0001000100000100
1111111100000100
0000000111111100
0111110100000100
0100010100000100
0111110111111100
0100010001010000
0111110010010000
0100010010010010
0101010100010010
0100101000001110