0001000000100000
0001000000010000
1111111011111110
0001000010000010
0111110100000100
0001000000000000
1111111011111110
0000000000010000
0111110000010000
0100010010010000
0111110010011110
0100010010010000
0111110010010000
0100010011010000
0101010100111110
0100101000000000