0000100000010000
0001000000010000
0111111101111110
0100100100010000
0100100100010000
0111111100010000
0100100101111100
0100100100000100
0111111101000100
0001000000101000
0001101000010000
0010110010101000
0010111111000100
0100100010000100
0100100000000010
1000011111111110