0000110000100000
0111000001000000
0001000111111100
1111111100100100
0011100100100100
0101010111111100
1001001100100100
0000000100100100
0001000111111100
1111110001000000
0010010001101000
0100010010110010
0010100010111110
0001000100100000
0010100100100010
1100011000011110