0001000111111100
0010000100100100
0111110111111100
0101010100100100
0101010111111100
0111110010101000
0101010111111100
0101010010101000
0111110010101000
0001000111111100
0010101000100000
0010110111111100
0100111100100000
0100100000100010
1000011111111110
0000000000000000