0001000000100000
1111111001000000
0001000011111100
0111110010010100
0000000010010100
1111111011111100
0000001010100100
0111110010100100
0001000011111100
1111111000100000
0000000001000100
1111111101101010
0000001001101110
1111111110100000
1010101010100010
1110011100011110