0100001000000100
0011111111011000
1000101010010000
0100111110011110
0010101010010100
0101111111010100
1000001000100100
0001111111110000
0001000100010000
0001111111110000
0001001000010000
0001111111110000
0000010010101000
0000100010111010
0011000010000010
1100000001111110