0000000000000000
0000000111111100
1111110000100000
0001000000100000
0001000000100000
0001000000100000
0111110000100000
0001001111111110
0001000000100000
0001000000100000
0001000000100000
0001110000100000
1110000000100000
0100000000100000
0000000000100000
0000000000100000