0000100000000000
0000100000000000
0001111111111100
0010000100000100
0100000100001000
0000100100100000
0001000100010000
0010010100001000
0000001000000000
0111111111111100
0000000100000000
0011111111111000
0000000100100000
0000000100010000
1111111111111110
0000000000000000