0000000000000000
0000000000000000
1111101111111100
0010000100000000
0010000100000000
0010000111110000
0010000100010000
1111100100010000
0010000110010000
0010001001010000
0010001001010000
0011101000010000
1110001000010010
0100001010010010
0000001100010010
0000001000001110