0000001000000000
0000001000000000
1111101000000000
0010001000011110
0010011111010010
0010001001010010
0010001001010010
1111101001010010
0010001001010010
0010001001010010
0010001001010010
0011101001010010
1110010001010010
0100010001011110
0000100101010010
0001000010000000