0000000000100000
0000000100100000
1111110100100000
0001000111111100
0001000100100000
0001001000100000
0111110000100000
0001001111111110
0001000010010000
0001000010010000
0001000010010000
0001110010010000
1110000100010010
0100000100010010
0000001000010010
0000010000001110