0000000010001000
0000000010001000
1111110010001000
0001000010001000
0001001111111110
0001000010001000
0001000010001000
0111110010001000
0001000010001000
0001011111111110
0001000000000000
0001000010001000
0001110010000100
1110000100000100
0100001000000010
0000010000000010