0000000000100000
0000000000100000
1111110111111110
0001000001000000
0001000001000000
0001000011111100
0111110010000100
0001000110000100
0001001011111100
0001000010000100
0001000010000100
0001110011111100
1110000010000100
0100000010000100
0000000010010100
0000000010001000