0000000000000000
0000011111111000
1111010000001000
0010010000001000
0010011111111000
0010010010001000
0010010010001000
1111010011101000
0010010100101000
0010010100101000
0010011010101000
0010010001001010
0011010001001010
1100100010001010
0000100100000110
0001001000000010