0000000000101000
0000000000100100
1111100000100100
0010000000100000
0010001111111110
0010001000100000
0010001000100100
1111101000100100
0010001000100100
0010001110101000
0010001000101000
0011101000010000
1110001000010010
0100010000101010
0000010001000110
0000100010000010