0000000001000000
0000000000100100
1111101000100100
0010000100001000
0010000100001000
0010000000010000
0010000001000000
1111100001000000
0010001111111110
0010000010001000
0010000100001000
0011100110010000
1110000001100000
0100000001010000
0000000110001000
0000011000000100