0000000000100000
0000000000010000
1111110111111110
0001000000000000
0001000000000000
0001000011111100
0001000000000000
0111110000000000
0001000011111100
0001000000000000
0001000000000000
0001000011111100
0001110010000100
1110000010000100
0100000011111100
0000000010000100