0000000001000000
0000000000100000
1111101111111110
0010001000000010
0010010000000100
0010000111111100
0010000000000000
1111100111111100
0010000100000100
0010000111111100
0010000100000100
0011100111111100
1110000100000100
0100000000000000
0000001111111110
0000000000000000