0000000100001000
0000000010001000
1111100010010000
0010011111111110
0010000000000000
0010001111000100
0010001001010100
1111101001010100
0010001111010100
0010001001010100
0010001001010100
0011101111010100
1110001001010100
0100001001000100
0000001001010100
0000001011001000