0000000000000000
0000000011111100
1111110010000100
0001000011111100
0001000010000100
0001000011111100
0001000000000000
0111110111111110
0001000010000000
0001000011111110
0001000100101010
0001001001001010
0001110010010010
1110000100100010
0100000001010100
0000000010001000