0000000000100000
0000000100100100
1111110010101000
0001000000100000
0001000111111100
0001000100000100
0111110100000100
0001000111111100
0001000100000100
0001000111111100
0001000100000100
0001110100000100
1110000111111100
0100000000000000
0000000010001000
0000000100000100