0000000001000000
0000000010000000
1111110111111100
0001001001001000
0001000100110000
0001000011000000
0001001100000000
0111110111111100
0001001000100000
0001000000100000
0001001111111110
0001000000100000
0001110100100100
1110000100100100
0100000111111100
0000000000000100