0000000000000000
0000000111111110
1111110100100000
0001000111111100
0001000100100000
0001000111111100
0111110100100000
0001000100100000
0001000111111110
0001000000000010
0001001010101010
0001111010101010
1110001010101010
0100001000000010
0000000000010100
0000000000001000