0000000000100000
0000000000100000
1111101111111110
0010000000100000
0010000111111100
0010000100000100
0010000111111100
1111100100000100
0010000111111100
0010000100000100
0010000111111100
0011100100000100
1110001111111110
0100000010001000
0000000100000100
0000001000000010