0000000010000100
0000000001000100
1111110001001000
0001000111111110
0001000000100000
0001000011111100
0111110000100000
0001000111111110
0001000001000000
0001000010000000
0001000011111110
0001110100010000
1110001000010000
0100010000010000
0000000111111110
0000000000000000