0000000000100000
0000001111111110
1111110000100000
0001000111111100
0001000100100100
0001000111111100
0001000100100100
0111110111111100
0001000000100010
0001001111111110
0001000000001000
0001001111111110
0001110100001000
1110000010001000
0100000000101000
0000000000010000