0000000100100100
0000000100100100
1111101000100100
0010010000100100
0010100101010100
0010000101001010
1111101010010010
0010011000010000
0010101000010000
0010001001010000
0010001001011100
0011101001010000
1110001001010000
0100001010110000
0000001010011110
0000001100000000