0000000010001000
0000000010001000
1111101111111110
0010000010001000
0010000011111000
0010000000100000
0010000111111100
1111100100100100
0010000111111100
0010000000100000
0010001111111110
0011100000100000
1110000111111100
0100000000100000
0000001111111110
0000000000000000