0000000000100000
0000001000100010
1111101111111110
0010000010010000
0010000010001000
0010000111111110
0010001100010000
1111110100010000
0010000111111110
0010000100010000
0010000100010000
0011100111111110
1110000100010000
0100000100010000
0000000111111110
0000000100000000