0000000000010000
0000011110010000
1111110010111100
0010010010100100
0010010011000100
0010011110101000
0010000100010000
1111100100101000
0010000101000110
0010010111000000
0010010100111100
0011110100100100
1110010100100100
0100010110100100
0000111000111100
0000000000100100