0000000000000000
0000001111111100
1111100000000100
0010001111111100
0010000000000100
0010001111111100
0010000000000000
1111101110111100
0010000100100100
0010011110111100
0010000000001000
0011101111111110
1110000100001000
0100000010001000
0000000010101000
0000000000010000