0010000111111000
0001000100001000
0100000111111000
0010000100001000
0000101111111110
0000100100000000
0111001111111100
0001010010100100
0001000101010100
0001001010001000
0000000000000000
0111111111111100
0000000100000000
0011111111111000
0000000100100000
1111111111111110