0000000000000000
0000001111111110
1111100001010000
0010001111011110
0010001001010010
0010001001010010
0010001111011110
1111100001010000
0010001111111110
0010001000100010
0010001000100010
0011101111111110
1110001000100010
0100001000100010
0000001111111110
0000001000000010