0000000000111100
0000001111000000
1111100001000100
0010001000100100
0010000100001000
0010011111111110
0010010001000010
1111101010100100
0010001010001010
0010010001111010
0010000010000000
0011100011111000
1110000100001000
0100001010010000
0000000001100000
0000011110011110