0000000000001000
0000011100111110
1111010110010000
0010010101011110
0010010101100100
0010011001011110
0010010100000000
1111010111011110
0010010101010010
0010010101011110
0010010101010010
0010011001011110
0011010001010010
1100010001010110
0000010010100000
0000010100011110