0000000100000100
0000010100010100
1111011111011110
0010100100100100
0010111111111111
0010000100001100
1111001101010101
0010110110100111
0010001111111100
0010001000000100
0010001000100100
0011101000100100
1110001001000100
0000000010110000
0000000100001000
0000011000000100