0000000000100000
0000001111111110
1111100000000000
0010000111011100
0010000101010100
0010000111011100
0010000010001000
1111101111111110
0010000010001000
0010001111111110
0010000010001000
0010011111111110
0011100010010100
1110000110001000
0000011010100100
0000000011000010