0001000000000000
0001000000000000
0001001111111000
0001000010001000
1111110010010000
0010010010010000
0010010010100000
0010010010111100
0010010010000100
0100100010000100
0010100100000100
0001000100000100
0010100100000100
0100011000000100
1000001000101000
0000010000010000