0000001000000000
0000000100000000
1111111111111110
0001000000000000
0001000000000000
0001111111111000
0000001000000000
0000001000000000
1111111111111110
0000010000100000
0000100000100000
0001111001000000
0000000110000000
0000011001100000
0001100000011000
0110000000000100