0000100001000000
0000100001000000
0000100001000000
0100100001000000
0010101111111110
0010100010001000
0000100010001000
0000100010001000
0001100010001000
0010100100001000
1100100010010000
0000100001010000
0000100000100000
0000100001010000
0000100010001000
0000101100000100