0001000000000000
0001001111111110
0001000010001000
0001000010001000
1111110010001000
0010010010001000
0010010010001000
0010011111111110
0010010010001000
0100100010001000
0010100010001000
0001000010001000
0010100010001000
0100010010001000
1000000100001000
0000001000001000