0001000000100000
0001000000100000
0001000001010000
0001000001010000
1111110010001000
0010010100000100
0010011000000010
0010010010001000
0010010010001000
0100100010001000
0010100010001000
0001000010001000
0010100010001000
0100010100001000
1000000100001000
0000001000001000