0001000000100000
0001000000100000
0001000000100000
0001000000100000
1111110111111110
0010010100100010
0010010100100010
0010010100100010
0010010101010010
0100100101001010
0010100110001010
0001000100000010
0010100100000010
0100010100000010
1000010100001010
0000000100000100