0000000011111100
0111111100000000
0000001000001000
0010000100001000
0001000100010000
0001000000100000
0000001000000000
0000001000000000
1111111111111110
0000010000100000
0000100000100000
0001111001000000
0000000110000000
0000011001100000
0001100000011000
0110000000000100