0001000000001000
0001000001001000
0001000100101000
0001000100101000
1111110100101000
0010010100001000
0010010100001000
0010010100001000
0010010100001000
0100100100001000
0010100101001000
0001000110010100
0010100100010100
0100010000100010
1000010001000010
0000000010000010