0001000000000000
0001000111011100
0001000101010100
0001000101010100
1111110101010100
0010010101010100
0010010101010100
0010011111111110
0010010101010100
0100100101010100
0010100101010100
0001000101010100
0010100101010100
0100011011010100
1000001000100100
0000010001001100