0001000000001000
0001000000111100
0001000111100000
0001000000100000
1111110000100000
0010011111111110
0010010000100000
0010010000100000
0010010000100000
0100100111111100
0010100100000100
0001000100000100
0010100100000100
0100010100000100
1000010111111100
0000000100000100