0001000000100000
0001000000100000
0001000001001000
0001000010000100
1111110111111110
0010010000000010
0010010000000000
0010010011111100
0010010010000100
0100100011111100
0010100010000100
0001000011111100
0010100010000100
0100010010000100
1000010010010100
0000000010001000