0010000001000000
0010000001000000
0010011111111100
0010000001000000
1111101111111000
0100100001001000
0100101111111000
0100101001000000
1000101111111100
0100100001000100
0011000001010100
0001000010101000
0010100010100000
0100100100010000
1000001000001000
0000010000000110