0000001000000000
0001111111110000
0000010000010000
0000100001010000
0001000000100000
0111111011111100
0001001000100100
0010101001010100
0100010010001000
0000010000000000
1111111111111110
0000100000100000
0001110001000000
0000001110000000
0000110001110000
0111000000001000