0001000000100000
0001000000100000
0001000001010000
0001000010001000
1111110100000100
0010011000000010
0010010111111100
0010010000000000
0010010000000000
0100100111111100
0010100100000100
0001000100000100
0010100100000100
0100010100000100
1000010111111100
0000000100000100