0001000010001000
0001000010001000
0001000010001000
0001000010001000
1111110111111110
0010010010001000
0010010010001000
0010010010001000
0010010010001000
0100101111111110
0010100000000000
0001000010001000
0010100010000100
0100010100000100
1000001000000010
0000010000000010