0010000000000000
0010001111111100
0010000010010000
0010000010010000
1111100010010000
0100100010010010
0100110010010010
0100101010010100
1000101010010100
0100101010011000
0011000010010000
0001000010010000
0010100010010000
0100100010010000
1000011111111110
0000000000000000