0010000000000000
0010000011111000
0010000010001000
0010000010001000
1111101011111000
0100101000000000
0100101000000000
0100101111111100
1000100001000100
0100100001000100
0011011111111110
0001000001000000
0010100010100000
0100100100010000
1000001000001000
0000010000000110