0010000000000000
0010111111011110
0010001001010010
0010001001010010
1111001001010100
0101011111010100
0101001001011000
0101001001010100
0101001001010010
1001111111010010
0101001001010010
0010001001011010
0010001001010100
0101010001010000
0101010101010000
1000100010010000