0001000000000000
0001001111111110
0001000000010000
0001000000100000
1111110001101000
0010010010100100
0010011100100010
0010010000100000
0010010000000000
0100100111111100
0010100100000100
0001000100000100
0010100100000100
0100010100000100
1000010111111100
0000000100000100