0001000000100000
0001000000100000
0001000001010000
0001000010001000
1111110101000100
0010011000100010
0010010011111000
0010010000001000
0010010000010000
0100100000100000
0010100111111100
0001000100000100
0010100100000100
0100010100000100
1000010111111100
0000000100000100