0001000000000000
0001000111111100
0001000100000100
0001000111111100
1111110100000100
0010010111111100
0010010000000000
0010010000000000
0010010111111100
0100100000100000
0010100000100000
0001001111111110
0010100000100000
0100010000100000
1000010000100000
0000000000100000