0010000000000000
0010001111011110
0010000001000010
0010000101001010
1111100010000100
0100100101001010
0100101001010010
0100110000100000
1000100000000000
0100101111011110
0011000001010010
0001000101010010
0010100010010100
0100100101001000
1000001001010100
0000010000100010