0010000000100000
0010000000100000
0010000111111100
0010000000100000
1111100000100000
0100101111111110
0100100010001000
0100100101000100
1000101001000010
0100100011111000
0011000110001000
0001001001010000
0010100000100000
0100100001010000
1000000110001000
0000011000000110