0010000001000000
0010000000100000
0010001111111110
0010001000000010
1111110100000100
0100100100000000
0100100111011110
0100101001010010
1000101001010010
0100101101010010
0011010010011010
0001000010010100
0010100100010000
0100100100010010
1000001000010010
0000010000001110