0001000000100000
0001000000100000
0001001111111110
0001000000100000
1111110000100000
0010010111111100
0010010000100000
0010010000100000
0010011111111110
0100100001000000
0010100010100100
0001000110101000
0010101010010000
0100010010001000
1000010011000110
0000000010000000