0001000000100000
0001000000100000
0001000000111110
0001000000100000
1111110111111110
0010010100100010
0010010100111000
0010010111100000
0010010100100010
0100100100011110
0010100100000000
0001000101111000
0010101001001000
0100011001001010
1000010010001010
0000100100000110