0010000000000000
0010001111111110
0010001000100010
0010001000100010
1111101111111110
0100101000100010
0100101000100010
0100101011111010
0100101010001010
1001001010001010
0101001010001010
0010001011111010
0011001010001010
0100101000000010
0100101111111110
1000001000000010