0001000001000000
0001000010000000
0001000111111100
0001000100100100
1111110100100100
0010010111111100
0010010100100100
0010010101000100
0010010111111100
0100100010010000
0010100100010000
0001001111111110
0010100000010000
0100010000010000
1000010000010000
0000000000010000