0010000000000000
0010000111111100
0010000000000100
0010000011111100
1111100000000100
0100100111111100
0100100000000000
0100101111111110
0100101000100010
1001000000100000
0101000111111100
0010000100100100
0011000100100100
0100100100110100
0100100100101000
1000000000100000