0001000000100000
0001000000100000
0001001111111110
0001000000100000
1111110111111100
0010010000100000
0010011111111110
0010010000000000
0010010111111100
0100100100000100
0010100111111100
0001000100000100
0010100111111100
0100010100000100
1000010100010100
0000000100001000