0010000000000000
0010001111011110
0010001001000010
0010001001000010
1111101001000010
0100101111011110
0100101000000000
0100101000111110
0100101111010010
1001001000010010
0101001000010100
0010001111010100
0011001000001000
0100101000010100
0100101000100100
1000001001000010