0010000001000000
0010000001000000
0010000111111100
0010000010000100
1111101111111110
0100100000000000
0100100111111100
0100100100000100
0100100111111100
1001000000100000
0101001111111110
0010000000100000
0011001000100000
0100101111111110
0100100000100000
1000000000100000