0001000100000100
0001000010001000
0001001111111110
0001000000100000
1111110000100000
0010010111111100
0010010000100000
0010010000100000
0010011111111110
0100100000000000
0010100000100000
0001001111111110
0010100000100000
0100010001010000
1000000010001000
0000001100000110