0001000000100000
0001000001010000
0001000010001000
0001000100000100
1111111011111010
0010010000000000
0010010111111100
0010010100000100
0010010100000100
0100100111111100
0010100010001000
0001000010001000
0010101111111110
0100010010001000
1000000100001000
0000001000001000