0010000100010000
0010000100010000
0010011111111100
0010000100010000
1111100101010000
0100100001000000
0100101111111000
0100101001001000
1000101001001000
0100101001001000
0011011111111110
0001000001000000
0010100010100000
0100100100010000
1000001000001000
0000010000000110