0010000000111100
0010011111000000
0010001001000100
0010000100101000
1111100000000000
0100101111111100
0100100010000000
0100100010000000
0100111111111110
1001000100000000
0101000111111000
0010001010001000
0011001001010000
0100110000100000
0100100011011000
1000001100000110