0001000001111000
0011111001001000
0010001001001000
0010101010000110
1111111101111000
0010001001001000
0010101000101000
0100001000010000
0100101000101000
1000010011000110
0000001000000000
1111111111111110
0000100000100000
0001110001000000
0000001111000000
0011110000111000