0001000000000000
0001000011111000
0001000010101000
0001000010101000
1111110011011000
0010010010001000
0010010011111000
0010010000000000
0010010000000000
0100100111111100
0010100101010100
0001000101010100
0010100101010100
0100010101010100
1000001111111110
0000000000000000