0001000010100000
0001000100101100
0001000100100100
0001000100100100
1111110110101100
0010010100100100
0010010100100100
0010010111111100
0010010000100000
0100100111111100
0010100010001000
0001000001010000
0010100000100000
0100010001010000
1000000010001000
0000001100000110