0010000000001000
0010011111001000
0010010101001000
0010010101001000
1111011111111110
0101010101010100
0101010101010100
0101011111010100
0101001000010100
1001001000100100
0101011111010100
0010001001001000
0010001001001000
0101001001010100
0101010101010100
1000100010100000