0010000000001110
0010001111110000
0010000001000100
0010001000100100
1111100100001000
0100101111111110
0100101001000010
0100100001000000
0100101111111110
1001000010000000
0101000011111100
0010000101000100
0011000100101000
0100101000010000
0100110001101000
1000000110000110