0010000000000000
0010001111111110
0010001001001000
0010001001001000
1111101111111110
0100101001001000
0100101000100000
0100101111111110
0100101001000000
1001001011111100
0101001101000100
0010001001000100
0011001001111100
0100101000000000
0100101111111110
1000000000000000