0001000000100000
0001001111111110
0001000000100000
0001000111111100
1111110100100100
0010010111111100
0010010100100100
0010010111111100
0010010000100010
0100101111111110
0010100000001000
0001001111111110
0010100100001000
0100010010001000
1000010000101000
0000000000010000