0001000010001000
0001000010001000
0001001111111110
0001000010001000
1111110011111000
0010010000100000
0010010111111100
0010010100100100
0010010111111100
0100100000100000
0010100111111100
0001000000100000
0010101111111110
0100010001010000
1000000010001000
0000001100000110