0010000001000000
0010000000100000
0010011111111110
0010010010010000
1111010010010000
0101010010010000
0101011111111100
0101010010010000
0101010011011000
1001010110111000
0101010110110100
0010011011010100
0010100010010010
0101100010010000
0101000010010000
1000000010010000