0000100000100000
0100100100100000
0010101000111110
0111111101001000
0100100101001000
0101110110101000
0110101100010000
0100100100101000
0100000101000110
0000010000000000
1111111111111110
0000100000100000
0001110001000000
0000001110000000
0000110001110000
0111000000001000