0010000000000000
0010000111111100
0010000100100100
0010000110101100
1111100101110100
0100100100100100
0100100111111100
0100100000100000
1000100111111100
0100100000100000
0011001111111110
0001000000000000
0010101010100100
0100101001010010
1000010001010010
0000000000000000