0010000010001000
0010010001001000
0010001001010000
0010000011111100
1111100000100000
0100100001010000
0100111010010100
0100101000111000
1000101001010000
0100101010011000
0011001000110100
0001001001010100
0010101010010000
0100101000100000
1000010111111110
0000100000000000