0010000010000000
0010001111111000
0010001000001000
0010001111111000
1111101000001000
0100101111111000
0100101000000000
0100101111111100
1000101000000000
0100101111111100
0011000001000100
0001001111111100
0010100010100000
0100100110010100
1000011011001000
0000000010000110