0010000000111100
0010001111000000
0010000001000100
0010001000100100
1111000100001000
0101011111111110
0101010001000010
0101001010100100
0101001010001010
1001010001111010
0101000010000000
0010000011111000
0010000100001000
0101001010010000
0101000001100000
1000011110011110