0010000101000000
0010001001001100
0010001001100100
0010001001000100
1111101101001100
0100101001100100
0100101010100100
0100101110101100
1000101010100100
0100101010100100
0011011111111110
0001000000000000
0010100100010000
0100100100001000
1000001000000100
0000010000000100