0010000010001000
0010001010101010
0010001011011100
0010010010001000
1111100101010100
0100101000100010
0100100000000000
0100101111111110
1000101000100010
0100100000100000
0011001111111110
0001000001110000
0010100010101000
0100100100100100
1000011000100010
0000000000100000