0011111011111000
0010001010001000
0011111011111000
0010001010001000
0011111011111000
0010001010001000
0011111011111000
0001010001010000
0010001010001000
0000010000000000
1111111111111110
0000100000100000
0001110001000000
0000001110000000
0000110001110000
0111000000001000