0010000100001000
0010000100010000
0010001000111110
0010001000100010
1111010010111110
0101011100100010
0101000100111110
0101001000001000
0101010010111110
1001011110101010
0101000000101010
0010000010101010
0010010101101010
0101010100101110
0101010000001000
1000000000001000