0010001111111110
0010001001001000
0010001111111110
0010001001001000
1111101000100000
0100101111111110
0100101001000000
0100101011111100
1000101101000100
0100101001111100
0011001000000000
0001001111111110
0010100001000000
0100101010100100
1000001010001010
0000010001111010