0010001000000010
0010010111100010
0010010010100010
0010011010101010
1111010100101010
0101011001101010
0101000100001010
0101001010001010
0101010001001010
1001101110101010
0101000100001010
0010011111001010
0010000100100010
0101010101000010
0101000111101010
1000111000000100