0010000101001000
0010000101001100
0010001010101010
0010000000001000
1111011111111110
0101000101001000
0101001101101000
0101000101001010
0101001101101010
1001000101001100
0101001101101100
0010000101001000
0010000101101010
0101001110011010
0101000000100110
1000000001000010