0000000000000000
0000000111111000
1111110100001000
0000010100001000
0100010111111000
0100010100001000
0010100100001000
0010100111111000
0001000101000100
0001000101001000
0010100100110000
0010100100100000
0100010100010000
0100010101001000
1000000110000110
0000000100000000