0000000000010000
0011110001010000
0010010001010000
0010010001010000
0010010010001000
0011110010001000
0010010100000100
0010011011111010
0010010001001000
0011110001001000
0010010001001000
0010010001001000
0010010010001000
0100010010001000
0101010100101000
1000101000010000