0000000000100000
0011110000100000
0010010000100000
0010010111111100
0010010100100100
0011110100100100
0010010101010100
0010010110001100
0010010100100100
0011110100100100
0010010101010100
0010010110001100
0010010100000100
0100010100000100
0101010100010100
1000100100001000