0000000010001000
0011110001001000
0010010001010000
0010010000000000
0010010111111100
0011110000100000
0010010000100000
0010010000100000
0010011111111110
0011110000100000
0010010001010000
0010010001010000
0010010010001000
0100010010001000
0101010100000100
1000101000000010