0000000001000000
0111100001000000
0100100010001000
0100100100000100
0100101111111110
0111100000000010
0100100010001000
0100100101000100
0100101001000010
0111100011111000
0100100110001000
0100101001010000
0100100000100000
0100100001010000
0100100110001000
1001111000000110