0000000000001000
1111111000011100
0010100011110000
0010100000010000
1111111000010000
1010101000011100
1010101011110000
1010101000010000
1010111000010000
1100001000011110
1000001011110000
1111111000010000
1000001000010010
1000001000010010
1111111000010010
1000001000001110