0000000000000000
1111111011111110
0010100010000010
0010100010000010
1111111010111010
1010101010000010
1010101010000010
1010101010111010
1010111010101010
1100001010101010
1000001010101010
1111111010111010
1000001010000010
1000001010000010
1111111010001010
1000001010000100