0000000000100000
1111111000100010
0010100111111010
0010100000100100
1111111000100100
1010101111111110
1010101000010000
1010101000100000
1010111111111100
1100001010001000
1000001100010000
1111111011111110
1000001000010000
1000001000010000
1111111001010000
1000001000100000