0000000000010000
1111111001010000
0010100001010000
0010100001111100
1111111001010000
1010101010010000
1010101000010000
1010101011111110
1010111000000000
1100001000000000
1000001001111100
1111111001000100
1000001001000100
1000001001000100
1111111001111100
1000001001000100