0000000000000000
1111111011111110
0010100000101000
0010100010101010
1111111001101100
1010101000101000
1010101011111110
1010101010000000
1010111010000000
1100001010000000
1000001010000000
1111111010000000
1000001010000000
1000001100000000
1111111100000000
1000001000000000