0000000000101000
1111111000100100
0010100000101110
0010100011110000
1111111000101000
1010101000010010
1010101000101010
1010101011010110
1010111000101000
1100001000101110
1000001011110000
1111111000100100
1000001000101000
1000001000010010
1111111000101010
1000001011000110