0000000000010000
1111111000010000
0010100011111110
0010100010010010
1111111010010010
1010101000101000
1010101000101000
1010101001001010
1010111010000110
1100001100000000
1000001011111110
1111111010101010
1000001010101010
1000001010101010
1111111010101010
1000001111111110