0000000001010000
1111111010010110
0010100010010010
0010100010010010
1111111011010110
1010101010010010
1010101010010010
1010101011111110
1010111000010000
1100001011111100
1000001001000100
1111111001000100
1000001000101000
1000001000010000
1111111000101000
1000001011000110