0000000000010000
1111111000010000
0010100000101000
0010100001000100
1111111010000010
1010101001111100
1010101000000000
1010101011101110
1010111010101010
1100001010101010
1000001011101110
1111111001000100
1000001001000100
1000001010101010
1111111010101010
1000001100010010