0000000000000000
1111111001111100
0010100000010000
0010100011111110
1111111010010010
1010101001010100
1010101000010000
1010101001010100
1010111000000000
1100001011111110
1000001000010000
1111111011111110
1000001010101010
1000001010101010
1111111010101010
1000001010000110