0000000000010000
1111111011111110
0010100000000000
0010100011101110
1111111010101010
1010101011101110
1010101001000100
1010101011111110
1010111001000100
1100001011111110
1000001001000100
1111111011111110
1000001001010000
1000001011001010
1111111101100100
1000001001000010