0000001111011110
1111100000000000
0010001111011110
0010001001010010
1111101101011010
1010101001010010
1010100000100000
1010101111111110
1101101001010000
1000101111111110
1000101001010010
1111101111111110
1000101010010010
1000101011011100
1111101010010010
1000110011001110