0000001111011110
1111101001010010
0010001111011110
0010000000000000
1111101111111110
1010101000000000
1010101011001000
1010101001001110
1101101111101010
1000101010110010
1000101011101010
1111101010101010
1000101011101010
1000101010110100
1111110111100100
1000100000101010