0000001000000000
0000001000000000
0000001000000000
1111111111111110
0000010000000000
0000010000000000
0000010001000000
0000100001000000
0000100010000000
0001000010000000
0001000100000000
0010001000010000
0100010000001000
1000111111111100
0000010000000100
0000000000000100