0000001000000000
0000001000000000
0011111111100000
0000001000100000
0000001000100000
0000010000100000
0000010000100010
0000100000100010
0011000100011110
1100000100000000
0000001000000000
0000010000100000
0000100000010000
0001000000001000
0011111111111100
0001000000000100