0000010000000000
0000100000100000
0001111111110000
0001000000100000
0010010001001000
0111111011111100
0000000100000000
0000011011000000
0001100010110000
1110001100001110
0000110001000000
0011000110010000
0000011000100000
0011100011000000
0000011100000000
0111100000000000