0000010000000000
0000100000100000
0001111111110000
0001000000100000
0010010001001000
0111111011111100
0000000100000000
0000011011000000
0001100000110000
1110001000001110
0000001000100000
0001001010010000
0001001001001000
0010001001001000
0000101000000000
0000010000000000