0000000000100000
1111111000100000
0000100011111010
0001000000100100
0011000000101000
0100101111111110
1001110000100000
0010100001000000
0100110011111100
1001101101000100
0010101001000100
0100100001111100
1000100001000100
0000100001000100
0010100001111100
0001000001000100