0000000000100000
1111110111111100
0001000000100000
0010000010001000
0110001111111110
1001010010001000
0011100000000000
0101000111111100
1001100100000100
0011010100100100
0101010100100100
1001000100100100
0001000100100100
0001000001010000
0101000010001000
0010001100000100