0000000000000000
1111110011111000
0001000010001000
0010000010001000
0110000011111000
1001010010001000
0011100010001000
0101000011111000
1001100000000000
0011010111111100
0101010101010100
1001000101010100
0001000101010100
0001000101010100
0101001111111110
0010000000000000