0000000001000000
0000000001010000
0011111101001000
0000000001001000
0000000001000000
1111111111111110
0000000001000000
0000010001000000
0000010001000000
0010011101000000
0010010000100000
0010010000100010
0010010000010010
0010011110001010
1111100000000110
0100000000000010