0000000100000000
0001000111111000
0001000100000000
0001000100000000
1111111111111110
0000000100000000
0000001000000000
0001111111110000
0001000000010000
0001001000010000
0001000100010000
1111111111111110
0001001000010000
0010000100010000
0100000001010000
1000000000100000