0000000010000000
0000100011111100
0000100010000000
0000100010000000
0111111111111110
0000000000101000
0000000000100100
0011111111111110
0010000000100000
0010111110100100
0010001000100100
0010101100011000
0010101010010010
0101001010101010
0100101001000110
1000010010000010