0001000000100000
0001000111111110
0001000000100000
0001000111111100
0101000000100000
0101110111111110
0101000000000000
0101000111111100
0101000100000100
0101000111111100
0101000100000100
0101110111111100
0111000100000100
1100000111111100
0000000010001000
0000000100000100