0010000000000100
0001000000000100
0001000010000100
1111111010000100
0000000010000100
0111110010000100
0000000010000100
0111110010000100
0000000010001100
0111110010010100
0100010011100100
0100010010000100
0100010000000100
0111110000000100
0100010000000100
0000000000000100