0010000001000000
0001000001000000
0001000001000000
1111111011111100
0000000010000100
0111110100000100
0000000000000100
0111110100000100
0000000010000100
0111110001000100
0100010001000100
0100010000000100
0100010000000100
0111110000000100
0100010000101000
0000000000010000