0010000000000000
0001000111111000
0001000010001000
1111111011001000
0000000010101000
0111110010101000
0000000010001000
0111110001010000
0000000001010000
0111110001010000
0100010000100000
0100010000100000
0100010001010000
0111110010001000
0100010100000100
0000001000000010