0000000100000000
0010000100001000
0010000100001000
0011111111111000
0000001000000000
0000000100000000
1111111111111110
0000000000000000
0011111111111000
0000000000000000
0011111111111000
0000000000000000
0011111111111000
0010000000001000
0011111111111000
0010000000001000