0010000000010000
0001000001010000
0001000001010000
1111111001010000
0000000010001000
0111110010001000
0000000100000100
0111111011111010
0000000001001000
0111110001001000
0100010001001000
0100010001001000
0100010010001000
0111110010001000
0100010100101000
0000001000010000