0010000000100000
0001000000100000
0001000000100000
1111110111111100
0000000000100100
0111110000100100
0000000000100100
0111110000100100
0000001111111110
0111110000100000
0100010001010000
0100010001010000
0100010010001000
0111110010001000
0100010100000100
0000001000000010