0010000000000000
0001000000000000
0001000011111100
1111111010000100
0000000010000100
0111110010000100
0000000011111100
0111110010000100
0000000010000100
0111110010000100
0100010011111100
0100010010000100
0100010000000000
0111110000000000
0100010111111110
0000000000000000