0010000001000000
0001000000100000
0000000000010000
1111110111100000
0000000000100010
0111100000110100
0000001110111000
0111100010110000
0000000010101000
0111100010101000
0100100100101000
0100100100100100
0100101000100100
0111110000100010
0100100010100000
0000000001000000