0010000010000000
0001000010000000
0000000111111100
1111110100000100
0000001000000100
0111100111100100
0000000100100100
0111100100100100
0000000111100100
0111100100100100
0100100100100100
0100100111100100
0100100100000100
0111100000000100
0100100000101000
0000000000010000