0010000000010000
0001000100010000
0001000100010000
1111111100101000
0000000101000100
0111110100000000
0000000111111110
0111110000000000
0000000010101000
0111110010101000
0100010010101000
0100010010101000
0100010010101000
0111110010101010
0100010100101010
0000001000000110