0010000100000100
0001000010000100
0000000010001000
1111110000000000
0000000111111110
0111100010001000
0000000010001000
0111100010001000
0000000010001000
0111101111111110
0100100010001000
0100100010001000
0100100100001000
0111100100001000
0100101000001000
0000010000001000