0010000000000000
0001000111111100
0000000000000100
1111110011111100
0000000000000100
0111100111111100
0000000000000000
0111101111111110
0000001000000010
0111100111111000
0100100010001000
0100100010001000
0100100001010000
0111100000100000
0100100011011000
0000001100000110