0010000000000000
0001000111111000
0000000100001000
1111110100001000
0000000111111000
0111100100001000
0000000100001000
0111100111111000
0000000100001000
0111100100001000
0100100111111000
0100100010010000
0100100010010000
0111100100010010
0100101000010010
0000010000001110