0010000000100000
0001000000100000
0000001111111110
1111110000100000
0000000111111100
0111100000100100
0000001111111110
0111100000100100
0000000111111100
0111100000100000
0100100100100000
0100100100111110
0100100100100000
0111101010100000
0100101001111110
0000010000000000