0010000110000100
0001000001101000
0000000000110000
1111110011001000
0000001100100100
0111100000100000
0000001111111110
0111100001000000
0000000011111100
0111100110000100
0100101011111100
0100100010000100
0100100011111100
0111100010000100
0100100010010100
0000000010001000