0010000000000000
0001000001000000
0000001110011100
1111101000000100
0000001000000100
0111101110011100
0000001000000100
0111101000000100
0000001111111100
0111100010010000
0100100010010000
0100100010010000
0100100010010000
0111100100010010
0100101000010010
0000010000001110