0010000000011100
0001000111100000
0000000000100000
1111110000100000
0000001111111110
0111100010101000
0000000100100100
0111101001000010
0000000001000000
0111101111111110
0100100010001000
0100100100001000
0100100011010000
0111100000110000
0100100001001000
0000000110000100