0010000000000000
0001011111100000
0000001001011110
1111101001010010
0000001001010010
0111101111010010
0000001001010010
0111101001010100
0000001111010100
0111101001010100
0100101001001000
0100101011101000
0100111101010100
0111100001010100
0100100001100010
0000000001000000