0010000000100000
0001000000100000
0000000010100000
1111110100101100
0000000100100100
0111100100100100
0000000110101100
0111100100100100
0000000100100100
0111100111111100
0100100100100100
0100100001010000
0100100001010000
0111100010001000
0100100100000100
0000001000000010