0010000000000000
0001000111111100
0000000100100100
1111110100100100
0000000111111100
0111100100100100
0000000100100100
0111100111111100
0000000000000000
0111100001000000
0100100000100100
0100101010100010
0100101010001010
0111110010001000
0100100001111000
0000000000000000