0010000000001000
0001000000001100
0000000000001010
1111101111111110
0000001000001000
0111101000001000
0000001011101000
0111101000001010
0000001000001010
0111101011101100
0100101010101100
0100101010101000
0100101011101010
0111101000011010
0100101000100110
0000010001000010