0010000000111100
0001001111000000
0000000001000100
1111101000100100
0000000100101000
0111100100000000
0000000001000000
0111101110011100
0000001000000100
0111101000000100
0100101110011100
0100101000000100
0100101000000100
0111101000000100
0100101111111100
0000001000000100