0010000000001000
0001000000111100
0000001111000000
1111100000000100
0000001001000100
0111100100101000
0000000111111100
0111101000100000
0000000000100000
0111101111111110
0100100000100000
0100100100100100
0100100100100100
0111100100100100
0100100111111100
0000000000000100