0010000001000000
0001000000100000
0000001111111110
1111110010001000
0000000001010000
0111101111111110
0000001000100010
0111101011111010
0000001000100010
0111101011111010
0100101010001010
0100101010001010
0100101011111010
0111101000000010
0100101000001010
0000001000000100