0010000000100000
0001000000111100
0000000000100000
1111110111111110
0000000100100010
0111100100111000
0000000111100100
0111100100011100
0000000100000000
0111100101111100
0100100101000100
0100100101111100
0100100101000100
0111100101111100
0100100101000100
0000001011111110