0010000010001000
0001000010001000
0000001111111110
1111110010001000
0000000011111000
0111100000100000
0000000111111100
0111100100100100
0000000111111100
0111100000100000
0100101111111110
0100100000100000
0100100111111100
0111100000100000
0100101111111110
0000000000000000