0100000000010000
0010000110010000
0000011000011110
1111101000100010
0000001001010100
0111001000001000
0000111110010000
0111001001100100
0000001000001000
0111011100011110
0101101010100010
0101001001000010
0101001000010100
0111001000001000
0101001000010000
0000001001100000