0010000000001000
0001001110001000
0000000010001000
1111100100010000
0000011111011110
0111101010010100
0000001010100100
0111101110010100
0000001010010100
0111101110010100
0100101010010100
0100101011001000
0100101110001000
0111111010010100
0100100010100100
0000000011000010