0010000000100000
0001000000100000
0000000111111100
1111110000100000
0000001111111110
0111100100001000
0000001110011100
0111100100001000
0000000110001000
0111111000111110
0100100000000000
0100101111111110
0100100010010000
0111100010010000
0100100100010010
0000001000001110