0010001000010000
0001001000010000
0000001111011110
1111101000101000
0000010101000100
0111100010100000
0000000100010000
0111101000001000
0000010111110110
0111100000000000
0100100000000000
0100101111111000
0100101000001000
0111101000001000
0100101111111000
0000001000001000