0100000000000000
0010011111111100
0000010010100100
1111110010100100
0000011110111100
0111000010100000
0000011110111100
0111010010100100
0000010010100100
0111011110111100
0101010010100100
0101010010100100
0101011110111100
0111010010100010
0101000010100010
0000000001111110