0010000011111000
0001000010001000
0000000010001000
1111110011111000
0000000000000000
0111100111011100
0000000101010100
0111100101010100
0000000111011100
0111100000100000
0100101111111110
0100100001110000
0100100010101000
0111100100100100
0100101000100010
0000000000100000