0010000001000100
0001001000100100
0000000100101000
1111110001111110
0000000000010000
0111100000101000
0000001101001010
0111100100011100
0000000100101000
0111100101001100
0100100100011010
0100100100101010
0100100101001000
0111100100010000
0100101011111110
0000010000000000