0010000000100000
0001000001010000
0001000010001000
1111110101110100
0000001000000010
0111110111111100
0000000100100100
0111110110101100
0000000100100100
0111110111111100
0100010000000000
0100010011111000
0100010010001000
0111110011111000
0100010010001000
0000000011111000