0010000000000000
0001000111111100
0000000101010100
1111110111111100
0000000000100000
0111100111111100
0000000000100000
0111101111111110
0000000010001000
0111100001010000
0100100111111100
0100100000100000
0100101111111110
0111100000100000
0100100000100000
0000000000100000