0010000000010000
0001000001111100
0000001001010100
1111110101111100
0000000100010000
0111100011111110
0000000000000000
0111101101111100
0000000101000100
0111100101111100
0100100101000000
0100100101111100
0100100101000100
0111100101111100
0100101010000000
0000010001111110