0100000101000100
0010000101000100
0000010101010100
1111101101100100
0000000101011110
0111011111100100
0000000000000100
0111001000110100
0000000101001100
0111011111100100
0101000010000100
0101001111100100
0101000010000100
0111000011100100
0101011100010100
0000000000001000