1000001111111000
0100001001001000
0000001001001000
1110001111111000
0000001001001000
1110001001001000
0000001111111000
1110000000000000
0000111110111110
1110101010101010
1010101010101010
1010111110111110
1010101010101010
1110101010101010
1010111110111110
0000100010100010