0010000000100000
0001001111111110
0000000000000000
1111110111011100
0000000101010100
0111100111011100
0000000010001000
0111101111111110
0000000010001000
0111101111111110
0100100010001000
0100101111111110
0100100010010100
0111100110001000
0100101010100100
0000000011000010