0100001001001000
0010000101010000
0000011111111100
1111010000000100
0000000111110000
0111000100010000
0000011111111100
0111010101010100
0000010011100100
0111011111111100
0101000001000000
0101011111111100
0101000001000000
0111111111111110
0101001010100100
0000010001010010