0000000010000000
0010000010000000
0001000010000000
0001000010000000
0000000010000000
0000000010100000
1111000010010000
0001000010001000
0001000010000100
0001000010000100
0001000010000000
0001000010000000
0001010010000000
0001100010000000
0001000010000000
0000000010000000