0000000000000000
0010000111110000
0001000100010000
0001000100010000
0000000100010000
0000000100010000
1111000100010000
0001000100010000
0001000100010000
0001000100010000
0001000100010000
0001010100010010
0001100100010010
0001001000010010
0000001000001110
0000010000000000