0000000000000000
0010000000000000
0001001111111100
0001000001000000
0000000001000000
0000000001000000
1111000001000000
0001000001000000
0001011111111110
0001000001000000
0001000001000000
0001000001000000
0001010001000000
0001100001000000
0001000001000000
0000000001000000