0000000000010000
0010000000010000
0001000000010000
0001000000010000
0000001111111110
0000000000010000
1111000000010000
0001000000010000
0001000100010000
0001000010010000
0001000010010000
0001000000010000
0001010000010000
0001100000010000
0001000001010000
0000000000100000