0000000100000100
0010000100100100
0001000100100100
0001000100100100
0000000100100100
0000000100100100
1111000100100100
0001000100100100
0001000100100100
0001000100100100
0001000100100100
0001010100100100
0001100100100100
0001001000100100
0000001000000100
0000010000000100