0000000010000000
0010000001001000
0001001001001000
0001001000001000
0000001000001000
0000000100010000
1111000100010000
0001000100010000
0001000010100000
0001000010100000
0001000001000000
0001010001000000
0001100010100000
0001000100010000
0000001000001000
0000110000000110