0000000000000000
0010000000000000
0001011111111110
0001000000001000
0000000000001000
0000001111001000
1111001001001000
0001001001001000
0001001001001000
0001001001001000
0001001111001000
0001001001001000
0001010000001000
0001100000001000
0001000000101000
0000000000010000