0000000000100000
0010000000100000
0001000111111100
0001000000100000
0000000000100000
0000000000100000
1111001111111110
0001000000000000
0001000000100000
0001000000100000
0001000111111100
0001000000100000
0001010000100000
0001100000100000
0001001111111110
0000000000000000