0000000100000000
0100000100000000
0010001111111000
0010001000001000
0000010000010000
0000101111111110
1110001000000000
0010001011111000
0010001010001000
0010001010001000
0010001010101000
0010001010010000
0010101010000010
0011010010000010
0010010001111110
0000100000000000