0000000100000000
0010000100000100
0001000100111000
0001000111000000
0000000100000010
0000000100000010
1111000011111110
0001000000000000
0001000111111100
0001000100000100
0001000100000100
0001010111111100
0001100100000100
0001000100000100
0000000111111100
0000000100000100