0000000010000000
0100000001000000
0010011111111100
0010000000000000
0000000100010000
0000000100010000
1110001010101000
0010010001000100
0010000000000000
0010000001000000
0010011111111110
0010000001000000
0010100001000000
0011000001000000
0010000001000000
0000000001000000