0000000010010000
0100001010010000
0010001010010000
0010011111111110
0000001010010000
0000001010010000
1110001011110000
0010001000000000
0010001111111100
0010000001000000
0010011111111110
0010000011100000
0010100101010000
0011001001001000
0010110001000110
0000000001000000