0000001000100000
0010001000100100
0001001110101000
0001001000110000
0000001010100010
0000001100100010
1111001001011110
0001000010000000
0001001111111100
0001001000000100
0001001000000100
0001001111111100
0001011000000100
0001101000000100
0001001111111100
0000001000000100