0000000001000000
0010001001000000
0001000101111100
0001000010000100
0000000100001000
0000011000100000
1111001000100000
0001001001010000
0001001010001000
0001000100000110
0001000111111000
0001000100001000
0001010100001000
0001100100001000
0001000111111000
0000000100001000