0000000001000000
0100001001001000
0010000101010000
0010000001000000
0000011111111110
0000010000000010
1110100000000100
0010001111111000
0010001000001000
0010001000001000
0010001111111000
0010000010100000
0010100100100000
0011000100100100
0010001000100100
0000010000011100