0000001000001000
0100000100010000
0010011111111100
0010000010100000
0000010010100100
0000001010101000
1110111111111110
0010000000000000
0010001111111000
0010001000001000
0010001000001000
0010001111111000
0010101000001000
0011001000001000
0010001111111000
0000001000001000