0000100000000000
0000111111110000
0001000000010000
0001111111100000
0000000000100000
1111111111111110
0000001000000000
0100001000010000
0100001111010010
0111010100010100
0100000100011000
0100111111010000
0100000100010010
0110001010010010
0100010001001110
0000100000100000