0000100000000000
0000111111100000
0001000000100000
0001111111000000
0000000001000000
1111111111111110
1001001000100100
0101010001111000
1111111000010010
0011100011111110
0101010001010100
1001001010010010
0000100000100000
1111111111111110
0000100000100000
0001000000100000