0000000100000000
0000001010000000
0000110001100000
0011000100011000
1100111111100110
0000010001000000
0001001110010000
0001010001010000
0001111111110000
0000000100000000
0111111111111100
0100001000000100
0100010001000100
0100111111100100
0100010000100100
0100000000001100