0000100000001000
0100100000011100
0100100111100000
0100100100000000
0100100100000000
0111110111111100
0100000101000100
0100000101000100
0111100101000100
0100100100101000
0100100100101000
0100100100010000
0100100100010000
0100101000101000
0100101001000100
1000110010000010