0000100000100000
0100100000010000
0100100111111110
0100100010000100
0100100001001000
0111110111111110
0100000100000010
0100001000100100
0111100000010000
0100100111111110
0100100001000000
0100100001111100
0100100001000100
0100100010000100
0100100010010100
1000100100001000