0000000000000000
0111111111111100
0100000000000100
0100000000000100
0100000000000100
0100000000000100
0100000000000100
0100000000000100
0100000000000100
0100000000000100
0100000000000100
0100000000000100
0100000000000100
0100000000000100
0100000000010100
0100000000001000