0000000000000000
0111111111111110
0100000000000010
1000000100000100
0001000100010000
0000100100100000
0000010101000000
0000000100000000
0111111111111100
0000010101000000
0000100100100000
0001000100010000
0010000100001000
1100000100000110
0000000100000000
0000000100000000