0000000000000000
0111111111111110
0100000000000010
1001111111110100
0000000000000000
0111111111111100
0000001000000000
0000110100001000
0111000110010000
0000001010100000
0000110011000000
0111000110100000
0000011010011000
0001100010000110
1110001010000000
0000000100000000