0000000000000000
0111111111111110
0100000000000010
1000000000000100
0111111100000000
0010001011111100
0010001001000100
0011111001000100
0010001001000100
0010001000101000
0011111000101000
0010001000010000
0010011110010000
1111101000101000
0100001001000100
0000001010000010