1111111111111110
1000010001000010
0011111111111000
0000010001000000
0001111111110000
0001000000010000
0001111111110000
0001000000010000
0001111111110000
0000001000000000
0111111111111100
0000100100100000
0011111111111000
1101000100010110
0001000100110000
0000000100000000