0000000001111100
0011111110000000
0010000000000000
0010000000000000
0011111111111110
0010000000000000
0010000000000000
0010111111111000
0010100010001000
0010100010001000
0010100010001000
0010111111111000
0010100000001000
0100100000000010
0100100000000010
1000011111111110