0000000000000000
0111111101111100
0100100001000100
0100100001000100
0100100001000100
0101111001000100
0101001001000100
0101001001111100
0101001001000000
0101001001000000
0101111001000000
0100100001000010
0100100001000010
0100100001000010
0111111100111110
0000000000000000