0001000000100000
0010000000100000
0111110111111100
0100010001010000
0111110010001000
0100010100000100
0111111111111110
0100010000001000
0100010111101000
1111110100101000
0000110100101000
0001010111101000
0010010100101000
0100010000001000
1001010000101000
0000100000010000