0001000010000000
0010000010000000
0111110011111110
0100010100000010
0111111000100010
0100010010101010
0111110001110010
0100010000100010
0100010111111110
1111110000100010
0000110001110010
0001010010101010
0010010100100010
0100010000100010
1001010000001010
0000100000000100