0001000000000000
0010001111111110
0111101000000000
0100101001011000
0111101001010100
0100101010111110
0111101110101000
0100101011101000
0100101010111110
1111101010101000
0001101010101000
0010101010111110
0100101010101000
1000101010101000
0010101010111110
0001010010100000