0000000010010000
0111111010100000
0000001001000100
0100010001001000
0010100000110000
0001000000010000
0010000000001000
1101111111110110
0000000100000000
0000000100000000
0000000100000000
1111111111111110
0000000100000000
0000000100000000
0000000100000000
0000000100000000