0000000010010000
0111111010100000
0000001001000100
0100010001001000
0010100000110000
0001000000010000
0010111111101000
1100100000100110
0000100000100000
0001000000011100
0010111111100000
0000000000100000
0000110001000000
0000001110000000
0000110001110000
0111000000001000