0000010000000000
0000010000000000
0000111111110000
0001100000100000
0110010001000000
0000001110000000
0001110001110000
1110000100001110
0000000100000000
0001111111110000
0000000100000000
0010000100000000
0011111111111000
0000000100000000
0000000100000000
0000000100000000