0000000000000000
1111111111111110
0001000100000000
0001001111011100
0101001001010100
0101101111010100
0101001001011100
0101001111010000
0101101001010010
1110001111001110
0010010000001000
0100111111100100
1001010001000010
0000001110000000
0001110001110000
1110000000001110