0000000000100000
0000000000100000
1111111000100000
0010010111111100
0010010100100100
0010010100100100
0010010100100100
0010010111111100
0010010000100000
0010010000100000
0010010000101000
0010010111111100
0010010000000100
0100010000000010
0100001111111110
1000000000000000