0000000000000000
0001111111110000
0001000000010000
0001000000010000
0001111111110000
0000000100000000
0000000100000000
0011111111111000
0010000100001000
0010000100001000
0011111111111000
0000000100100000
0000000100010000
0000000111111000
0111111100000100
0010000000000100