0001000001000000
0001000000100100
0001000100100100
0111110100000100
0101010100000100
0101010010001000
0101010010001000
0101010010001000
0111110001010000
0101000001010000
0001000000100000
0001010000100000
0001110001010000
1110010010001000
0100000100000100
0000011000000010