0001000001000000
0001000000100000
0001000000100000
0111110111111110
0101010010001000
0101010010001000
0101010010001000
0101010010001000
0111110010001000
0101000001010000
0001000001010000
0001010000100000
0001111000100000
1110001001010000
0100000010001000
0000000100000110