0001000000000000
0001000111111100
0001000100000100
0111110100000100
0101010100000100
0101010111111100
0101010100000000
0101010101000000
0111110101000100
0101000101001000
0001000101110000
0001010101000000
0001110101000010
1110011001000010
0100001000111110
0000010000000000