0001000000000100
0001000000011110
0001000111110000
0111110100010000
0101010100010000
0101010100010000
0101010100010000
0101010111111110
0111110100010000
0101000100010000
0001000100010000
0001010100001000
0001110100001010
1110010101001010
0100000110100110
0000000100010010