0000010000100000
0000010000100000
0111111110100000
0000111000100000
0001010100100010
0010010010100010
0100010000011110
0000000100000000
0001111111110000
0001000100010000
0001000100010000
0001111111110000
0001000100000000
0000000100001000
0111111111111100
0010000000000100