0001000001010000
0001000001001000
0001000001001000
0111110001000000
0101010111111110
0101010001000000
0101010001000000
0101010001111100
0111110010100100
0101000010100100
0001000010101000
0001010100101000
0001110100010000
1110011000101000
0100000001000100
0000000010000010