0000000100000000
0000000100000000
0011111111111000
0010000100001000
0010000100001000
0011111111111000
0000000100000000
0000000100001000
0111111111111100
0000000000000100
0011111111111000
0010010001001000
0010010001001000
0010010001001000
1111111111111110
0000000000000000