0000000000000000
0111110111110000
0001000100010000
0001000110010000
0001000101010010
0001110100010010
1110001000001110
0100010100000000
0001111111110000
0001000100010000
0001000100010000
0001111111110000
0001000100000000
0000000100001000
0111111111111100
0010000000000100