0000010001000000
0000010001000000
0111111111111100
0000010001000000
0000010001000000
1111111111111110
0000100000100000
0001000000010000
0010000100001000
1101111111110110
0001000100010000
0001000100010000
0001111111110000
0000000100001000
0111111111111100
0010000000000100