0001000010000000
0001000010000000
1111101111110000
0001000010010000
0001100110010000
1111000010010100
0001000101010100
0101001000001100
0010010100000100
0001111111110000
0001000100010000
0001000100010000
0001111111110000
0000000100001000
0111111111111100
0010000000000100