0001000000000100
0001000000011110
0001000111100000
0111110000100010
0101010100010010
0101010010010100
0101010010000000
0101010000001000
0111110111111110
0101000000001000
0001000010001000
0001010001001000
0001111001001000
1110001000001000
0100000000101000
0000000000010000