0001000000100000
0001000000100000
0001000111111110
0111110000100000
0101010111111100
0101010100100100
0101010100100100
0101010111111100
0111110100100100
0101000100100100
0001000111111100
0001010000100000
0001110111111110
1110010000100000
0100000000100000
0000000000100000