0001000010001000
0001000010001000
0001000111111100
0111110010001000
0101010010001000
0101010011111000
0101010010001000
0101010010001000
0111110011111000
0101000010001000
0001000010001000
0001010111111110
0001110000000000
1110010010001000
0100000100000100
0000001000000010