0000100000001100
0000100011110000
0111111010000000
0001100010000000
0010110011111110
0010101010001000
0100100010001000
1000100010001000
0000100100001000
0001111111110000
0001000100010000
0001000100010000
0001111111110000
0000000100001000
0111111111111100
0010000000000100