0001000000100000
0001000000100000
0001000001010000
0111110010001000
0101010100000100
0101011011111010
0101010000000000
0101010111111100
0111110101010100
0101000101010100
0001000111111100
0001010101010100
0001110101010100
1110010101010100
0100000100000100
0000000100001100