0010000001000000
0010000010100000
0010000100010000
1111101000001000
1010110111110110
1010100000000000
1010101111000100
1010101001010100
1111101001010100
1010001111010100
0010001001010100
0010101001010100
0011101111010100
1110101001000100
0100001001010100
0000001011001000