0010000100001000
0010000010001000
0010000010001000
1111101111011110
1010100100010000
1010100100100000
1010100111011110
1010100101000010
1111100101000100
1010000101000100
0010000101011110
0010100101000100
0011101001000100
1110101001000100
0100010011010100
0000100000001000