0001000000000000
0001000011111100
0001000010000100
0111110011111100
0101010010000100
0101010011111100
0101010000000000
0101010111111110
0111110010000000
0101000011111110
0001000100101010
0001011001001010
0001110010010010
1110010100100010
0100000001010100
0000000010001000