0001000000100000
0001000111111110
0001000000100000
0111110011111100
0101010000100000
0101010111111110
0101010000000000
0101010011111100
0111110010100100
0101000010010100
0001000111111110
0001010010100100
0001110100010100
1110010111111110
0100000000000100
0000000000011000