0000011000100000
0011100000100000
0000100010100100
0111111010101000
0001100100100000
0010110001010000
0100101010001000
0000100100000100
0000000100000000
0001111111110000
0001000100010000
0001000100010000
0001111111110000
0000000100001000
0111111111111100
0010000000000100