0010000001000000
0010000001000000
0010011111111100
1111100001000000
1010101111111000
1010100010000000
1010111111111100
1010100100010000
1111101001101000
1010010111000110
0010000001000000
0010101111111000
0011100011100000
1110100101011000
0100011001000100
0000000001000000