0010000001000100
0100001001011000
1111111101100010
0000000101000010
0111111000111110
0100001000000000
0111111001001100
0100001001110010
0111111001000010
0100001000111110
0000000100000000
0011111111111000
0010000100001000
0011111111111000
0000000100000100
0111111111111110