0010000100000100
0010000010000100
0010000010001000
1111100000000000
1010101111111110
1010100000000000
1010100010001000
1010100100000100
1111101000000010
1010000111111100
0010000101010100
0010100101010100
0011100101010100
1110100101010100
0100011111111110
0000000000000000