0010000001000000
0010000000100000
0010001111111110
1111101001010000
1010101001010000
1010101111111110
1010101001010010
1010101001010010
1111101111111110
1010001000000000
0010001010010010
0010101011010100
0011101010011000
1110110010010010
0100010011010010
0000100010001110