0000000000100000
0111101111111110
0100100000100000
0101000111111100
0110000100100100
0101000111111100
0100100100100100
0100100111111100
0110100001110000
0101000010101000
0100000100100100
0011111111111010
0010000100001000
0011111111111000
0000000100000100
0111111111111110