0010000000100000
0010000111111100
0010000100100100
1111101111111110
1010100100100100
1010100111111100
1010100000100000
1010100111111100
1111100100100100
1010000111111100
0010000001000000
0010101111111110
0011100010001000
1110100111010000
0100000001110000
0000001110001100