0000100000100000
0111111000100000
0000100011111000
1111111100101000
0001010000101000
0111111101101010
0000100000101010
1111111101010110
0000100010000010
0000000100000000
0011111111111000
0010000100001000
0011111111111000
0000000100001000
0111111111111100
0000000000000100