0010000000100000
0010000100100100
0010000010101000
1111101111111110
1010101000000010
1010100011111000
1010100010001000
1010100010001000
1111100011111000
1010000000100000
0010000111111100
0010100100100100
0011100100100100
1110100100110100
0100000100101000
0000000000100000