0001000000100000
0001000111111100
0001000010001000
0111110001010000
0101011111111110
0101010000000000
0101010111111100
0101010100000100
0111110111111100
0101000100000100
0001000111111100
0001010000100000
0001111111111110
1110010000100000
0100000000100000
0000000000100000