0000100000000100
0111111100001000
0000100000010000
0011111001100100
0000000000001000
0011111000010000
0010001001100100
0011111000001000
0001010000010000
0111111101100000
0000000100000000
0011111111111000
0010000100001000
0011111111111000
0000000100000100
0111111111111110