0010000000000000
0010001111111110
0010000001010000
1111101111111110
1010101001010010
1010101111111110
1010100000000000
1010100111111100
1111100100000100
1010000111111100
0010000100000100
0010100111111100
0011100000100000
1110101111111110
0100000000100000
0000000000100000