0010010000001100
1111111101110000
0010010001000000
0011110001000000
0010010001111110
0011110001001000
0010010001001000
1111111101001000
0010010001001000
0100001010001000
0000000100000000
0011111111111000
0010000100001000
0011111111111000
0000000100000100
0111111111111110