0010000100000100
0010000010001000
0010001111111110
1111100000100000
1010100111111100
1010100000100000
1010101111111110
1010100001010100
1111100110010010
1010000010010000
0010001111111110
0010100010010000
0011100011010100
1110101110001010
0100000010010110
0000000110100010