0001000100000000
0010101111011110
0100101001010010
0111001111010100
0010101001010010
0100101111010010
0111101000011010
0001001010010100
0010001101010000
1100001001000000
0000000100000000
0011111111111000
0010000100001000
0011111111111000
0000000100000100
0111111111111110