0010000000100000
0010001111111110
0010001010001000
1111101001010000
1010101111111110
1010101001010000
1010101011111100
1010101001010100
1111101111111110
1010001001010100
0010001011111100
0010101001010000
0011101011011000
1110110101010100
0100011001010010
0000100001010000