0010000000001000
0010001111001000
0010001001001000
1111101111001110
1010101001001010
1010101111010010
1010100100000100
1010101111100100
1111110010100100
1010001010100100
0010001101100100
0010101000101010
0011101111101010
1110100000101010
0100000101001010
0000000010010000