0001000010001000
0001001111111110
0001000010001000
0111110000100000
0101011111111110
0101010001010000
0101010010001000
0101011100100110
0111110011111000
0101000000100000
0001000010001000
0001010111111110
0001110010001000
1110010010001000
0100000100001000
0000001000001000