0010000000000000
0010000111111100
0010000000100000
1111101111111110
1010101000100010
1010100110101100
1010100000100000
1010100110101100
1111100000000000
1010001111111110
0010000000100000
0010100111111100
0011100101010100
1110100101010100
0100000101010100
0000000100001100