0010000100010000
0010000100010100
0010001111110010
1111100100010000
1010111111111110
1010101010010000
1010101001010000
1010111111110100
1111101010010100
1010001111110100
0010001010010100
0010101111101000
0011101010001010
1110101111111010
0100001000100110
0000000001000010