0100010000000000
0010010011111110
0010100010101010
0000000010101010
1111111011111110
0000000001000000
0010100011111110
0100010100100010
1000001011111010
0000000010101010
1111111010101010
1010101011111010
1010101000100010
1010101011111010
1010111100001010
1111100000000100