0001000100000000
0001000110000000
0010000101011100
0100000101000000
1000000100000000
0001011111000000
0010000100111110
0110001100001000
1010001110001000
0010001101001000
0010010101001000
0010010100001000
0010100100001000
0010000100001000
0010000100101000
0010000100010000