0001000000000000
0001000000000000
1111111011111100
0010001001000100
0110010000101000
0001100000010000
0010010000101000
1100001101000110
0000000100000000
0011111111111000
0010000100001000
0010000100001000
0010000100101000
0010000100010000
0000000100000000
0000000100000000