0001000000010000
0001000000010000
0001000000010000
0111110111111110
0101010100010010
0101010100010100
0101010100010000
0101010111111100
0101010101000100
0101010101000100
0101010100101000
0101110100101000
0001000100010000
0001001000101000
0001001001000100
0001010010000010