0001000000000000
0001000000000000
1111111001111100
0010001001000100
0100001001000100
0011010001000100
0000100001111100
0011010000000000
1100001000000000
0000000100000000
0011111111111000
0010000100001000
0010000100001000
0010000100101000
0010000100010000
0000000100000000