0000100100100000
0000100100100000
0111111111111100
0000100100100000
0000111111100000
0000000000000000
0111111111111110
0100000100000010
1000000100000100
0001111111110000
0001000100010000
0001000100010000
0001000101010000
0001000100100000
0000000100000000
0000000100000000