0000000000000000
0111111111111110
0100000000000010
1001111111110100
0001000000010000
0001111111110000
0001000000010000
0001111111110000
0000001000000000
1111111111111110
0000100100100000
0011111111111000
1101000100010110
0001000101010000
0001000100100000
0000000100000000