0010000000000000
0010001111111100
0010001000000100
1111101000000100
1010101111111100
1010101000000000
1010101111111100
1010101001000000
1010101010001000
1010101111111100
1010101000100100
1011101000100000
0010010111111100
0010010000100000
0010100000100000
0011001111111110