0001000011111000
0001000010001000
0001000010001000
0111110011111000
0101010000000000
0101010111011100
0101010101010100
0101010101010100
0101010111011100
0101010000100000
0101011111111110
0101110001110000
0001000010101000
0001000100100100
0001001000100010
0001000000100000