0000010000000000
0100001000000000
0100000100000000
0100000100000000
0100000010000000
0100000010000000
0100000101000000
0100000101000000
0100001000100000
0100001000100000
0100010000010000
0100100000001000
0101000000000100
0100000000000000
0111111111111110
0000000000000000