0000000000100000
0000000011110000
0001111100000000
0001000000000000
0001000000000000
0001111111111000
0001000010000000
0001000010000000
0001000010000000
0001000010000000
1111111111111110
0000000000000000
0000100001000000
0001000000100000
0010000000010000
0100000000001000