0000010001000000
0000010001000000
0000010001000000
0011111111111000
0010010001001000
0010010001001000
0010010001001000
0011111111111000
0010010001001000
0010010001001000
0010010001001000
1111111111111110
0000010001000000
0000100000100000
0001000000010000
0010000000001000