0000010001000000
0000100000100000
0001000000010000
0010111111101000
1100010000100110
0000010000100000
0000100000100000
0001000010100000
0110000001000000
0000000000000000
0011111001000100
0010001001011000
0010001001100000
0010001001000010
0011111001000010
0010001000111110