0000010001000100
0111110001111000
0000010001000010
0001110000111110
1110010000000000
0011111111111000
0010000100001000
0011111111111000
0010000100001000
0011111111111000
0000010001000000
0011111111111000
0000010001000000
1111111111111110
0001000000010000
0010000000001000