0100010000000000
0010010111111110
0010100100000010
0111110100000010
0101010111111110
0101010100100100
0111110100100100
0101010101111110
0101010100100100
0111110100100100
0001000111111110
0001000101010010
1111110101010100
0001001001001000
0001001001100100
0001010001000010