0010001000010000
0010001000010000
0111111100010000
0010001000010000
0010001011111110
1111111110010010
0000100010010010
0111111100010000
0100100100101000
0111111100101000
0100100100101000
0111111100101000
0000000001001000
0010001001001010
0010000110001010
0100000100000110