0010001000010000
0010001000010000
0111111100010000
0010001000010000
0010001000011110
1111111110010000
0000100000010000
0111111100010000
0100100101111100
0111111101000100
0100100101000100
0111111101000100
0000000001000100
0010001001000100
0010000101111100
0100000101000100