0000000000000100
0000000000000100
1111111000000100
0001000001000100
0001000001000100
0010000001000100
0011111001000100
0110001001000100
0110001001000100
1010001001000100
0010001001000100
0010001000000100
0011111000000100
0010001000000100
0000000000010100
0000000000001000