0000000000000000
0000000111110000
1111100100010000
0010000100010000
0010000100010000
0100000100010000
0111100100010000
1100100100010000
0100100100010000
0100100100010000
0100100100010000
0100100100010010
0111101000010010
0100001000010010
0000010000001110
0000100000000000