0000000000000000
0000000011111000
1111110010001000
0001000010001000
0001000010001000
0010000011111000
0011110010001000
0110010010001000
0110010010001000
1010010011111000
0010010010001000
0010010010001000
0011110010001000
0010010010001000
0010001111111110
0000000000000000