0000000001000000
0000000000100000
1111110111111100
0001000100000100
0001000100000100
0010000111111100
0011110100000000
0110010100000000
0110010101111100
1010010100001000
0010010100010000
0010010100100000
0011110101000010
0010011010000010
0010001001111110
0000010000000000