0000000100000100
0000000010000100
1111110010001000
0001000000000000
0001001111111110
0010000010001000
0011110010001000
0110010010001000
0110010010001000
1010011111111110
0010010010001000
0010010010001000
0011110100001000
0010010100001000
0010001000001000
0000010000001000