0000000010000000
0000000010000000
1111100010111100
0010001111000000
0010000001010000
0100000000100100
0111100011010100
0100101100001100
1100100000000000
0100101111111110
0100100010010000
0100100010010000
0111100100010010
0100100100010010
0000001000001110
0000010000000000