0000000000000000
0111111011111100
0100100001000100
0111111001000100
0100001000101000
0111111000010000
0100100000101000
0111111011000110
0000000000000000
1111111111111110
0000100000000000
0001111111111000
0010100000001000
1100100000001000
0000111111111000
0000100000001000