0000000001001000
0000000001000100
1111110001011110
0001000111100000
0001000000101000
0010000000010010
0011110001101010
0110010110010110
0110010001001000
1010010001011110
0010010111100000
0010010000100100
0011110000101000
0010010000010010
0010000001101010
0000000110000110