0000000010000000
0000000010010000
1111100100001000
0010001111111100
0010000001000000
0100011111111110
0111100100010000
0100101001001000
1100110010000110
0100101100010000
0100100000100000
0100100011000100
0111101100001000
0100100000110000
0000000011000000
0000011100000000