0000000000000000
0000001111111110
1111110000100000
0001000001000000
0001000111111100
0010000101010100
0011110101010100
0110010101010100
0110010101010100
1010010100101100
0010010000100000
0010011111111110
0011110001010000
0010010010001000
0010000100000100
0000001000000010