0000000000100000
0000000111111110
1111110000100000
0001000011111100
0001000000100000
0010000111111110
0011110000000000
0110010011111100
0110010010100100
1010010010010100
0010010111111110
0010010010100100
0011110100010100
0010010111111110
0010000000000100
0000000000011000