0000000001000000
0000000001000000
1111101111111110
0010001010100010
0010000010010000
0100000111111110
0111100100010000
0100101100010000
1100110111111110
0100100100010000
0100100100010000
0100100111111110
0111100100010000
0100100100010000
0000000111111110
0000000100000000