0000000000100000
0000000000100000
1111100000111110
0010000000100000
0010000000100000
0100001111111110
0111101000000010
0100101100100110
1100101010001010
0100101001010010
0100101100100110
0100101001010010
0111101010001010
0100101100100110
0000001111111110
0000001000000010