0000000000100000
0000000100100100
1111100010101000
0010001111111110
0010000010101000
0100000100100100
0111101000100010
0100100100000100
1100100100000100
0100100111011110
0100101001000100
0100110101010100
0111100010011110
0100100100000100
0000001000000100
0000010000000100