0000000000000000
0000011111000100
1111010100010100
0010011111001000
0010010100001000
0100011111010100
0111010100010100
1101010100000000
0101011111010100
0101000001010100
0101010101010100
0101010101001000
0111010101001000
0101010001010100
0000000001010100
0000000110100010