0000000010010000
0000011111111110
1111100010010000
0010001111101000
0010001010001000
0100001111001110
0111101001010000
0100101111010100
1100101010100010
0100101111100010
0100100000000000
0100101111111100
0111101010010100
0100101010010100
0000011111111110
0000000000000000