0000011110111100
0000010010100100
1111011110111100
0010000000000000
0010011111111110
0100010000000000
0111010110010000
1101010010011110
0101011111010100
0101010101100100
0101010111010100
0101010101010100
0111010111010100
0101010101101000
0000101111001000
0001000001010100