0000010001000000
0111100000100000
0001000000101000
1111111000001000
0001000000001000
0011100001001000
0101010001010100
1001000101010010
0111110101010010
0100010101100000
0100011001100000
0111110001000100
0100010011000100
0100010101000100
0111111000111100
0100010000000000