0001000000000000
0010000000000000
0111111100111110
0100000100000010
0111111100000100
0100000100000100
0111111100001000
0100000000001000
0111111110010000
0100000000010000
0111111110100000
0000000010100010
1010101010100010
1010101010100010
1000000100011110
0000011000000000