0000000001000000
0000000010000000
0011110111111100
0010010100000100
0010010111111100
0010010100000100
0011110111111100
0010010100000000
0010000111111110
0010000100000000
0010000111111110
0010000000000010
0010001010101010
0100001010101010
0100001000000010
1000000000001100