0000000001000000
0111110010000000
0010100111111100
0010100100000100
0010100111111100
0010100100000100
0010100111111100
1111111100000000
0010100111111110
0010100100000000
0010100111111110
0010100000000010
0010101010101010
0010101010101010
0100101000000010
1000100000001100