0000000001000000
0111100010000000
0100100111111100
0100100100000100
0110100111111100
0101100100000100
0100100111111100
1111110100000000
0100100111111110
0100100100000000
0100100111111110
0100100000000010
0100101010101010
0100101010101010
0100101000000010
1001100000001100