0001000000000000
0111111001111000
0001001001001000
0010011001111000
1100001000000000
0001111111110000
0001000000010000
0001111111110000
0001000000010000
0001111111110000
0001000000000000
0001111111111100
0001000000000000
0001111111111100
0010101001000100
0100010100101100