0001000001000000
0001000010000000
0010000111111100
0100100100000100
1111110111111100
0000010100000100
0010100111111100
0010100100000000
0010100111111110
1111110100000000
0010100111111110
0010100000000010
0010101010101010
0100101010101010
0100101000000010
1000100000001100