0000010000010000
0011011000100000
1110010101111100
0010010101000100
0010010001111100
1111111111000100
0010010001111100
0010010101000000
0010010101111110
0011011001000000
1110011001111110
0010010000000010
0010101010101010
0011001010101010
1010000111000010
0100000010001100