0010000000100000
0010000001000000
0011110011111100
0100010010000100
0100100011111100
1011111010000100
0010101011111100
0010101010000000
0011111011111110
0010101010000000
0010101011111110
0011111000000010
0010101010101010
0010101010101010
0010101100000010
0100010000001100