0000000000100000
1111111001000000
0010100011111100
0010100010000100
0010100011111100
1110111010000100
1000001011111100
1000001010000000
1000001011111110
1110111010000000
0010100011111110
0010100000000010
0010111010101010
1111000010101010
0100000100000010
0000000000001100