0001000000100000
0001000001000000
1111111011111100
0001000010000100
0010100011111100
0100010010000100
1111111011111100
0000010010000000
0111010011111110
0101010010000000
0101010011111110
0111010000000010
0101010010101010
0000010010101010
0001010100000010
0000100000001100