0010000000100000
0001000001000000
1111111011111100
0010100010000100
0010100011111100
0100111010000100
0101001011111100
1101101010000000
0101011011111110
0110001010000000
0101010011111110
0100110000000010
0100100010101010
0101010010101010
0110010100000010
0100000000001100