0001000001010000
0010000001001000
0111110010000000
0100010011111110
0111110110010000
0100011010010000
0111110011111100
0100000010010000
0111111010010000
0100000011111100
0111111010010000
0000001010010000
1010101010010000
1010101011111110
1000001010000000
0000110010000000