0010000000100000
0001000001000000
1111111011111100
0000000010000100
0000000011111100
0111110010000100
0100010011111100
0100010010000000
0111110011111110
0001000010000000
0101010011111110
0101001000000010
1001001010101010
0001000010101010
0101000100000010
0010000000001100