0010101010100100
0010110010101000
0100100100100000
0001010001010000
0010001010001000
0101111111110100
0001000000010000
0001111111110000
0001000000010000
0001111111110000
0001000000000000
0001111111111100
0001000000000000
0001111111111100
0010101001000100
0100010100101100