0101000001000000
0101000010000000
1111100111111100
0101000100000100
0101000111111100
0000000100000100
1111100111111100
1010100100000000
1010100111111110
1010100100000000
1111100111111110
1010100000000010
1010101010101010
1010101010101010
1111101000000010
1000100000001100