0010000000100000
0001000001000000
1111111011111100
0000000010000100
0100010011111100
0010100010000100
1111111011111100
1000001010000000
0001000011111110
0111110010000000
0101010011111110
0101010000000010
0101010010101010
0101110010101010
0001000100000010
0001000000001100