0100010000100000
1111111001000000
0100010011111100
0000000010000100
0111110011111100
0000010010000100
0010100011111100
0001000010000000
1111111011111110
0011001010000000
0101010011111110
1001000000000010
0001001010101010
0001001010101010
0101001000000010
0010000000001100