0000000000100000
1111111001000000
0000000011111100
0111110010000100
0100010011111100
0100010010000100
0111110011111100
0000000010000000
1111111011111110
1001001010000000
1001001011111110
1111111000000010
1001001010101010
1001001010101010
1111111100000010
1000001000001100