0000000000010000
1111111110100000
1000000001111100
1011111101000100
1010000101111100
1011111101000100
1010000101111100
1011111101000000
1000100001111110
1111111111000000
1001001001111110
1011001000000010
1000110010101010
1001001010101010
1010000100000010
1111111110001100