0010000000100000
0001000001000000
1111111011111100
0000000010000100
0111110011111100
0100010010000100
0111110011111100
0000000010000000
1111111011111110
1000001010000000
1011101011111110
1010101000000010
1011101010101010
1000001010101010
1000101100000010
1000010000001100