0010001000010000
0001010000100000
0000000001111100
0111111111000100
0001010001111100
0111111101000100
0001010101111100
1111111111000000
0001010101111110
0111111101000000
0001010001111110
0011011000000010
0101010100101010
1001010010101010
0001010001000010
0001010000001100