0000000010010000
0111100111111110
0100101100100000
0100110111111100
0100100100100000
0100100111111100
0111100100100000
0000000111111110
0000001000000000
0001111111110000
0001000000010000
0001111111110000
0001000000010000
0001111111111100
0101001001000100
1000100100101100