0000100000100000
1111111110100000
0000100000111110
0111111101000100
0100100110101000
0111111100010000
0010101000101000
0100100101000110
1000001000000000
0001111111110000
0001000000010000
0001111111110000
0001000000010000
0001111111111100
0101001001000100
1000100100101100