0000100000100000
0111111000100000
0000100011111000
1111111100101000
0001010000101000
0111111101101010
0000100000101010
1111111101010110
0000101010000010
0001111111110000
0001000000010000
0001111111110000
0001000000010000
0001111111111100
0101001001000100
1000100100101100