0010000000100000
1111111001000000
1000001011111100
1111111010000100
1000001011111100
1111111010000100
1000001011111100
1111111010000000
0001000011111110
1001001010000000
0101010011111110
1001001000000010
0001000010101010
1111111010101010
0001000100000010
0001000000001100