1110111000100000
1010101001000000
1110111011111100
1010101010000100
1110111011111100
1000001010000100
1011101011111100
1010101010000000
1011101011111110
1010101010000000
1011101011111110
1010101000000010
1010101010101010
1101101010101010
1000001100000010
1000011000001100