0000001100010000
1011110000100000
0100010011111100
0001000101000100
1000010001111100
0100100101000100
0101111001111100
0000010001000000
0010100101111110
0101111101000000
1100010001111110
0101111100000010
0100010010101010
0100101010101010
0101000100000010
0010000010001100