0011111011111000
0010001010001000
0011111011111000
0010001010001000
0011111011111000
0010001010001000
0011111011111000
0001010001010000
0010001010001000
0001111111110000
0001000000010000
0001111111110000
0001000000010000
0001111111111100
0101001001000100
1000100100101100