0000000000010000
1110111000100000
0010001001111100
1010101001000100
0110011001111100
1010101001000100
0000000001111100
0010010001000000
0111111101111110
1100100001000000
0111111001111110
0100100000000010
0111111010101010
0100100010101010
0111111100000010
0100000000001100