0000000000010000
0111011100100000
0101010101111100
0111011101000100
0101010101111100
0111011101000100
0101010101111100
0111011101000000
0010001001111110
0101010101000000
0001000001111110
1111111100000010
0010001010101010
0110010010101010
0001110100000010
1110001100001100