0100010000100000
1111111001000000
0100010011111100
0000000010000100
1110111011111100
1010101010000100
1110111011111100
0010010010000000
0111111011111110
1100100010000000
0111111011111110
0100100000000010
0111111010101010
0100100010101010
0111111100000010
0100000000001100