0010000100001000
0100111111010010
1111000000111100
0010001110001000
0100100000010010
1111101110111110
0000001010000000
1010101110101010
0000001000000000
0001111111110000
0001000000010000
0001111111110000
0001000000010000
0001111111111100
0101001001000100
1000100100101100