0000000100000000
0001111111110000
0001000100010000
0001000100010000
1111111111111110
0000001010000000
0001110001110000
1110001000001110
0000010000000000
0001111111100000
0001001000100000
0001000101100000
0001111111111100
0000000000000100
0111111111010100
0000000000001000