0000000100010000
0000011110100000
0111110001111100
0100010001000100
0100010001100100
0100010001010100
0100010001000100
0111111101001100
0100010001000000
0100010001111110
0100010000000010
0100001000000010
0100001011111010
0101001010000010
0110100110001010
0100010010000100