0000000000010000
1000000000100000
0100000001111100
0001111101000100
1000010001100100
0100010001010100
0100010001000100
0000010001001100
0010010001000000
0100010001111110
1100010000000010
0100011100000010
0101110001111010
0100100000000010
0100000000001010
0000000000000100