0010001000010000
0001010000100000
0000000001111100
0111111111000100
0001010001100100
0111111101010100
0001010101000100
1111111111001100
0001010101000000
0111111101111110
0001010000000010
0011011000000010
0101010101111010
1001010010000010
0001010000001010
0001010000000100