0111111000010000
0001010000100000
0000100001111100
1111111101000100
0010100101100100
0100101001010100
1010100001000100
0001000001001100
0111111101000000
0101010101111110
0110001100000010
0101110100000010
0101010101111010
0101110100000010
0100000100001010
0100001100000100