0000000000100000
1111111001000000
1010101011111100
1010101010000100
1111111010100100
0000000010000100
1111111010010100
0000000010001000
0111110010000000
0100010011111110
0111110000000010
0010101000000010
0110010111111010
1010001000000010
0011000100010100
0010000000001000