0000000010000000
0011111111111110
0010001001010000
0010010011111100
0010110110010000
0011011011111100
0010010010010000
0010010011111100
0010000100000000
0010011111110000
0010010010010000
0010010000100000
0100011111111100
0100000000000100
1001111111010100
0000000000001000