0111111100010000
0000100000100000
0111111101111100
0100100101000100
0010101001100100
0000100001010100
0010101001000100
0000000001001100
0010011101000000
1111110101111110
0010011100000010
0111010100000010
1010111101111010
0010010100000010
0010011100001010
0010010100000100