0000000000000000
0111111111111110
0000001000000000
0000010000000000
0001111111111000
0001000000001000
0001000000001000
0001111111111000
0001000000001000
0001111111111000
0001000000001000
0001000000001000
0001111111111000
0000100000010000
0001000000001000
0010000000000100