0000000000000000
0010000111111110
0010000000100000
0010000001000000
0010000111111100
0011110100000100
0010000100000100
0010000111111100
0010000100000100
0010010111111100
0010100100000100
0011000100000100
0010000111111100
0000000010001000
0000000100000100
0000001000000010