0000100000000000
0000100111111110
0000100000010000
0000100000100000
0100100011111100
0100111010000100
0100100010000100
0100100011111100
0100100010000100
0100100011111100
0100100010000100
0100111010000100
0101100011111100
1110000001001000
0000000010000100
0000000100000010