0001000000000000
0001000111111110
0001000000100000
1111111001000000
0001000111111100
0001000100000100
1111110100000100
0000010111111100
0000010100000100
0100100111111100
0010100100000100
0001000100000100
0010100111111100
0100010010001000
1000000100000100
0000001000000010