0001000000000000
0000100011111110
0111111100010000
0010001000100000
0001010001111100
1111111101000100
0001000001000100
0010100101111100
1100111001000100
0001010001111100
0010011001000100
1100110101000100
0001010101111100
0010010000000000
1101010000101000
0000100001000100