0000000000000000
0111110011111110
0100010000010000
0111110000100000
0100010011111100
0111110010000100
0001000010000100
1111111011111100
0000000010000100
0111110011111100
0100010010000100
0111110010000100
0001000011111100
0101010001001000
1001001010000100
0011000100000010