0001000000000000
0000100001111110
1111111110010000
1000000010100000
0111111101111100
0101001001000100
1001010001000100
0111111101111100
1100000101000100
0111111101111100
0100000101000100
0111111101000100
0100000101111100
0111111100000000
0010001000101000
0100000101000100