0000100001111110
0010111000010000
0010100001111110
1111111101000010
0010101001111110
0100110001000010
0011001001111110
1100010000100100
0011111111111010
0010000100001000
0011111111111000
0010001000001000
0011111111111000
0000100010000000
1111111111111110
0000000010000000