0111111110000000
0010000100111110
0011111100001000
0010000100010000
0011111100111110
0010000111100010
1111111100100010
0000000100111110
1111111111100010
0101001010111110
0111001110100010
0101001010100010
0111001110111110
0101101011000000
1111011110010100
0001000010100010