0000000000000000
0111111011111110
0100000000100000
0100000001000000
0101111011111100
0101001010000100
0101001010010100
0101001010010100
0101101010010100
0101010010010100
0101000010010100
0101001010100100
0101010000110000
0101100001001000
0101000010000100
1000001100000010