0001000000000000
0001000111111110
0101000000100000
0101110001000000
0101000111111100
0101000100000100
1111111100100100
0000000100100100
0001000100100100
0101010100100100
0101010100100100
0101010101000100
1000010001010000
0000100010001000
0011000100000100
1100001000000010