0001000000000000
0000100011111110
0111111100010000
0010001000100000
0001010001111100
0111111101000100
0100010001010100
0100100001010100
0101001001010100
0100010001010100
0100100001010100
0101000101010100
0100001000101000
0100010000100100
1000100001000010
0011000010000010