0000000000000000
0111111011111110
0010001000010000
0001110000100000
0010001001111100
0111011101000100
0101010101010100
0010001001010100
0101010101010100
0000100001010100
0111111101010100
0001110001010100
0010101000101000
0100100100100100
1000100001000010
0000100010000010