0000100000000000
1111111101111110
0000000000010000
1111111100100000
1000000101111100
1011110101000100
1010010101010100
1111111101010100
0000000001010100
0111111001010100
0100001001010100
0111111001010100
0100001000100000
0111111000101000
0000000001000100
1111111010000010