0000000100000000
0000000100000000
1111111111111110
0000000100000000
0000000100000000
0111111111111100
0000000000000000
0000000000000000
0011111111111000
0000000100001000
0000000100001000
0000000100101000
0000000100010000
0000000100000000
0000000100000000
0000000100000000