0000000100000000
0011111111111000
0000000100000000
0001111111110000
0000000100000000
0111111111111100
0000000100000100
0001111111110000
0001000100010000
0001111111110000
0000000100000000
1111111111111110
0000000000001000
0011111011111110
0010001001001000
0011111000011000