0001000000100000
0000100000100000
0111111100100000
0000000000100000
0010001000100000
0001010000100000
1111111110100000
0000100000100000
0000100000100000
0000100000100000
0111111100100000
0000100000100010
0000100000100010
0000100000100010
0000100000011110
0000100000000000