0000000000000000
0000111111100000
0000100000100000
0000100000100000
0000100000100000
0000100000100000
0000100000100000
0000100000100000
0000100000100000
0000100000100000
0001000000100000
0001000000100010
0010000000100010
0010000000100010
0100000000011110
1000000000000000