0000000000000000
0011111111111000
0010000000001000
0010000000001000
0010111111001000
0010000001001000
0010100001001000
0010010010001000
0010001010001000
0010000100001000
0010001010001000
0010010001001010
0010100001001010
0100000000001010
0100000000000110
1000000000000010