0000100000000000
0100100100000000
0100100101111000
0111111101001000
0000000001001000
1111111101001000
0000000001001000
0111111101001000
0100000101001000
0100000101001000
0111111101001000
0100001001001000
0010010001001010
0000111101001010
1111000010001010
0100000100000110