0000000000000000
0100001111111100
0010001001000000
0000101111111000
0000101001000000
0001001111111000
0010001001000000
1110001111111100
0010000000000100
0010010101010100
0010000000001000
0000111111100000
0000100000100000
0000100000100010
0001000000100010
0110000000011110