0001000000000000
0001000000000000
0011111111111100
0010000000000000
0100111111110000
1000000000000000
0011111111110000
0000000000010000
0000000000010000
0000000000010000
0000000000010000
0000000000010000
0000000000001010
0000000000001010
0000000000000110
0000000000000010