0010000000000000
0011111111111100
0100000000000000
1001111111110000
0000000000000000
0111111111110000
0000000000010000
0011111110010000
0010000010010000
0010000010010000
0011111110010000
0010000010010010
0010000010001010
0010000010001010
0011111110000110
0010000010000010