0010000000000000
0011111111111100
0100000000000000
1001111111110000
0000000000000000
0111111111110000
0000000000010000
0111111111010000
0010010010010000
0100100100010000
0010010010010000
0111111111010010
0000010000001010
0000010000001010
1111111111100110
0000000000000010