0010000000000000
0011111111111100
0100000000000000
1001111111110000
0000000000000000
0111111111110000
0000000000010000
0011111110010000
0010010010010000
0010101010010000
0011111110010000
0000000000010010
0111111111001010
0100101001001010
0100101001000110
1111111111100010