0000000000000000
0111111111111100
0100010001000000
0100010001000000
0100010001000000
0100010001000000
0100010001000000
0100010001000000
0100010001000100
0100010001000100
0100100001000100
0100100000111100
0101000000000000
0100000000000000
0111111111111110
0000000000000000