0000000000000000
0111111111111100
0100010000000000
0100010000000000
0100111111111000
0101000010000000
0100000010000000
0101111111111100
0100000010000000
0100000101000000
0100001000100000
0100010000010000
0101100000001000
0100000000000000
0111111111111110
0000000000000000