0000000001001000
0011111001000100
0000000001000100
0000000001000000
1111111111111110
0000000001000000
0000000001000000
0000000001000000
0111111001000000
0000000001000000
0000000000100000
0000000000100010
0000111100010010
1111000000001010
0100000000000110
0000000000000010