0000100000000000
0000100000000000
0001000000000000
0001111111111000
0010000000001000
0100000000001000
1000000000001000
0001111110001000
0000000000001000
0000000000001000
0000000000001000
0011111111001000
0000000000001000
0000000000001000
0000000001010000
0000000000100000