0010000000000000
0001001111111100
0001001000000100
0000001000000100
1111101000000100
0100001111111100
0100001000100000
0100001000100000
0100001111111110
0100001000100000
0100001000100000
0100001000010000
0111101000010010
0000001010001010
0000001100000110
0000001000000010