0000000100000000
0000000100000000
0000000100000000
0011111111111000
0000000100000000
0000000100000000
0000000100000000
1111111111111110
0000001110000000
0000010101000000
0000100100100000
0001000100010000
0010000100001000
1100000100000110
0000000100000000
0000000100000000