0001000000000000
0001001111111100
0001000100000100
0001000100000100
1111110100000100
0001000010001000
0011000010001000
0011100010001000
0101010001010000
0101010001010000
1001000000100000
0001000000100000
0001000001010000
0001000010001000
0001000100000100
0001011000000010