0000100000000100
0000100000000100
0000100000001000
0000100000010000
1111111000100000
0000100001000100
0001100000000100
0001110000001000
0010101000010000
0010101000100010
0100100001000010
1000100000000100
0000100000001000
0000100000010000
0000100000100000
0000100011000000