0001000000000000
0001000111110000
0001000100010000
0001000100010000
1111110100010000
0001000100010000
0011000110010000
0011100101010000
0101010101010000
0101010100010000
1001000100010000
0001000100010010
0001000100010010
0001001000010010
0001001000001110
0001010000000000