0001000000000000
0001000000000000
0001000111111100
0001000001000100
1111110001000100
0001000101000100
0011100101000100
0011010101000100
0101001001000100
0101000001000100
1001000010000100
0001000010000100
0001000100000100
0001000100000100
0001001000101000
0001010000010000