0001000000001000
0001000000111100
0001001111000000
0001000001000000
1111110001000000
0001000001000000
0011100001000000
0011010001111110
0101001111000000
0101000001000000
1001000001000000
0001000001000010
0001000001000010
0001000001000010
0001000000111110
0001000000000000