0001000000100000
0001000000100000
0001000000100000
0001001111111110
1111110000100000
0001000000100000
0011000111111100
0011100100100100
0101010100100100
0101010100100100
1001000100100100
0001000100110100
0001000100101000
0001000000100000
0001000000100000
0001000000100000