0001000010000000
0001000010000000
0001000111111100
0001000100000100
1111101000000100
0001010111110100
0011000100010100
0011100100010100
0101010100010100
0101000111110100
1001000100000100
0001000100101000
0001000100010010
0001000100000010
0001000011111110
0001000000000000