0001000000100000
0001000000100000
0001000000100000
0001001111111110
1111110000100000
0001000000100000
0011000000100000
0011100111111100
0101010001110000
0101010010101000
1001000010101000
0001000100100100
0001000100100100
0001001000100010
0001000000100000
0001000000100000