0001000000100000
0001000000010000
0001000000010000
0001000111111110
1111110100000010
0001001000000100
0011000010000000
0011100010001000
0101010010010000
0101010010100000
1001000011000000
0001000010000010
0001000010000010
0001000010000010
0001000001111110
0001000000000000