0001000000000000
0001000111111100
0001000100000100
0001000100000100
1111110100000100
0001000111111100
0011000100000000
0011100101000000
0101010101000100
0101010101001000
1001000101110000
0001000101000000
0001000101000010
0001001001000010
0001001000111110
0001010000000000