0001000000100000
0001000000100000
0001000000100000
0001000111111100
1111110100100100
0001000100100100
0011000111111100
0011100100100100
0101010100100100
0101010100100100
1001001111111110
0001000100000100
0001000100000100
0001000100000100
0001000100010100
0001000100001000