0001000000000000
0001001111111100
0001001000000000
0001001001000000
1111111001000000
0001001001111000
0011001010001000
0011101010010000
0101011100010000
0101001000100000
1001001001010000
0001001010001000
0001001100000100
0001001000000000
0001001111111110
0001000000000000