0001000000000000
0001000111111100
0001000101010100
0001000101010100
1111110101010100
0001000101010100
0011000101010100
0011101111111110
0101010101010100
0101010101010100
1001000101010100
0001000101010100
0001000101010100
0001000101000100
0001000100010100
0001000100001000