0000000100000000
0000000100000000
0111111111111100
0000000100000000
0011111111111000
0010000100001000
0010000100001000
0011111111111000
0000001010000000
0000010001000000
0000100000100000
0011001100011000
1100000011000110
0000011000000000
0000000110000000
0000000001000000