0001000010010000
0001000010001000
0001000010001000
0001000010000000
1111101111111110
0001000010100000
0011000010100000
0011100010100100
0101010010100100
0101000100101000
1001000100101000
0001000100110010
0001001000100010
0001001001100010
0001010010011110
0001100000000000