0001000000000000
0001000111111110
0001000100100000
0001000100100000
1111110100100000
0001000111111100
0011000100000100
0011100100000100
0101010100000100
0101010100000100
1001000111111100
0001000100100000
0001000100100000
0001000100100000
0001000111111110
0001000000000000