0001000010010000
0001000010010000
0001000010010000
0001001010010010
1111110110010100
0001000010011000
0011000010010000
0011100110011000
0101011010010100
0101010010010010
1001000010010000
0001000010010000
0001000100010010
0001000100010010
0001001000010010
0001010000001110