0001000000000000
0001001111111110
0001000000100000
0001000001000000
1111110010001000
0001000100000100
0011001111111110
0011100000100010
0101010000100000
0101010000100000
1001001111111110
0001000000100000
0001000000100000
0001000000100000
0001011111111110
0001000000000000