0001000000000000
0001000000011110
0001001111110010
0001000010010010
1111110010010100
0001000010010100
0011000010011000
0011100010010100
0101010010010010
0101010010010010
1001000011110010
0001011100011010
0001001000010100
0001000000010000
0001000000010000
0001000000010000