0000100000100000
0000100000100000
0000100000111110
0000100000100000
1111111000100000
0000100111111110
0001100000000000
0001110000000000
0010101111111110
0010101000100000
0100100000101000
1000100000100100
0000100000100010
0000100000100000
0000100000100000
0000100000100000