0001000000000000
0001000111111110
0001000001001000
0001000001001000
1111110001001000
0001000001001000
0011001001001000
0011100101001010
0101010101001010
0101010101001100
1001000001001000
0001000001001000
0001000001001000
0001000001001000
0001001111111110
0001000000000000