0001000000100000
0001000000010000
0001000000010000
0001000111111110
1111110100000000
0001000100010000
0011000100010000
0011100100010000
0101010101111100
0101010100010000
1001000100010000
0001000100010000
0001000100010000
0001001000010000
0001001011111110
0001010000000000