0010000000010000
0010001000010000
0010000100010000
0010000100010000
1111010001010100
0010001001010010
0010001001010010
0111000010010000
0110100000010000
1010000100010100
1010011000000100
0010001000001000
0010001000001000
0010001000010000
0010001000100000
0010000011000000