0000000000000000
0010001111110000
0001000010010000
1000001010010100
0101001010010010
0010010010010010
1110000100010000
0010001001010000
0010010100100000
0000000100000000
1111111111111110
0000010101000000
0000100100100000
0011000100011000
1100000100000110
0000000100000000