0001000000101000
0001000000100100
0001000000100100
0001000000100000
1111110111111110
0001000000100000
0011000100100000
0011100010110010
0101010010110100
0101010001101000
1001000010101000
0001000100100100
0001001000100010
0001000000100000
0001000010100000
0001000001000000