0001000100000000
0001000100000000
0001000111111100
0001001000000000
1111110111111000
0001000100001000
0011100101001000
0011010100101000
0101011111111110
0101000100001000
1001001001001000
0001001000101000
0001001111111100
0001000000001000
0001000001010000
0001000000100000