0001000001000000
0001000000100000
0001000111111100
0001000000000000
1111110010001000
0001000001010000
0011001111111110
0011100000100000
0101010000100000
0101010000100000
1001000111111100
0001000000100000
0001000000100000
0001000000100000
0001000000100000
0001000000100000