0001000000000000
0001001111111110
0001000001000000
0001000001000000
1111110111111100
0001000010000100
0011000010000100
0011101111111110
0101010000000000
0101000000000000
1001000111111100
0001000100000100
0001000100000100
0001000100000100
0001000111111100
0001000100000100