0001000100001000
0001000010001000
0001000010010000
0001000111111100
1111110000100100
0001000000100100
0011000111111100
0011100100100000
0101010100100000
0101000111111110
1001000001100010
0001000010100010
0001000100101010
0001001000100100
0001010000100000
0001000000100000