0001000000100000
0001000000100000
0001000001010000
0001000010001000
1111110100000100
0001001011111010
0011000000000000
0011100111111100
0101010101010100
0101010101010100
1001000111111100
0001000101010100
0001000101010100
0001000101010100
0001000100000100
0001000100001100