0001000010010000
0001000010010000
0001000100001000
0001000101001000
1111101001000100
0001010010010010
0011000100001000
0011101111111100
0101010001000100
0101000000100000
1001000010100100
0001001010000010
0001001010001010
0001001010001010
0001010001111000
0001000000000000