0001000000100000
0001000000100000
1111110111111100
0001000000100000
0001000000100000
0111110011111000
0101010010101000
0101010010101000
0101010010101000
0101110010111000
0001000000100000
0011100001110000
0101010010101000
1001010100100110
0001000000100000
0001000000100000