0001000001001000
0001000001000100
0001000001011110
0001000111100000
1111110000101000
0001000000010010
0011000001101010
0011100110010110
0101010001001000
0101010001011110
1001000111100000
0001000000100100
0001000000101000
0001000000010010
0001000001101010
0001000110000110