0001000000100000
0001000000100000
0001000111111100
0001000000100000
1111110000100000
0001001111111110
0011000010001000
0011100101000100
0101011001000010
0101010011111000
1001000110001000
0001001001010000
0001000000100000
0001000001010000
0001000110001000
0001011000000110