0001000000100000
0001000000100000
0001001111111110
0001000000100000
1111110111111100
0001000000100100
0011001111111110
0011100000100100
0101010111111100
0101000001000000
1001001111111110
0001000010000100
0001000111001000
0001000000110000
0001000011001100
0001001100000010