0001000000000000
0001000111111100
0001000100100100
0001000100100100
1111110111111100
0001000100100100
0011000100100100
0011100111111100
0101010000100000
0101001111111110
1001000001110000
0001000010101000
0001000100100100
0001001000100010
0001000000100000
0001000000100000