0001000010010000
0001000010010000
0001000010010000
0001001111111100
1111111010010100
0001001010010100
0011001010010100
0011101111111100
0101011010010100
0101001010010100
1001001010010100
0001011111111110
0001000000000000
0001000010010000
0001000100001000
0001001000000100