0001000001000000
0001000000100000
0001001111111110
0001001000000000
1111111001000100
0001001001000100
0011001010000100
0011101010111110
0101011110000100
0101001010100100
1001001010010100
0001001010010100
0001001010000100
0001001010000100
0001010010010100
0001000010001000