0001000000000000
0001001111111110
0001001000000000
0001001011111100
1111111010000100
0001001011111100
0011001010000100
0011101011111100
0101011000100000
0101001111111110
1001001001001000
0001001011001000
0001001000110000
0001001001001000
0001001010000100
0001001111111110