0001000010000000
0001000010001110
0001000100100000
0001001000010000
1111110011000000
0001000010101110
0011000100000100
0011101100010100
0101010100100100
0101000101100100
1001000100100100
0001000100100100
0001000100100100
0001000100000100
0001000100010100
0001000100001000