0001000000000000
0001000111111100
0001000100100100
0001000100100100
1111110111111100
0001000100100100
0011000100100100
0011100111111100
0101010000000000
0101010001000000
1001000000100100
0001001010100010
0001001010001010
0001010010001000
0001000001111000
0001000000000000