0010000100000000
0010000111111110
0010000100010000
0010001000010000
1111101011111110
0010001010010010
0010011010010010
0111001011111110
0110101010010010
1010001010010010
1010001011111110
0010001010010000
0010001001010000
0010001000100000
0010001001011000
0010001010000110