0001000000000000
0001001111111100
0001000000001000
0001000000010000
1111110000100000
0001001110101110
0011001010100010
0011101010101010
0101011010100100
0101001010100100
1001001110101010
0001000000110010
0001000010100000
0001000001000000
0001011111111110
0001000000000000