0100000100000000
0010000111111100
0000101001000100
0001000001001000
1110000010100000
0010000100010000
0010011000001000
0001111111110100
0001000000010000
0001111111110000
0000000100000000
0111111111111100
0000010101000000
0001100100110000
1110000100001110
0000000100000000