0001000100010000
0001000100010010
0001000111010100
0001000100011000
1111110101010010
0001000110010010
0011000100101110
0011100001000000
0101010111111100
0101000100000100
1001000100000100
0001000111111100
0001000100000100
0001000100000100
0001000111111100
0001000100000100