0001000001000000
0001000010100000
0001000100010000
0001001000001000
1111110111110110
0001000000000000
0011001111000100
0011101001010100
0101011001010100
0101001111010100
1001001001010100
0001001001010100
0001001111010100
0001001001000100
0001001001010100
0001001011001000