0001000100000000
0001000010111100
0001001010000100
0001001000000100
1111111011110100
0001001010010100
0011001010010100
0011101011110100
0101011000000100
0101001011110100
1001001010010100
0001001010010100
0001001011110100
0001001000000100
0001001000010100
0001001000001000