0001000000000000
0001001111111010
0001000000001100
0001000001001010
1111101110001000
0001000100101010
0011000100100110
0011100100100010
0101011111111000
0101000100101010
1001000100101100
0001000100101010
0001000100101000
0001001000101010
0001001000100110
0001010000100010