0010000000000000
0010000011111100
0011111010000000
0100100011111000
1000100010001000
0111111011111000
0001010010000000
0010001011111100
0100000000000000
0000000100000000
1111111111111110
0000010101000000
0000100100100000
0011000100011000
1100000100000110
0000000100000000