0001000000100000
0001000000100000
0001001111111110
0001000000100000
1111110111111100
0001000001000000
0011101111111110
0011010010001000
0101000100110100
0101001011100010
1001000000100000
0001000111111100
0001000001110000
0001000010101100
0001001100100010
0001000000100000