0010000001000000
0010000000100000
0010001111111110
0010001000000010
1111101011101100
0010001000100100
0010001001000100
0111001001000100
0110101011101110
1010001000100100
1010001010100100
0010001010100100
0010001001001110
0010010001100000
0010010010011110
0010100100000000