0001000100001000
0001000100001000
0001011111111110
0001000100001000
1111100000000000
0001011111111110
0011000100001000
0011100111111000
0101010100001000
0101000111111000
1001000100001000
0001000100111110
0001011111001000
0001000000001000
0001000000001000
0001000000001000