0001000000100000
0001000100100100
0001000100100100
0001000100100100
1111110111111100
0001000000000000
0011001111111110
0011100000000000
0101010111111100
0101010100000100
1001000100000100
0001000111111100
0001000010001000
0001000001010000
0001001111111110
0001000000000000