0000000100000000
1111111111111110
0000000000000000
0001111111110000
0001000000010000
0001111111110000
0000000000000000
0111111111111100
0100000000000100
0100111111100100
0100100000100100
0100111111101100
0000000100000000
1111111111111110
0000100100100000
0111000100011100