0010000000000110
0010111101111000
0010000100010000
0010000100100000
1111101001000100
0010001001111000
0011001100010000
0110101000100100
0110011001111110
1010101000010010
1010001000010000
0010001001010100
0010001001010010
0010001010010010
0010101001010000
0010010000100000