0001000001000000
0001000000100000
0001001111111110
0001001000000010
1111110000010100
0001000111100000
0011000100000000
0011100100000000
0101010111111100
0101000100010000
1001000100010000
0001011111111110
0001000000000000
0001000010010000
0001000100001000
0001001000000100