0010001000000000
0010001000001110
0010111101110100
0010001001010100
1111010101010100
0010100011010100
0010011101010100
0111000001010100
0110111111010100
1010010001010100
1010011101010100
0010000101010100
0010000101010010
0010000101010100
0010010101011100
0010001010000100