0010000000010100
0010000000010010
0010000000010000
0010011111111110
1111110000010000
0010010010010000
0010010011010010
0111010010010010
0110111111110010
1010010010010100
1010010010010100
0010010111001000
0010101010101010
0010100010011010
0011000110100110
0010000001000010