0010000000000000
0010111110111110
0010100010100010
0010101010101010
1111101010101010
0010101010101010
0010010100010100
0111100010100010
0110100010000000
1010111111111110
1010000100010000
0010001000010000
0010001110100000
0010000001100000
0010000110011000
0010111000000100