0001000000000000
0001001111111100
0001000000000100
0001001111111100
1111110000000100
0001001111111100
0011000000000000
0011101110111100
0101010100100100
0101011110111100
1001000000001000
0001001111111110
0001000100001000
0001000010001000
0001000010101000
0001000000010000