0001000010010000
0001000010001000
0001000111111110
0001000100010000
1111101100010000
0001010111111110
0011000100010000
0011100100010000
0101010111111110
0101000100010000
1001000100010000
0001000111111110
0001000100000000
0001001010100100
0001001001010010
0001010001010010