0001000000100000
0001000100100100
0001000010101000
0001001111111110
1111110010101000
0001000100100100
0011001000100010
0011100100000100
0101010100000100
0101000111011110
1001001001000100
0001010101010100
0001000010011110
0001000100000100
0001001000000100
0001010000000100