0001000100100100
0001000010101000
0001001111111110
0001001000000010
1111110011111000
0001000010001000
0011000011111000
0011100000000000
0101010111111100
0101010000010000
1001000100010000
0001000111111110
0001000001010000
0001000010010000
0001001100010000
0001000000110000