0000000100000000
0010010010001000
0010010000100100
0100001111100100
0000000000000000
0010010000100100
0001001000010010
1010000010100000
1010010010100100
0001110000011100
0000000100000000
0111111111111100
0000010101000000
0001100100110000
1110000100001110
0000000100000000