0001000000100000
0001001111111110
0001000000100000
0001000111111100
1111110000000000
0001000111111100
0011100100000100
0011010111111100
0101000010001000
0101001111111110
1001000000000000
0001000111111100
0001000100000100
0001000100000100
0001000111111100
0001000100000100