0010001000100000
0010001000111100
0010010001000100
0010010101111000
1111100100001000
0010111011111110
0010001000100000
0111010011010010
0110100000011010
1010111100101100
1010000011001100
0010000000011010
0010001100101010
0010110011001000
0010000000101000
0010000000010000