0001000010001000
0001001111111110
0001000010001000
0001001111111110
1111110010001000
0001000100100100
0011001011111010
0011100000100000
0101010111111100
0101010100100100
1001000111111100
0001000100100100
0001000111111100
0001000000100000
0001001111111110
0001000000100000