0010000001000000
0010111111111110
0010000001000000
0010011111111100
1111100000000000
0010001111111000
0011001000001000
0110111111111110
0110100000000010
1010011111111100
1010000100010000
0010001111111000
0010000001000000
0010011111111100
0010000001000000
0010111111111110