0011111111111110
0010100010010100
0010111110010010
0010100010010000
0010111111111110
0010000000010000
0010111110010000
0010100010101000
0010111110100100
0010100011000100
0010100110000000
0010000001000000
0100111111111110
0100000101100000
1000011001011000
0001100001000110