0010000100000100
0010001000010100
0010011111001100
0010010101000100
1111110101010100
0010011111001100
0010010101000110
0111010101011100
0110111111000100
1010000100000100
1010001010100100
0010001011010100
0010010011110000
0010010010000010
0010100001111110
0010000000000000