0001000001000010
0001001110011100
0001001000010000
0001001111011110
1111111010010100
0001001010010100
0011010000100000
0011101111111100
0101011000000100
0101001111111100
1001001000000100
0001001111111100
0001001000000100
0001001111111100
0001000100001000
0001001000000100