0010000000000000
0010000011111110
0010010000101000
0010001011111110
1111101010101010
0010000011111110
0010000000010000
0111000111111110
0110111001000100
1010001011111110
1010001101000100
0010001001111100
0010001001000010
0010001000111110
0010010100000000
0010100011111110