0001000000000000
0001001111011110
0001001001010010
0001001111011110
1111111001010010
0001001111011110
0011001000000010
0011101011111010
0101011010001010
0101001011111010
1001001000000010
0001001011111010
0001001010001010
0001001011111010
0001001000000010
0001001000000110