0000000100000000
0111111111111100
0001000100010000
0001111111110000
0000000100000000
1111111111111110
1000100001000010
0001111101100000
0011001001010000
0100110001001000
0011011111111110
1100000100000000
0111111111111100
0000010101000000
0001100100110000
1110000100001110