0010001010001000
0010111111101000
0010101010101000
0010111111101000
1111101010111110
0010111111101000
0011000000001000
0110111111011100
0110100000011010
1010101111101000
1010100000101000
0010111111001000
0010101010101000
0010101001001000
0010101100101000
0011001000101000