0010000101000000
0010001001101100
0010001001000100
0010001101101100
1111101010100100
0010001110101100
0010001010100100
0111011111111110
0110100100001000
1010001011110100
1010010001000010
0010001111111000
0010000001000000
0010011111111100
0010000001000000
0010000011000000