0010000100001000
0010001010010100
0010001111011110
0010011010110100
1111101111011110
0010001010010100
0010001111011110
0111001010010100
0110101111011110
1010001000010000
1010011111111100
0010000100001000
0010000010010000
0010000001100000
0010000110011000
0010011000000110