0010001010001000
1111100100111110
0010001010001000
0111001010011100
1010100100101010
0010001010001000
1111111111111110
1000000000000010
0011111000001000
0010001011111110
0011111000001000
0010001001001000
0011111000101000
0010100000001000
0010010000101000
0011101000010000