0010011110111100
0010010010100100
0010011110111100
0010000000000000
1111011111111110
0010010000000000
0010010110010000
0111010010011110
0110111111010100
1010010101100100
1010010111010100
0010010101010100
0010010111010100
0010010101101000
0010101111001000
0011000001010100