0010000111110000
0010001000010000
0010001111100000
0010000000100000
1111011111111100
0010000110001000
0010011001010000
0111000110101000
0110111001100100
1010000110100000
1010001001001000
0010111110111110
0010101010101010
0010111110111110
0010001010001010
0010111110111110