0000100000000000
0000100011111100
0000100010000100
0111111010000100
0000100010010100
0000100010001000
1111111110000000
0001010011111100
0001010010100100
0101011010100100
0101010110101000
1001010010101000
0010010010010000
0010010010101000
0101010011000100
1000100010000010