0000000000100000
0111111000100000
0100100000100000
0100100000100000
0100100000100000
0111111000100000
0100001000100000
0100001000100000
0100001001010000
0111111001010000
0100100001010000
0100100001010000
0100100001001000
0100100010001000
0111111010000100
0000000100000010