0010000000100000
0001000000100000
0000000000100000
1111110000100000
0000100111111100
0001000000100000
0001000000100000
0011010000100000
0101101111111110
1001010000100000
0001010001010000
0001000001010000
0001000010001000
0001000010001000
0001000100000100
0001001000000010