0000001000000000
0000000100000000
1111111111111110
0000000000000000
0000100000100000
0001001000010000
0010010001001000
0100100000100100
0001111111110000
0000001010010000
0000010001000100
0000110000101000
0011010000010000
1100010100001000
0000011000000110
0000010000000000