0010000000010000
0001000010010000
0000000010010000
1111110010001000
0000100100001000
0001000100000100
0001001000000100
0011010111111010
0101100010001000
1001010010001000
0001010010001000
0001000010001000
0001000100001000
0001000100001000
0001001000101000
0001010000010000