0000001000000000
0000000100000000
1111111111111110
0000000000000000
0111111111111100
0010000001000000
0011111111111110
0000001001000000
0000110101000000
0111000010000000
0000001100001000
0000010010010000
0000110001100000
0011010100011000
1100011000000110
0000010000000000