0010000001010000
0001000001001000
0000000001001000
1111110001000000
0000101111111110
0001000010000000
0001000010000000
0011010011111100
0101100101000100
1001010101000100
0001010100101000
0001000100101000
0001001000010000
0001001000101000
0001010001000100
0001000110000010