0010000000100000
0001000000100000
0000000100100000
1111100100100000
0000100111111100
0001000100100000
0001001000100000
0011000000100000
0101010111111110
1001100000100000
0001010001010000
0001000001010000
0001000010001000
0001000010001000
0001000100000100
0001001000000010