0010000000100000
0001000000100000
0000000000100000
1111100111111100
0000100100100100
0001000100100100
0001010111111100
0011100100100100
0101010100100100
1001000100100100
0001001111111110
0001000100000100
0001000100000100
0001000100000100
0001000100010100
0001000100001000