0010000010000000
0001000010000000
0000000010000000
1111100111111110
0000100100000000
0001001000000000
0001010000100000
0011000000100000
0101010100101000
1001100100100100
0001011000100100
0001001000100010
0001010000100010
0001000000100000
0001000010100000
0001000001000000