0010000001000000
0001000001001000
0000001001000100
1111101001000000
0000101111111110
0001000010000000
0001010010000000
0011100011111100
0101010101000100
1001000101000100
0001000101001000
0001001001010000
0001001000100000
0001010001010000
0001100010001000
0001001100000110