0010000000000000
0001001111111110
0000000000100000
1111110000100000
0000100001000000
0001000111111100
0001000101010100
0011010101010100
0101100101010100
1001010101010100
0001010101010100
0001000101010100
0001000101010100
0001000101000100
0001000100010100
0001000100001000