0010000001000000
0001000001000000
0000000010011100
1111100100000000
0000101001000000
0001000001000000
0001000010111110
0011010110001000
0101101010001000
1001010010001000
0001010010001000
0001000010001000
0001000010001000
0001000010001000
0001000010101000
0001000010010000