0010000000000000
0001001111111110
0000001000100010
1111101000100010
0000101000100010
0001001111111110
0001011000100010
0011101001100010
0101011001110010
1001001010101010
0001001100100010
0001001000100010
0001001000100010
0001001000000010
0001001111111110
0001001000000010