0010000000000000
0001000011111100
0000000010000100
1111110010000100
0000100011111100
0001000000000000
0001000111111110
0011010100000010
0101100100000010
1001010111111110
0001010100000010
0001000100000010
0001000111111110
0001000100000010
0001000100001010
0001000100000100