0000001000000000
0000000100000000
1111111111111110
0000010010001000
0000100001010000
0011101000100000
1100110000011000
0000100000000110
0011111111111000
0010010001001000
0010100000101000
0011011111011000
0010010001001000
0010011111001000
0010000000101000
0010000000010000