0010000000000000
0001000001010000
0000000001001000
1111110010000100
0000100100100100
0001000000100000
0001000001010000
0011010010001000
0101100100000110
1001010011111000
0001010010001000
0001000010001000
0001000010001000
0001000010001000
0001000011111000
0001000010001000