0010000000100000
0001000000100000
0000001111111110
1111100001010000
0000100010001000
0001000100100100
0001001000100010
0011000111111100
0101010100100100
1001100111111100
0001010100100100
0001000111111100
0001000000100010
0001000000100010
0001000000011110
0001000000000000