0010000000100000
0001000100100000
0000000100111100
1111110100100000
0000100100100000
0001001111111110
0001000000000000
0011010111111100
0101100100000100
1001010111111100
0001010100000100
0001000111111100
0001000100000100
0001000100000100
0001000100010100
0001000100001000