0010000000100000
0001000000100000
0000001111111110
1111100000100000
0000100111111100
0001000000100100
0001001111111110
0011010000100100
0101100111111100
1001010001000000
0001011111111110
0001000010000100
0001000111001000
0001000000110000
0001000011001100
0001001100000010