0010000100000000
0001000100000000
0000000111111110
1111101000000000
0000110111111100
0001000100000100
0001000111111100
0011010100000100
0101100111111100
1001010010000000
0001010011111100
0001000100001000
0001001010010000
0001000001100000
0001000110011000
0001011000000110