0010000000001000
0001000000111100
0000000111100000
1111100000100000
0000101111111110
0001000000100000
0001000111111100
0011010100100100
0101100111111100
1001010100100100
0001010111111100
0001000000100000
0001000111111100
0001000000100000
0001001111111110
0001000000000000