0010000000000000
0001001111111000
0000001000001000
1111001111111000
0001001000001000
0010001111111000
0010000100000000
0110101111111100
1011010001000100
0010101001000100
0010001010100100
0010001000000100
0010001111110100
0010000000000100
0010000000101000
0010000000010000