0010000000011110
0001001111100000
0000000001000100
1111110100100100
0000100010001000
0001000111111100
0001000001000000
0011010001000000
0101101111111110
1001010010000000
0001010011111100
0001000101000100
0001000100101000
0001001000010000
0001000001101000
0001000110000110