0010000100001000
0001000010001000
0000000010010000
1111101111111100
0000100001000000
0001000111111000
0001010001000000
0011101111111110
0101010010000000
1001000100000000
0001000111111100
0001001000100000
0001010000100000
0001100000100000
0001001111111110
0001000000000000