0000000100000000
1111111111111110
0000000000000000
0011111111111100
0010000100000000
0011111111111000
0010000100000000
0011111111111110
0010100100100010
0100010010010110
0000001100000000
0000010010001000
0000110001010000
0011010100110000
1100011000001110
0000010000000000