0010000000000000
0001001111011110
0000001001010010
1111101111011110
0000101000010000
0001001001010010
0001000111001110
0011010000000000
0101100010001000
1001011111111110
0001010010001000
0001000010001000
0001011111111110
0001000010001000
0001000100000100
0001001000000010