0010000010100000
0001000010010000
0000000111111110
1111101100100000
0000100111111100
0001000100100000
0001000111111100
0011010100100000
0101100111111110
1001010100000000
0001010000100000
0001001111111110
0001000001110000
0001000010101000
0001001100100110
0001000000100000