0010000100001000
0001000100001000
0000010101001000
1111001110010000
0001000100011110
0010011111010100
0010010101100100
0110110101010100
1011010101010100
0010111101010100
0010010111010100
0010010101001000
0010010101001000
0010010101010100
0010010001100100
0010010011000010