0010000010001000
0001000010001000
0000001111111110
1111100010001000
0000100010001000
0001000011111000
0001010000100000
0011101111111110
0101011000100010
1001001100110010
0001001010101010
0001001101110110
0001001000100010
0001001000100010
0001001000101010
0001001000100100