0010000001000100
0001001000100100
0000000100101000
1111110001111110
0000100000010000
0001000000101000
0001001101001010
0011010100011100
0101100100101000
1001010101001100
0001010100011010
0001000100101010
0001000101001000
0001000100010000
0001001011111110
0001010000000000