0010000101000100
0001000101000100
0000010101010100
1111001101100100
0001000101011110
0010011111100100
0010000000000100
0110101000110100
1011000101001100
0010101111100100
0010000010000100
0010001111100100
0010000010000100
0010000011100100
0010011100010100
0010000000001000