0010000100000000
0001000100111110
0000000100001000
1111011111010000
0001000100111110
0010000100100010
0010001110100010
0110100000111110
1011000000100010
0010101110111110
0010001010100010
0010001010100010
0010001010111110
0010001110000000
0010001010010100
0010000000100010