0010011110111100
0001010010100100
0000011110111100
1111010010100100
0001011110111100
0010010001000100
0010010111110100
0110110001000100
1011010111110100
0010110101010100
0010010111110100
0010010101010100
0010010111110100
0010010011100100
0010010101010100
0010010001001100