0001000000000000
0001000000000000
0010100011111110
0010010000000100
0100001000001000
1011110000010000
0001000000100000
0001000000100000
1111111001000000
0001000001000000
1001010010000000
0101100010000010
0101000010000010
0001111010000010
1111000001111110
0100000000000000