0001000000000000
0001000111111100
0010100000000100
0010010000001000
0100001000010000
1011110000100000
0001000000100000
0001000000100000
1111111000100000
0001000000100000
1001010000100000
0101100000100000
0101000000100000
0001111000100000
1111000010100000
0100000001000000