0001000010000000
0001000001000000
0010100001000000
0010010000100000
0100001000100000
1011110000100000
0001000000100000
0001000001010000
1111111001010000
0001000001010000
1001010001001000
0101100010001000
0101000010001000
0001111010000100
1111000100000100
0100001000000010