0000100000000100
0000100000000100
0001010000001000
0010001000010000
0100000100100000
1011111001000100
0000100000000100
0000100000001000
0111111100010000
0000100000100010
0100100101000010
0010101000000100
0000100000001000
0000111100010000
1111000000100000
0100000011000000