0001000000100000
0001000000100000
0010100000100000
0010010000100000
0100001000100000
1011110111111110
0001000000100000
0001000000100000
1111111000100000
0001000001010000
1001010001010000
0101100001010000
0101000010001000
0001111010001000
1111000100000100
0100001000000010