0001000000000000
0001000111111000
0010100010001000
0010010011001000
0100001010101000
1011110010101000
0001000010001000
0001000001010000
1111111001010000
0001000001010000
1001010000100000
0101100000100000
0101000001010000
0001111010001000
1111000100000100
0100001000000010