0001000000001000
0001000000011100
0010100111110000
0010010101010000
0100000101010000
1011100101010000
0001000101010000
0001000101010000
1111110101010000
0001000101001000
1001010101001000
0101100101001000
0101000101000100
0001111001000100
1110001001000010
0100010000000000