0001000000100000
0001000000100000
0010100000100000
0010010000100000
0100000111111100
1011100000100000
0001000000100000
0001000000100000
1111110111111110
0001000000100000
1001010001010000
0101100001010000
0101000010001000
0001110010001000
1110000100000100
0100001000000010