0001000000001000
0001000000011100
0010100111100000
0010010100000000
0100000100000000
1011100111111100
0001000101000100
0001000101000100
1111110101000100
0001000100101000
1001010100101000
0101100100010000
0101000100010000
0001111000101000
1110001001000100
0100010010000010