0001000000000000
0001000111111000
0010100001001000
0010010001001000
0100000001001000
1011100001001000
0001000001001000
0001000111111000
1111110010001000
0001000010001000
1001010010001000
0101100010001000
0101000010001000
0001110010001000
1110001111111110
0100000000000000