0001000001000000
0001000001000000
0010100010000000
0010010011111100
0100000100000100
1011101000000100
0001000010000100
0001000001000100
1111110001000100
0001000000010100
1001010000100100
0101100001000100
0101000110000100
0001110000000100
1110000000101000
0100000000010000