0001000000000000
0001000000000000
0010100111111100
0010010000000000
0100000000000000
1011100000000000
0001001111111110
0001000010010000
1111110010010000
0001000010010000
1001010010010000
0101100010010000
0101000100010010
0001110100010010
1110001000001110
0100010000000000