0001000000000000
0001000111111110
0010100000100000
0010010000100000
0100000000100000
1011100111111110
0001000100100010
0001000100100010
1111110101010010
0001000101001010
1001010110001010
0101100100000010
0101000100000010
0001110100000010
1110000100001010
0100000100000100