0001000000000000
0001000000000000
0010100111111100
0010010100100100
0100000100100100
1011100100100100
0001000100100100
0001000100100100
1111110111111100
0001000100100100
1001010100100100
0101100100100100
0101000100100100
0001110100100100
1110000111111100
0100000100000100