0001000000000000
0001000111111100
0010100001000100
0010010001000100
0100000001000100
1011100001000100
0001000010010100
0001000010001000
1111110100000000
0001000011111100
1001010010000100
0101100010000100
0101000010000100
0001110010000100
1110000011111100
0100000010000100