0001000000000000
0001000000000000
0010101111111110
0010010000100000
0100000000100000
1011100001000000
0001000001000000
0001000011111100
1111110110000100
0001001010000100
1001010010000100
0101100010000100
0101000010000100
0001110010000100
1110000011111100
0100000010000100