0001000000000000
0001000111111110
0010100100010000
0010010100010000
0100000100010000
1011100101111100
0001000101010100
0001000101010100
1111110101010100
0001000101010100
1001010101010100
0101100101011100
0101000100010000
0001110100010000
1110000111111110
0100000000000000