0001000000100000
0001000000100000
0010100000100000
0010010111111100
0100000100100100
1011100100100100
0001000100100100
0001000100100100
1111110100100100
0001001111111110
1001010000100000
0101100001010000
0101000001010000
0001110010001000
1110000100000100
0100001000000010