0000010001000000
0010010001000000
0010010001111100
0010010010010000
0010010010001000
0010010100001000
0000001010000000
0000110001100000
0011000000011000
1100111111100110
0000000100000000
0011111111111000
0000100100100000
0000010101000000
0111111111111100
0000000000000000