0001000001001000
0001000001001000
0010100001001000
0010010001001000
0100000111111110
1011100001001000
0001000001001000
0001000001001000
1111110001001000
0001000111111110
1001010000000000
0101100001001000
0101000001000100
0001110010000100
1110000010000010
0100000100000010