0001000000100000
0001000000100000
0010100001111100
0010010010000100
0100000101001000
1011100000110000
0001000000100000
0001000001001000
1111110110010000
0001000000111110
1001010001000010
0101100110100100
0101000000011000
0001110000010000
1110000001100000
0100000110000000