0001000000000000
0001000111111000
0010100100001000
0010010100001000
0100000111111000
1011100100001000
0001000100001000
0001000111111000
1111110101000100
0001000101001000
1001010100110000
0101100100100000
0101000100010000
0001110101001000
1110000110000110
0100000100000000