0001000000100000
0001000000100000
0010100111111100
0010010000100000
0100000000100000
1011100000100000
0001001111111110
0001000000000000
1111110000100000
0001000000100000
1001010111111100
0101100000100000
0101000000100000
0001110000100000
1110001111111110
0100000000000000