0010000000101000
0010000000100100
0101000000100100
0100100000100000
1000001111111110
0111101000100000
0010001000100100
0010001000100100
1111101000100100
0010001110101000
0010101000101000
1011001000010000
0110001000010010
0011110000101010
1110010001000110
0000100010000010