0001000000000000
0001000111011100
0010100101010100
0010010101010100
0100000101010100
1011100101010100
0001000101010100
0001001111111110
1111110101010100
0001000101010100
1001010101010100
0101100101010100
0101000101010100
0001111011010100
1110001000100100
0100010001001100