0001000000001000
0001000000011100
0010100111100000
0010010100000000
0100000100000000
1011100111111110
0001000100000000
0001000100000000
1111110101111100
0001000101000100
1001010101000100
0101100101000100
0101000101000100
0001111001111100
1110001001000100
0100010000000000