0001000001000000
0001000000100000
0010100000100000
0010010111111110
0100000001000000
1011100001000000
0001000010100000
0001000010100010
1111110110100100
0001001010011000
1001010010010000
0101100010001000
0101000010001000
0001110010100100
1110000011000010
0100000010000000