0001000000001000
0001000000111100
0010100111100000
0010010000100000
0100000000100000
1011100111111100
0001000000100000
0001000000100000
1111110000100000
0001001111111110
1001010000100000
0101100001000000
0101000010001000
0001110100000100
1110001111111110
0100000100000010