0001000000100000
0001000000100000
0010100001001000
0010010010001000
0100000111110000
1011100000100000
0001000001000000
0001000010001000
1111110111111100
0001000000100100
1001010000100000
0101100010101000
0101000100100100
0001111000100010
1110000010100000
0100000001000000