0001000000100000
0001000001000000
0010100011111000
0010010010001000
0100000011111000
1011100010001000
0001000011111000
0001000010001010
1111110010001100
0001001111111000
1001010000011000
0101100000101000
0101000001001000
0001110010001000
1110001100101000
0100000000010000