0010000000000000
0010000111111100
0101000000100000
0100100000100000
1000001111111110
0111100000000000
0010000000100000
0010000000100010
1111101110110010
0010000010110100
0010100010101000
1011000100101000
0110000100100100
0011101000100100
1110010010100010
0000000001000000