0001000000000000
0001001111111110
0010100000100000
0010010010100100
0100000100101000
1011100001010000
0001000010001000
0001000100000100
1111110000000000
0001000011111100
1001010010000100
0101100010001000
0101000001010000
0001110000100000
1110000011011000
0100011100000110