0010000000000100
0010000000001110
0101001110111000
0100100010001000
1000000010001000
0111100100101000
0010000100101110
0010001110101000
1111100010101000
0010001010101000
0010101010101000
1011000100111110
0110000100000000
0011101010000000
1110010001111110
0000100000000000