0001000001000000
0001000001000000
0010100010001000
0010010100000100
0100001111111110
1011100000000010
0001000010001000
0001000101000100
1111111001000010
0001000011111000
1001010110001000
0101101001010000
0101000000100000
0001110001010000
1110000110001000
0100011000000110