0001000000000000
0001000111111100
0010100100000100
0010010100000100
0100000100000100
1011100111111100
0001000000000000
0001000000000000
1111110111111110
0001000000100000
1001010000100000
0101100111111100
0101000000100000
0001110000100000
1110001111111110
0100000000000000