0010000000010000
0010000011011000
0101001110010100
0100100010010100
1000000010010000
0111101111111110
0010000010010000
0010000010010100
1111100010010100
0010000011011000
0010101110011000
1011000010010000
0110000010101010
0011100011001010
1110001010000110
0000000100000010