0001000000000000
0001000111111100
0010100100000100
0010010100000100
0100000111111100
1011100100010000
0001000100010000
0001000111111110
1111110100010000
0001000100010000
1001010101111100
0101100101000100
0101000101000100
0001110101000100
1110000101111100
0100001001000100