0001000010000000
0001000011111000
0010100010001000
0010010100001000
0100000111110000
1011100000010000
0001000000010000
0001001111111110
1111110000100000
0001001000100010
1001010101110100
0101100010101000
0101000100100100
0001111000100010
1110000010100000
0100000001000000