0001000001000000
0001000000100000
0010100111111110
0010010000000000
0100000010001000
1011100010001000
0001000101010100
0001001000100010
1111110000000000
0001000000100000
1001010111111110
0101100000100000
0101000000100000
0001110000100000
1110000000100000
0100000000100000