0001000010100000
0001000010010000
0010100010000000
0010010111111110
0100000100010000
1011101100010000
0001010111111100
0001000100010000
1111110100010000
0001000111111100
1001010100010000
0101100100010000
0101000100010000
0001110111111110
1110000100000000
0100000100000000