0001000000000000
0001000111111100
0010100100000100
0010010100000100
0100000111111100
1011100100000100
0001000100000100
0001000111111100
1111110000000000
0001000100010010
1001010111010100
0101100100011000
0101000100010000
0001110101010010
1110000110010010
0100000100001110