0001000000100000
0001000010100010
0010100010100010
0010010100100100
0100000001010000
1011100010001000
0001001100000100
0001000000100010
1111110000100000
0001000010100100
1001010010100100
0101100100101000
0101000001010000
0001110010001000
1110000100000100
0100001000000010