0001000000100000
0001000000100000
0010101111111110
0010010000100000
0100000111111100
1011100100100100
0001000111111100
0001000100100100
1111110111111100
0001000000100000
1001010001110000
0101100010101000
0101000100100100
0001111000100010
1110000000100000
0100000000100000