0001000001001000
0001000001001000
0010100001001000
0010010111111110
0100001001001000
1011110001001000
0001000111111110
0001000000000000
1111111011111100
0001000010000100
1001010010000100
0101100011111100
0101000010000100
0001111010000100
1111000011111100
0100000010000100