0001000000100000
0001000000100000
0010100000100000
0010010111111110
0100000000100000
1011100001110000
0001000010101000
0001000010101000
1111110100100100
0001001000100010
1001010000100000
0101100000000000
0101000101010100
0001110100101010
1110001000101010
0100000000000000