0010000000100000
0010000000100000
0101001111111110
0100100001010000
1000000010001000
0111100100000100
0010001011111010
0010000000000000
1111100000000000
0010001111111110
0010100000100000
1011000100100100
0110000100100010
0011101000100010
1110000010100000
0000000001000000