0001000000000000
0001000111111100
0010100100000100
0010010100000100
0100000111111100
1011100100000100
0001000100000100
0001000111111100
1111110000000000
0001001111111110
1001010000100000
0101100100100000
0101000100111100
0001110100100000
1110001010100000
0100010001111110