0001000000000000
0001000111111100
0010100100100100
0010010100100100
0100000111111100
1011100100100100
0001000100100100
0001000111111100
1111110000000000
0001001111111110
1001010100100000
0101100100100010
0101000100010100
0001110101001000
1110000110000100
0100000100000010