0010000001001000
0010000101001000
0101000101001000
0100101111111110
1000000101001000
0111100101001000
0010000101111000
0010000100000000
1111100111111110
0010000000100000
0010101111111110
1011000001110000
0110000010101000
0011100100100100
1110011000100010
0000000000100000