0011111100100000
0010010000100000
0011111100111110
0010000101000000
0011111101010000
0010010010001000
0011111100001000
0000000100000000
0000011011000000
0001100000110000
1110111111101110
0000000100000000
0011111111111000
0001000100010000
0000100100100000
1111111111111110