0001000000000000
0001000111111100
0010100100100100
0010010100100100
0100000111111100
1011100100100100
0001000100100100
0001000111111100
1111110000100000
0001000000010000
1001010001010100
0101100101000010
0101000101000010
0001110101001010
1110001000111000
0100000000000000