0001000000100000
0001000000100000
0010101111111110
0010010001010000
0100000010001000
1011101100100110
0001000111111100
0001000000100000
1111110000100000
0001001111111110
1001010000000000
0101100000100000
0101000111111100
0001110000100000
1110000000100000
0100001111111110