0001000001000000
0001000000100000
0010100111111110
0010010100000010
0100000100000010
1011100111111110
0001000100000000
0001000100000000
1111110111111110
0001000110101010
1001011010101010
0101101011111110
0101010010101010
0001110010101010
1110000010100010
0100000010000110