0001000000010000
0001001000100000
0010100101111100
0010010101000100
0100000001000100
1011100001111100
0001001101000000
0001000101000000
1111110101111100
0001000101000100
1001010101000100
0101100101111100
0101000101000100
0001111010000000
1110010001111110
0100000000000000