0001000000100000
0001000000100000
0010101111111110
0010010000100000
0100000111111100
1011100100000100
0001000111111100
0001000100000100
1111110111111100
0001000100000100
1001010111111100
0101100100000100
0101001111111110
0001110010001000
1110000100000100
0100001000000010