0010000000100000
0010000000100000
0101000000111110
0100100000100000
1000000000100000
0111101111111110
0010001000000010
0010001100100110
1111101010001010
0010001001010010
0010101100100110
1011001001010010
0110001010001010
0011101100100110
1110001111111110
0000001000000010