0010000100100000
0010000100111100
0010000101000100
0101001010101000
1000101000010000
0111011010101000
0010101011000110
0010001010111100
1111101010100100
0010001010111100
0010101010100100
1011001010111100
0110001000100100
0011101000100100
1110001000100100
0000001000101100