0001000000100000
0001000001000000
0010100111111100
0010010100100100
0100000101111100
1011100110001100
0001000101010100
0001000100100100
1111110101010100
0001000111111100
1001010000100000
0101100000010000
0101000101010100
0001110101000010
1110000101001010
0100001000111000