0000100000000100
0111111101111000
0000100001000000
0011111001000000
0010101001111110
0011111001001000
0010101001001000
1111111101001000
0000100110001000
0000011011000000
0001100000110000
1110111111101110
0000000100000000
0011111111111000
0000100100100000
1111111111111110