0010000100000000
0010000100000010
0101000100011100
0100111111010000
1000000100010000
0111011111010000
0010010101011110
0010011111010100
1111010101010100
0010011111010100
1010000100010100
0111011111010100
0010000100010100
0011000100100100
1100000100100100
0000000101000100