0010000000100000
0010000000100000
0101001111111110
0100100000100000
1000001010101010
0111100100100100
0010001010101010
0010000000100000
1111101010101010
0010000100100100
0010101010101010
1011000001010000
0110000001010000
0011100010001000
1110000100000100
0000011000000010