0001000010001000
0001000010001000
0010100111111100
0010010010001000
0100000010001000
1011101111111110
0001000000100000
0001000111111100
1111110100100100
0001000111111100
1001010100100100
0101100111111100
0101000000000000
0001110010001000
1110000100000100
0100001000000010