0001000111111000
0001000001010000
0010100000100000
0010011111111100
0100000010100100
1011100100101000
0001001010100000
0001000001000000
1111110111111100
0001000101010100
1001010110001100
0101100101110100
0101000101010100
0001110101110100
1110000100000100
0100000100001100