0010000000000000
0010011111111110
0101010000000000
0100111000101000
1000010101001000
0111011111101110
0010010010010010
0010010010000100
1111011010100000
0010011010101000
1010011111101000
0111010010001000
0010010010010100
0011010100010100
1100100100100100
0001001001000010