0010000010010100
0010000010010010
0101001111110010
0100100010010000
1000011111111110
0111000000010000
0010001111010010
0010001001010010
1111001001010010
0010001111010100
1010010001010100
0111001010001100
0010000011101010
0011011100001010
1100000000010110
0000000000100010