0001000100100100
0001000010101000
0010101111111110
0010011000000010
0100000011111000
1011100010001000
0001000011111000
0001000000001100
1111110111110000
0001000000100000
1001010111111100
0101100000100000
0101001111111110
0001110000100000
1110000010100000
0100000001000000