0010000000000000
0010001111011110
0101001001010010
0100101111011110
1000001001010010
0111101111011110
0010001000000010
0010001011111010
1111101010001010
0010001011111010
0010101010001010
1011001011111010
0110001010001010
0011101000000010
1110001000001010
0000001000000100