0001000000000000
0001000111111100
0010100000100000
0010011111111110
0100001000100010
1011100110101100
0001000000100000
0001000110101100
1111110000000000
0001000111111100
1001010100100100
0101100100100100
0101000111111100
0001110100100100
1110000100100100
0100000111111100