0010000000010000
0010001111001000
0101001001111110
0100101001000000
1000001001100010
0111101111010100
0010001000000000
0010001000111110
1111101111001000
0010001001001000
0010111001111110
1011001001001000
0110001001001000
0011101111001000
1110001001001000
0000000000001000