0001000010001000
0001001111111110
0010100010001000
0010010000000000
0100000101001000
1011101111111110
0001000101001000
0001000101111000
1111110100000000
0001000111111100
1001010000100000
0101101111111110
0101000001110000
0001110010101000
1110001100100110
0100000000100000