0010000000000000
0010001001111100
0101000101000100
0100100101110100
1000000001010100
0111100001010100
0010011011111110
0010001010000010
1111101010111010
0010001010101010
0010101010111010
1011001010000010
0110001010001010
0011101010000100
1110010100000000
0000100011111110