0010000001000000
0010000000100000
0101001111111110
0100100010001000
1000000001010010
0111011110101100
0010001010101010
0010001010101000
1111010110101100
0010000000000000
1010000100000100
0111000111111100
0010000100000100
0011000111111100
1100000100000100
0000001000000100