0001000000010000
0001000001111100
0010101001010100
0010010101111100
0100000100010000
1011100011111110
0001000000000000
0001001101111100
1111110101000100
0001000101111100
1001010101000000
0101100101111100
0101000101000100
0001110101111100
1110001010000000
0100010001111110