0010000001000000
0010000000100000
0101001111111110
0100101000000010
1000010100010100
0111100111011110
0010001001010010
0010010101010100
1111101010001000
0010000101110100
0010101000000010
1011000111111100
0110000000100000
0011100100100100
1110001000100010
0000000001100000