0001000111111100
0001000100000100
0010100111111100
0010010100000100
0100000111111100
0111110010001000
1001000111111100
0001000010001000
0111101111111110
0001000010001000
1001010100100100
0101101010101010
0101000001110000
0001110010101000
1110000100100100
0100000001100000