0010001111011110
0010001001010010
0101001111011110
0100101001010010
1000001111011110
0111101000100010
0010001011111010
0010001000100010
1111101011111010
0010001010101010
0010101011111010
1011001010101010
0110001011111010
0011101001110010
1110001010101010
0000001000100110