0010000010001000
0010001111111110
0010000010001000
0101010000010010
1000101011111110
0111000000010000
0010010011111110
0010001010010010
1111101011111110
0010000010010010
0010100111111110
1011001010010010
0110011000000100
0011101011111110
1110001001000100
0000001000101100