0010000101001000
0010000101001100
0101001010101010
0100100000001000
1000001111111110
0111100101001000
0010001101101000
0010000101001010
1111101101101010
0010000101001010
0010101101101100
1011000101001100
0110000101101010
0011101110001010
1110000000010110
0000000000100010