0001000000000000
0001000111111100
0011110010001000
0010000010001000
0100000010001000
1011110010001000
0001000010001000
0001001111111110
1111110010001000
0001000010001000
0001000010001000
0001000010001000
0001010010001000
0001100100001000
0001000100001000
0000001000001000