0001000000000000
0001000111111000
0011110001001000
0010000001001000
0100000001001000
1011110001001000
0001000001001000
0001000111111000
1111110010001000
0001000010001000
0001000010001000
0001000010001000
0001010010001000
0001100010001000
0001001111111110
0000000000000000