0001000000000000
0001000111111100
0011110100100100
0010000100100100
0100000100100100
1011110100100100
0001000100100100
0001000111111100
1111110100000100
0001000100000000
0001000100000000
0001000100000000
0001010100000010
0001100100000010
0001000011111110
0000000000000000