0001000000000000
0001000000000000
0011110111111100
0010000100100100
0100000100100100
1011110100100100
0001000100100100
0001000100100100
1111110111111100
0001000100100100
0001000100100100
0001000100100100
0001010100100100
0001100100100100
0001000111111100
0000000100000100