0001000000100000
0001000000100000
0011110000100000
0010000000100000
0100000111111100
1011110100100100
0001000100100100
0001000100100100
1111110100100100
0001000111111100
0001000100100100
0001000100100100
0001010100100100
0001100100100100
0001000111111100
0000000100000100