0010000000000000
0010000010000000
0011101100011110
0010001001010010
0100001001010010
0111101001010010
1010001001010010
0010001001010010
1111101001010010
0010001011010010
0010001101011010
0010001001010100
0010100010010000
0011000010010000
0010000100010000
0000001000010000