0001000000100000
0001000100100100
0011110010100100
0010000010100100
0100000010101000
1011110000100000
0001001111111100
0001000000000100
1111110000000100
0001000000000100
0001000111111100
0001000000000100
0001010000000100
0001100000000100
0001001111111100
0000000000000100