0001000000000000
0001000011111100
0011110010000100
0010000010000100
0100000010000100
1011110010000100
0001000011111100
0001000000000000
1111110000000000
0001000111111110
0001000100000010
0001000100000010
0001010100000010
0001100100000010
0001000111111110
0000000100000010