0001000000100000
0001000100100100
0011110100100100
0010000100100100
0100000111111100
1011110000000000
0001000111111100
0001000000000100
1111110000000100
0001000111111100
0001000100000000
0001000100000000
0001010100000010
0001100100000010
0001000011111110
0000000000000000