0001000010010000
0001000010010100
0011110100010100
0010000100011000
0100001100010000
1011110100110010
0001000101010010
0001000100001110
1111110100100000
0001000000100000
0001001111111110
0001000000100000
0001010000100000
0001100000100000
0001000000100000
0000000000100000