0010000000010000
0010000000010100
0011100000010010
0010000000010000
0100001111111110
0111100000010000
1010000010010000
0010000001010000
1111100001001000
0010000000001000
0010000010001000
0010001010101000
0010101010011010
0011001010101010
0010010001100110
0000000000000010