0001000000000100
0001000000011110
0011110111100000
0010000000100010
0100000100010010
1011110010010100
0001000010000000
0001000000001000
1111110111111110
0001000000001000
0001000010001000
0001000001001000
0001010001001000
0001100000001000
0001000000101000
0000000000010000