0010001000001000
0010000100001000
0011100100010000
0100000000100000
0100001111111000
0111101000001000
1010001000001000
0010001000001000
1111101111111000
0010000010100000
0010000010100000
0010100100100000
0011000100100100
0010001000100100
0000010000011100
0000100000000000