0010000100001000
0010000010001000
0011100010010000
0010001111111100
0100000000100100
0111100000100100
1010001111111100
0010001000100000
1111101000100000
0010001111111110
0010000001100010
0010000010100010
0010100100101010
0011001000100100
0010010000100000
0000000000100000