0001000001000000
0001000000100000
0011110111111100
0010000100000100
0100000100000100
1011110111111100
0001000100000100
0001000100000100
1111110111111100
0001000100100000
0001000100100010
0001000100010100
0001010100001000
0001100101000100
0001000110000010
0000000100000000