0010000000000000
0010011101111110
0011110100000100
0010010100000100
0100010101110100
0111110101010100
1010011001010100
0010010101010100
1111110101010100
0010010101010100
0010010101110100
0010010101010100
0010111000000100
0011010000000100
0010010000010100
0000010000001000