0010000010001000
0010000010001000
0011101111111110
0010000010001000
0100000010101000
0111100000100000
1010001111111110
0010000001000000
1111100010000000
0010000011111100
0010000110000100
0010001010000100
0010100010000100
0011000010000100
0010000011111100
0000000010000100