0001000000000000
0001000111111100
0011110100000100
0010000100100100
0100000100100100
1011110111111100
0001000100100100
0001000100100100
1111110101110100
0001000101010100
0001000101010100
0001000101110100
0001010100000100
0001100100000100
0001000111111100
0000000100000100