0010000001000000
0010000000100000
0011101111111110
0010001000000010
0100010000000100
0111100000000000
1010001111111110
0010000000100000
1111100000100000
0010000100100000
0010000100111100
0010000100100000
0010101010100000
0011001001100000
0010010000111110
0000100000000000