0010000010001000
0010000010001000
0011101111111110
0010000010001000
0100000010101000
0111100000100000
1010000111111100
0010000100100100
1111100100100100
0010000100100100
0010011111111110
0010000000100000
0010100001010000
0011000010001000
0010000100000100
0000001000000010