0001000000001000
0001000000111100
0011110111100000
0010000000100000
0100000000100000
1011110111111110
0001000000100000
0001000010100000
1111110100101100
0001000100100100
0001000100100100
0001000110101100
0001010100100100
0001100100100100
0001000111111100
0000000100000100