0001000010100000
0001000100101100
0011110100100100
0010000100100100
0100000110101100
1011110100100100
0001000100100100
0001000111111100
1111110000100000
0001000111111100
0001000010001000
0001000001010000
0001010000100000
0001100001010000
0001000010001000
0000001100000110