0001000000011110
0001001111100000
0011110001000100
0010000100100100
0100000010001000
1011110111111100
0001000001000000
0001000001000000
1111110111111110
0001000010000000
0001000011111100
0001000101000100
0001010100101000
0001101000010000
0001000001101000
0000000110000110