0010000100000100
0010000010001000
0011101111111110
0010000000100000
0100000000100000
0111100111111100
1010000000100000
0010000000100000
1111101111111110
0010000000000000
0010000000100000
0010001111111110
0010100000100000
0011000001010000
0010000010001000
0000001100000110