0010000000100000
0010000000100000
0011101111111110
0100000000100000
0100000111111100
0111100100000100
1010000111111100
0010000100000100
1111100111111100
0010000100000100
0010000111111100
0010100100000100
0011011111111110
0010000010001000
0000000100000100
0000001000000010