0010000000101000
0010000000100100
0011101111111110
0010000000100000
0100000111111100
0111100100100100
1010000111111100
0010000100100100
1111100111111100
0010000100100100
0010000000001000
0010001111111110
0010100010001000
0011000001001000
0010000001001000
0000000000011000