0010000010100000
0010010010100100
0011101010101000
0010000010100000
0100011111111100
0111100100010000
1010000010100000
0010011111111100
1111100001000000
0010001111111000
0010000001000000
0010011111111100
0010100010100000
0011000100010000
0010001000001000
0000110000000110