0010000100001000
0010000010010000
0011101111111100
0010000010010000
0100001010010100
0111100110011000
1010000010010000
0010011111111110
1111100000000000
0010000111111000
0010000100001000
0010000100001000
0010100111111000
0011000100001000
0010000100001000
0000000111111000