0001000001000000
0001000001000000
0010100001000000
0010010011111110
0101001010000000
1111110100100000
0100010000100000
0111110111111100
0100010000100100
0111110000100100
0100000001000100
0101000001000100
0100100001000100
0101010010000100
0110010010101000
0100000100010000