0000100000000000
0000100001111100
0001010001000100
0001001001000100
0010100101000100
0111111001111100
1010001001000100
0011111001000100
0010001001000100
0011111001111100
0010000001000100
0010100001000100
0010010001000100
0010101001000100
0011001011111110
0010000000000000