0001000000100000
0001000000100000
0010100001010000
0010010010001000
0101001100000100
1111111000010010
0100010000100000
0111110001000000
0100010110001000
0111110000010000
0100000000100000
0101000001000100
0100100110001000
0101010000010000
0110010001100000
0100001110000000