0000100000010000
0000100000010000
0001010010010010
0001001010010010
0010100110010010
0111111010010010
1010001011111110
0011111000010000
0010001000010000
0011111010010010
0010000010010010
0010100010010010
0010010010010010
0010101010010010
0011001011111110
0010000000000010