0111111100100000
0001000001010000
0001111010001000
0010001101000110
0101010010010000
0000100100100100
0001000001001000
0110000110010000
0000011001100000
0001111111111000
1110100000010110
0000111111110000
0000100000010000
0000111111110100
0000100001101000
0000110000011100