0001000000100000
0001000000100000
0010101111111110
0010010001010000
0101000010101000
1111100100100100
0100101011111010
0111100000100000
0100100010101000
0111100010001000
0100001111111110
0101000010001000
0100100010001000
0101100010001000
0110100100001000
0100001000001000