0001000000000000
0001000011111100
0010100010000100
0010010011110100
0101001010010100
1111110111111110
0100010100000010
0111110011111100
0100010010000100
0111110011111100
0100000010000100
0101000011111100
0100100010000100
0101010010000100
0110010010010100
0100000010001000