0001000001000000
0001001110111110
0010101000010010
0010011010010010
0101001001010010
1111101010101010
0100101100100100
0111100001000000
0100101111111110
0111101000100010
0100001000100010
0101001111111110
0100101000100010
0101101000100010
0110101111111110
0100001000000010