0001000010000100
0001000001001000
0010100111111110
0010010000010000
0101001011111100
1111110000100000
0100010111111110
0111110001000000
0100010001111100
0111110010100100
0100000100100100
0101000011111100
0100100001000100
0101010001000100
0110010111111110
0100000000000000