0011111111111110
0010100010001000
0010111110001010
0010000000001000
0010111110111110
0010100010001000
0010111110001000
0010100011010100
0010100110100010
0010001111111000
0010011000010110
0010101111110000
0010001000010000
0100001111110100
0100001001101000
1000001100011100