0001010100101000
0001011110111110
0010100101001000
0010011110111110
0101001100011000
1111110110101010
0100100101000110
0111101111111100
0100101000000100
0111101111111100
0100001000000100
0101001111111100
0100101000000100
0101101111111100
0110100100001000
0100001000000100