0010000000000000
0010000111110000
0010000100010000
0011110100010000
0100010100010000
0100100100010000
1010000100010000
0010000100010000
0010000100010000
0010000100010000
0010000100010000
0010000100010010
0010100100010010
0011001000010010
0010001000001110
0000010000000000