0010000000001000
0010000000111100
0010000111100000
0011110000100000
0100010000100000
0100100000100000
1000000000100000
0010001111111110
0010000000100000
0010000000100000
0010000000100000
0010010000100000
0010100000100000
0011000000100000
0010000111111100
0000000000000000