0010000001010000
0010000001001000
0010000001000000
0011110001011100
0100010111100000
0100100001000000
1010000001011110
0010001111100000
0010000001000100
0010000001001000
0010000000110000
0010000000100010
0010100001010010
0011000010001010
0010001100000110
0000000000000010