0010000001000000
0010000001000000
0010000010000000
0011101111111100
0100101000000100
0101001000000100
1000001011110100
0010001010010100
0010001010010100
0010001010010100
0010001010010100
0010001011110100
0010101000000100
0011001000000100
0010001000010100
0000001000001000