0010000010000000
0010000010000000
0010000011111000
0011100100001000
0100101100010000
0101010010100000
1000000001000000
0010000010100000
0010000100011000
0010001000000110
0010010111111000
0010000100001000
0010100100001000
0011000100001000
0010000111111000
0000000100001000