0010000001000000
0010000000100000
0010000000100000
0011110111111110
0100010000000000
0100100010001000
1010000100000100
0010001000000010
0010000010001000
0010000010001000
0010000001010000
0010000001010000
0010100000100000
0011000001010000
0010000010001000
0000001100000110