0010000000000000
0010000111111100
0010000100000100
0011110111100100
0100010100100100
0100101111111110
1000001000000010
0010000111111100
0010000100000100
0010000111111100
0010000100000100
0010010111111100
0010100100000100
0011000100000100
0010000100010100
0000000100001000