0010001111111000
0010001000001000
0010001111111000
0011101000001000
0100101111111000
0101000000000000
1000011111111100
0010010010100100
0010010010100100
0010011111111100
0010000000000000
0010001111111000
0010100100010000
0011000011100000
0010001100011000
0000110000000110