0010000000000000
0111110011111100
0100010010000100
0111110011111100
0100010010000100
0111110011111100
0000000001000000
1111111011111110
1001001100010010
1111111010010010
1001001010101010
1111111010000010
0000000011111010
1111111000000010
0100010000010100
1000010000001000