0000000000000000
0101111001111010
0100010000100010
0101111001111010
0100010000100010
0101111001111010
0100001000000010
0100110011100010
0100100000100010
0100111011100010
0100100000100010
0100111111100010
0100001010000010
0100010010010010
0101100001111010
0100000000000100