1011111011111010
1000100000100010
1011111011111010
1000100000100010
1011111011111010
1000000000000010
1001110001000010
1000010001111010
1011111101010010
1001001010010010
1001111000010010
1001001001010010
1001111000100010
1001001110100010
1111111001010010
1000001010010110