0000000000001000
0111111111001000
0100000001001000
0100001101010010
0101110001011110
0100010001000010
0101111101000000
0101010101011110
0101010101010010
0101111101010010
0100010001011110
0100010101010010
0101111101000000
0100100100100010
1000000000011110
0000000000000000