0000000000000000
0111110111111100
0101000100000100
0111110100110100
0101000111000100
0111110101000100
0101000111110100
0101000101010100
0111110101010100
0000010111110100
0101010101000100
0101010101010100
0101010111110100
1000010100010110
0001011000000110
0000110000000010