0001111111110000
0001000011010000
0001011100010000
0001000100010000
0001011111010000
0001010101010000
0010011111001010
0010000100101010
0100111111100110
1000000000100010
0111110011111000
0101010010101000
0111110011111000
0101010010101010
0111110111111110
1000001000000010