0000000000000000
0111110111111000
0100010000010000
0100010000100000
0100010011000000
0100110111111100
0110110001010100
0101010010010100
0101010100100100
0101010001000100
0110110010000100
0100010100101000
0100010000010000
0100001000000010
0100000111111110
1000000000000000