0000100000000100
0000100000000100
0000100001000100
0111111001000100
0000100001000100
0000100001000100
1111111101000100
0000100001001100
0010100001010100
0010100001100100
0010111000000100
0010100000000100
0010100000000100
0101100000000000
0100111111111110
1000000000000000