0000100000010000
0000100000010000
0000100000010000
0111111000010000
0000100010010010
0000100010010010
1111111010010010
0000100010010010
0010100010010010
0010100010010010
0010111010010010
0010100011111110
0010100000000010
0101100000000000
0100111111111110
1000000000000000