0000100000100000
0000100000100000
0000100001010000
0111111001010000
0000100010001000
0000100101000100
1111111000100010
0000100011111000
0010100000001000
0010100000010000
0010111000010000
0010100000100000
0010100000100000
0101100000000000
0100111111111110
1000000000000000