0000100000100000
0000100000010000
0000100000010000
0111111011111110
0000100000000100
0000100001000100
1111111101000100
0000100000101000
0010100000101000
0010100000101000
0010111000010000
0010100011111110
0010100000000000
0101100000000000
0100111111111110
1000000000000000