0001000000101000
0001000000100100
0001000000100000
0111110111111100
0001000100100000
0001000100100100
1111110100100100
0001000100101000
0001000100101000
0101000100010000
0101110110010100
0101000100101100
0111000001000100
0101000000000000
0100111111111110
1000000000000000