0000100000000000
0000100011111000
0000100010001000
0111111010001000
0000100010001000
0000100011111000
1111111000100000
0000100010100000
0010100010111100
0010100010100000
0010111010100000
0010100101100000
0010101000111100
0101100000000000
0100111111111110
1000000000000000