0000100000010000
0000100010010010
0000100001010100
0111111000010000
0000100011111110
0000100010000010
1111111011111110
0000100010000010
0010100011111110
0010100010000010
0010111010000010
0010100010001010
0010100010000100
0101100000000000
0100111111111110
1000000000000000