0000100001010000
0000100001001000
0000100010000000
0111111011111110
0000100110010000
0000101010010000
1111111011111100
0000100010010000
0010100010010000
0010100011111100
0010111010010000
0010100010010000
0010100011111110
0101100010000000
0100111111111110
1000000000000000