0001000000000000
0001001111111110
0001000100100100
0111101000100010
0001011111111110
0001001101110110
1111101010101010
0001001101110110
0001001000100010
0101001101110110
0101101010101010
0101001101110110
0101001000100010
0111001000000110
0101000000000000
1000111111111110