0001000100001000
0001010100101000
0001011110111110
0111100101001000
0001011110111110
0001001100011000
1111110110101010
0001100101000110
0001001111111000
0101001000001000
0101101001001000
0101001001001000
0101000010100000
0111000100010000
0101001000001000
1000111111111110