0001000000000000
0001000000000000
0001111111111100
0010000010000000
0010000010000000
0100000010000000
0001111111111000
0001000010000000
0001000010000000
0001000010000000
1111111111111110
0000000010000000
0000000010000000
0000000010000000
0000000010000000
0000000010000000