0000001000000000
0000010000000000
0001111111110000
0001000000010000
0001111111110000
0001000000010000
0001111111110000
0000000000000000
0111111111111100
0000000100000000
0000000100000000
0011111111111000
0000000100000000
0000000100000000
1111111111111110
0000000000000000