0001000000100000
0001000000100000
0010000001010000
0111110001010000
0100010010001000
0100010100100100
0100011000010010
0100010000010000
0111110111111100
0100010000000100
0100010000001000
0100010010001000
0100010001010000
0111110000100000
0100010000010000
0000000000010000