0001000010000100
0001000001001000
0010000000000000
0111110011111100
0100010001001000
0100010001001000
0100010001001000
0100010001001000
0111110111111110
0100010001001000
0100010001001000
0100010001001000
0100010001001000
0111110010001000
0100010010001000
0000000100001000