0000000000000000
0000000000000000
1111111011111110
0001000000100000
0001000000100000
0010000001000000
0111111011111100
0100001010000100
0100001010000100
0100001010000100
0111111011111100
0100001010000100
0100001010000100
0100001010000100
0111111011111100
0100001010000100