0010000000000000
0010000000000000
0111110011111100
0100010000000100
1000100000000100
0111111000000100
0101001000000100
0101001011111100
0111111010000100
0101001010000000
0101001010000000
0111111010000000
0000000010000010
1010101010000010
1010101001111110
0000000000000000