0010000001000000
0010000000100000
0111110000100000
0100010111111110
1000100010001000
0111111010001000
0101001010001000
0101001010001000
0111111010001000
0101001001010000
0101001001010000
0111111000100000
0000000000100000
1010101001010000
1010101010001000
0000000100000110