0010000000001000
0010000000101000
0111110000101000
0100010000101000
1000100001000100
0111111001000100
0101001010000010
0101001101111100
0111111000100100
0101001000100100
0101001000100100
0111111000100100
0000000001000100
1010101001000100
1010101010010100
0000000100001000