0010000000100000
0010000000100000
0111100001010000
0100100001010000
1001000010001000
0111110100100100
0101011000010010
0101010000010000
0111110111111100
0101010000000100
0101010000001000
0111110010001000
0000000001010000
1010101000100000
1010101000010000
0000000000010000