0010000000100000
0010000000010000
0111110000010000
0100010011111110
1000100010000010
0111111010000100
0101001001000000
0101001001000100
0111111001001000
0101001001010000
0101001001100000
0111111001000010
0000000001000010
1010101001000010
1010101000111110
0000000000000000