0010000001000000
0010000001000000
0111110011111100
0100010010000100
1000100100000100
0111111011110100
0101001010010100
0101001010010100
0111111011110100
0101001010000100
0101001010010100
0111111010001000
0000000010000010
1010101010000010
1010101001111110
0000000000000000