0010000000000000
0010000011111110
0111110010000010
0100010010000010
1000100010111010
0111111010000010
0101001010000010
0101001010111010
0111111010101010
0101001010101010
0101001010101010
0111111010111010
0000000010000010
1010101010000010
1010101010001010
0000000010000100