0010000001000000
0010000001000100
0111100111110100
0100100001001000
1001000001010000
0111110111111110
0101010001000000
0101010010000000
0111110111111110
0101011001000000
0101010010000000
0111110011111100
0000000000000100
1010101000000100
1010101000101000
0000000000010000