0010000010000100
0010000001000100
0111110001001000
0100010000000000
1000100011111100
0111111010000100
0101001010000100
0101001010000100
0111111011111100
0101001001001000
0101001001001000
0111111001001000
0000000001001000
1010101010001010
1010101010001010
0000000100000110