0010000010000000
0010000010000000
0111100011111000
0100100100001000
1001001000010000
0111110111111100
0101010100100100
0101010100100100
0111110100100100
0101010111111100
0101010001010000
0111110001010000
0000000010010000
1010101010010010
1010101100010010
0000001000001110