0010000001000000
0001001001001000
0100010001000100
0010000000010100
0000100001100000
0111001110000000
0010100000000000
0000111111100000
0001000001000000
0011111111110000
0101000100010000
0001111111110000
0001000100010000
0001111111110000
0010010010001000
0100001001000100