0010000000100000
0010000000010000
0111100111111110
0100100000000000
1001000011111100
0111110010000100
0101010011111100
0101010000000000
0111110011111100
0101010000001000
0101010000010000
0111110111111110
0000000000010000
1010101000010000
1010101001010000
0000000000100000