0010000000100000
0010000000010000
0111110011111110
0100010000000000
1000100001000100
0111111000101000
0101001111111110
0101001000100000
0111111000100000
0101001111111110
0101001001000100
0111111011000100
0000000000101000
1010101000011000
1010101001100100
0000000110000010