0010000000000000
0010000011111100
0111100000000100
0100100001111100
1001000000000100
0111110011111100
0101010000000000
0101010111111110
0111110100100010
0101010000100000
0101010011111100
0111110010100100
0000000010100100
1010101010110100
1010101010101000
0000000000100000