0010000000000000
0010000000100000
0111110011001110
0100010010000010
1000100010000010
0111111011101110
0101001010000010
0101001010000010
0111111011111110
0101001000101000
0101001000101000
0111111000101000
0000000001001000
1010101001001010
1010101010001010
0000000100000110