0010000000010000
0010000000010000
0111110000101000
0100010001000100
1000100010100010
0111111100010000
0101001011111100
0101001000000100
0111111000001000
0101001000100000
0101001000010000
0111111000000100
0000000010100010
1010101010100010
1010101010101010
0000000100011000