0010000000011110
0010001111100000
0111100001000100
0100100100100100
1001000010001000
0111110111111100
0101010001000000
0101010001000000
0111110111111110
0101010010000000
0101010011111100
0111110101000100
0000000100101000
1010101000010000
1010101001101000
0000000110000110