0010000000010000
0010000000010000
0111100000111100
0100101110010100
1001000011111110
0111110010010100
0101010100111100
0101010100010000
0111111110111100
0101010010010000
0101010011111110
0111111010010000
0000000110010000
1010101011000000
1010101010111110
0000000100000000