0010000000001000
0010000000001100
0111000000001010
1001001111111110
0010001000001000
1111101000001000
1010101011101000
1010101000001010
1111101000001010
1010101011101100
1010101010101100
1111101010101000
0000001011101010
1010101000011010
1010101000100110
0000010001000010