0010000010000000
0010000010011110
0111100010010010
0100101111110010
1001000010010010
0111110010011110
0101010010010010
0101010111010010
0111110101010010
0101010101011110
0101010101010010
0111110101010010
0000000111010010
1010101000100010
1010101000101010
0000000001000100