0010000001000000
0010000000100000
0111100111111110
0100100100000010
1001001000000100
0111110111111100
0101010001000000
0101010010001000
0111110111111100
0101010000100100
0101010000100000
0111110111111100
0000000000100000
1010101000100000
1010101111111110
0000000000000000