0010000000100000
0010000000010000
0111110011111110
0100010000000000
1000100001000100
0111111000101000
0101001011111110
0101001010100010
0111111000010000
0101001011111110
0101001000100000
0111111000111100
0000000000100100
1010101001000100
1010101001010100
0000000010001000