0010000000000000
0010000111111000
0111100100001000
0100100111111000
1001000100001000
0111110111111000
0101010000000000
0101010000000000
0111110111011100
0101010001000100
0101010101010100
0111110011001100
0000000101010100
1010101001000100
1010101001010100
0000000011001000