0010000000100000
0010000000111100
0111100000100000
0100100111111110
1001000100100010
0111110100111000
0101010111100100
0101010100011100
0111110100100000
0101010100010000
0101010111111110
0111110101000100
0000000100101000
1010101000010000
1010101000101000
0000010011000110