0010001000001000
0010000100001000
0111100100001000
0100100000111110
1001001110101010
0111110010101010
0101010010111110
0101010100101010
0111110110101010
0101011101101010
0101010100111110
0111110100101010
0000000100001000
1010101100001000
1010101100001000
0000000100001000