0010000010000100
0010000001001000
0111100111111110
0100100000010000
1001000011111100
0111110000100000
0101010111111110
0101010001000000
0111110001111100
0101010010100100
0101010100100100
0111110011111100
0000000001000100
1010101001000100
1010101111111110
0000000000000000