0010000000100000
0010001111111110
0111100000100000
0100100111111100
1001000100100100
0111110111111100
0101010100100100
0101010111111100
0111110000100010
0101010111111110
0101010000001000
0111110111111110
0000000100001000
1010101010001000
1010101000101000
0000000000010000