0010000000010010
0010000111010100
0111100001001000
0100101010001010
1001000100000100
0111111000000010
0101010111011100
0101010001010100
0111110001100010
0101010111000000
0101010100011110
0111110111000010
0000000001010100
1010101001001000
1010101101010100
0000000010100010