0010000001000100
0010000000100100
0111110000101000
0100010011111110
1000100010010010
0111111011010110
0101001010111010
0101001010010010
0111111011111110
0101001000000000
0101001001111100
0111111001000100
0000000001111100
1010101001000100
1010101001111100
0000000001000100