0010000000010100
0010000000010010
0111001111111110
1001001000010000
0010001011110000
1111101000010100
1010101011110100
1010101010111000
1111101011101010
1010101000010110
1010110001000010
1111100000100100
0000001010100010
1010101010001010
1010110001111000
0000000000000000