0000111111100000
0001000001000000
0011111111110000
0101000100010000
0001111111110000
0001000100010000
0001111111110000
0010010010101000
0101111000110100
0010010001010000
0111111011111100
0010101001010100
0011111001111100
0010101001010100
1011111001111100
1001010110101010