0010000000100000
0010000000100000
0111110000100000
0100010111111110
1000100000100000
0111110100100100
0101010100100100
0101010100100100
0111110100100100
0101010111111100
0101010000100100
0111110000100000
0000000000100010
0001110000100010
1110000000011110
0100000000000000