0001000000100000
0001000000010000
0001111000010000
0010001111111110
0010010001000000
0111111001000000
1010101001000000
0010101001111100
0011111001000100
0010101001000100
0010101001000100
0011111001000100
0000000010000100
0000111010000100
0111000100101000
0010001000010000