0001000000010000
0001000000010000
0001111000011110
0010001000010000
0010010000010000
0111111011111110
1010101010000010
0010101010000010
0011111010000010
0010101011111110
0010101010000010
0011111010000000
0000000010000000
0000111100000000
0111000100000000
0010001000000000