0010000000001000
0010000000011100
0111110111100000
0100010100000000
1000100100000000
0111110111111110
0101010100000000
0101010100000000
0111110101111100
0101010101000100
0101010101000100
0111110101000100
0000000101000100
0001111001111100
1110001001000100
0100010000000000