0010000000001100
0010000111110000
0111110000100000
0100010001000100
1000100010001000
0111110111110000
0101010000100000
0101010001000100
0111110111111110
0101010000100010
0101010000100000
0111110010101000
0000000100100100
0001111000100010
1110000010100000
0100000001000000