0010000001000000
0010000000100000
0111110111111110
0100010000000000
1000100000000000
0111110011111000
0101010010001000
0101010010001000
0111110010001000
0101010011111000
0101010000100000
0111110010101000
0000000100100100
0001111000100010
1110000010100000
0100000001000000