0010000000000000
0010000111111100
0111110100100100
0100010100100100
1000100111111100
0111110100100100
0101010100100100
0101010111111100
0111110000100000
0101010000010000
0101010001010100
0111110101000010
0000000101000010
0001110101001010
1110001000111000
0100000000000000