0100000000000000
0100000111111000
0111100100001000
1000100111111000
0001000100001000
1111100111111000
1010100000000000
1010101111111100
1111101010010100
1010101111111100
1010100000000000
1111100111111000
0000000010010000
0001100001100000
1110000110011000
0100011000000110