0010000010001000
0010001111111110
0111110010101000
0100010010010000
1000100111111110
0111111100100000
0101010111111100
0101010100100000
0111110111111100
0101010100100000
0101010111111110
0111110100000000
0000001111111100
0001110010001000
1110000001110000
0100001110001110