0000100001000000
0111111101111100
0001010001000000
1111111101111100
0010001000000100
0011111001111100
0010001001000000
0011111001111000
0010001001000010
0010011000111110
0000000000000000
0011111111111000
0000001000000000
1111111111111110
0000100001100000
0111000000011100