0000000100000000
0000011011000000
0001100000110000
1110111111101110
0000000000000000
0001111111110000
0001000000010000
0001111111110000
0000010001000000
0000010000100000
1111111111111110
0000100100010000
0001000101100000
0010000110000100
0100111100000100
1000000011111100