0000010001000000
0000010001000000
0000010001000000
0000010001000000
0111111111111100
0100010001000100
0100010001000100
0100010001000100
0100010001000100
0111111111111100
0100010001000100
0100010001000100
0100010001000100
0100010001000100
0111111111111100
0100000000000100