0011111001111100
0000100000010000
0100100010010000
0111111011111100
0001010000101000
0010010001001010
0100011010000110
0000000000000000
0001111111110000
0001000000010000
0001000000010000
0001111111110000
0001000000010000
0001000000010000
0001111111110000
0001000000010000