0001000000100000
0001000000100000
0001001111111110
0111110000100000
0101010111111100
0101010100100100
0111110110101100
0101010101110100
0101010100100100
0101010111111100
0111110000100000
0101010001110000
0001000010101000
0001000100100100
0001001000100010
0001000000100000