0001000000000000
0001000111111100
0001000100000100
0111110111111100
0001000100000100
0001000111111100
0001000010000000
1111110111111110
0001001000100010
0001000100100010
0010000101010010
0010100100000010
0100010111111010
1111110000000010
0100010000010100
0000000000001000