0000000000000010
1111111111100010
0000010000000100
0000010000001000
0000100000010000
0111111111000010
0100101001000010
0100101001000100
0100101001001000
0100101001010000
0100101001000010
0100101001000010
0100101001000100
0100100001001000
0100000101010000
0100000010100000