0010000000001000
0001000001101000
0001001110001000
1111110010001000
0000000010001000
0000100010001000
1000100010001000
1000101111111110
0100100010001000
0100100010001000
0101000010001000
0101000010001000
0001110100001000
1110000100001000
0100001000001000
0000010000001000