0000001000000000
0000000100000000
0011111111111000
0000100000100000
0000010001000000
1111111111111110
0000000000000000
0001111111110000
0001000100010000
0001111111110000
0001000100010000
0001111111110000
0001000100010010
0000000100000010
0000000011111110
0000000000000000