0001000000000000
0000100111111110
0000100000010000
0111111000010000
0000000000100000
0000010011111100
0100010010000100
0100010010000100
0010010010000100
0010100011111100
0010100010000100
0000111010000100
1111000010000100
0100000010000100
0000000011111100
0000000010000100