0001000000100000
1111111001111100
0100010010100100
0010100000011000
1111111011100110
0000000000010000
0111110011111110
0100010000010000
0111110010010000
0100010011111110
0111110000010000
0001000000100000
1111111001111100
0001000011001000
0001000000110000
0001000111001110