0010000000010000
1100111000010000
1000001001010000
1110111001010000
1000001001111100
1000001001010000
1111111010010000
0000000000010000
1001001000010000
1001001001111100
1101101000010000
1001001000010000
1101101000010000
1001001000010000
1001001111111110
1101100100000000