0010000000010000
1100111000010000
1000001000010000
1110111000010000
1000001011111110
1000001010010010
1111111010010010
0000000010010010
1001001010010010
1001001011111110
1101101010010010
1001001010010010
1101101010010010
1001001010010010
1001001111111110
1101100110000010