0001000000000100
0001000000000100
0010000000000100
0011111110100100
0100000000100100
1000000000100100
0011111100100100
0000001000100100
0000010000100100
0000100000100100
0001000000100100
0010000000100100
0100000010000100
0100000010000100
0011111110010100
0000000000001000