0000000000000100
0111111100000100
0000100000000100
0000100000100100
0000100000100100
0000100000100100
0000100000100100
1111111110100100
0000100000100100
0000100000100100
0000100000100100
0000100000100100
0000100000000100
0000100000000100
0000100000010100
0000100000001000