0000010000000000
0000010000000000
0000111111110000
0001000000010000
0010000000100000
0100000001000000
1011111111111000
0000000000001000
0000000000001000
0000000000001000
0001111111111000
0000000000001000
0000000000001000
0000000000001000
0011111111111000
0000000000001000