0000000000000100
0111111100000100
0100000100000100
0100000100100100
0110010100100100
0101010100100100
0101010100100100
0100100100100100
0100100100100100
0101010100100100
0101010100100100
0110010100100100
0100000100000100
0100000100000100
0100010100010100
0100001000001000