0000000000000100
0111111100000100
0100000100000100
0100000100100100
0100000100100100
0111111100100100
0000000000100100
0001000000100100
0001000000100100
0001111100100100
0001000100100100
0001000100100100
0010000100000100
0010000100000100
0100101000010100
1000010000001000