0000000000000100
0111111100000100
0000001000000100
0000010000100100
0000110000100100
0001001000100100
0010000100100100
1100000010100100
0000000000100100
0111111100100100
0000100000100100
0000100000100100
0000100000000100
0000111100000100
1111000000010100
0100000000001000