0010010000000000
0010010000000000
0010010111111000
0010010001001000
0111111001001000
0010010001001000
0010010101001100
0010010101001010
1111111001001010
0010010001001000
0010010001001000
0010010001001000
0010010001001000
0100010010001000
0100010010101000
1000010100010000