0000100000000100
0000100000000100
1111111110000100
0000100000100100
0000100000100100
0111111100100100
0100100100100100
0100100100100100
0100110100100100
0100101000100100
0001110000100100
0010101000100100
0100100100000100
1000100010000100
0000100000010100
0000100000001000