0000100000000100
0100100100000100
0100100100000100
0100100100100100
0111111100100100
0000000000100100
0111111100100100
0000000100100100
0000000100100100
0011111100100100
0010000000100100
0010000000100100
0010001100000100
0010110000000100
0011000000010100
0000000000001000