0000000000000100
0111111110000100
0000000000000100
0000000000100100
0011111100100100
0010000100100100
0010000100100100
0010000100100100
0011111100100100
0000000000100100
0010000100100100
0001000100100100
0001001000000100
0000011110000100
0111100000010100
0010000000001000