0000100000000100
0000100000000100
0111111110000100
0001010000100100
0010001000100100
0100000100100100
1111111111100100
0000000100100100
0111100100100100
0100100100100100
0100100100100100
0100100100100100
0111100100000100
0000000100000100
0000010100010100
0000001000001000