0000010000000010
0000001000000010
0011111111100010
0010010010000010
0010010010010010
0011111111110010
0010010010010010
0010011110010010
0010000000010010
0010111111010010
0010000001010010
0010010010010010
0010001010000010
0100000100000010
0100011010001010
1001100001000100