0000000000000100
0111111100000100
0100000100000100
0100000100100100
0111100100100100
0100100100100100
0100100100100100
1111111110100100
1000000010100100
1011111010100100
1010001010100100
1010001010100100
1011111010000100
1000000010000100
1000001010010100
1000000100001000