0000100000100000
0000100000100000
0111111001111110
0000100011000100
1111111100101000
0001110000010000
0010101000101000
0100100011000110
0000000000000000
0011111111111110
0010000000000000
0010111111111000
0010001000001000
0100001000001000
0100010000101000
1001100000010000