0000001000000010
0010001000100010
0010001000100010
0011111111101010
0000000000001010
0011110111101010
0010010100101010
0010010100101010
0011110111101010
0010010100101010
0010010100101010
0011110111101010
0010010100100010
0010010100100010
0101010110101010
1000101001000100