0000100000000010
0111011111000010
0101001001000010
0100101001000010
0101010101010010
0110010010010010
0000101000010010
0001000100010010
0011111110010010
1100010001010010
0011111100010010
0000010010010010
0010010100000010
0001011111000010
0111110000001010
0010000000000100