0000100000000000
0000100000000000
0001010001111110
0010001000010010
0100000100010010
1011111001010010
0000000001010010
0000000001010010
0111011101010010
0101010110010010
0101010100010010
0111011100010010
0010001000100010
0010001000100010
0101010101001010
1000100010000100