0000000000000000
0010000000000000
0001000000000000
0001000000000000
0000000000000000
0000011111111100
1111000000000000
0001000000000000
0001000000000000
0001000000000000
0001000000000000
0001000000000000
0001000000000000
0010100000000000
0100011111111110
0000000000000000