0000000000000000
0010000111111100
0001000100000100
0001000100000100
0000000111111100
0000000100000100
1111000100000100
0001000111111100
0001000100000100
0001000100000100
0001000100000100
0001001000010100
0001010000001000
0010100000000000
0100011111111110
0000000000000000