0000000000001000
0010000000011100
0001000111100000
0001000100000000
0000000100000000
0000000111111110
1111000100010000
0001000100010000
0001000100010000
0001000100010000
0001001000010000
0001001000010000
0001010000010000
0010100000000000
0100011111111110
0000000000000000