0000000010000000
0010000001000000
0001000001000000
0001011111111110
0000000000000000
0000000000000000
1111000111110000
0001000100010000
0001000100010000
0001000100010000
0001001000010010
0001001000010010
0001010000001110
0010100000000000
0100011111111110
0000000000000000