0000000000001000
0010000000111100
0001001111000000
0001001000000000
0000001000000000
0000001111111100
1111001000000100
0001001010001000
0001001001010000
0001001000100000
0001001001010000
0001010010001000
0001010100000100
0010100000000000
0100011111111110
0000000000000000