0000000010010000
0010000010010000
0001000010010000
0001001111111100
0000000010010000
0000000010010000
1111000010010000
0001011111111110
0001000010010000
0001000010010000
0001000100010000
0001000100010000
0001001000010000
0010100000000000
0100011111111110
0000000000000000