0000000001000000
0010000001000000
0001000010000000
0001001111111000
0000001000001000
0000001000001000
1111001000001000
0001001111111000
0001001000001000
0001001000001000
0001001000001000
0001001111111000
0001001000001000
0010100000000000
0100011111111110
0000000000000000