0000000100000000
0010000100000000
0001000111111100
0001001000000100
0000010000000100
0000001111100100
1111001000100100
0001001000100100
0001001111100100
0001001000100100
0001001000100100
0001001111100100
0001000000000100
0001000000101000
0010100000010000
0100011111111110