0000000001000000
0010001001000000
0001001001000000
0001001111111000
0000010001000000
0000000001000000
1111011111111100
0001000100100000
0001000100100000
0001000100100000
0001001000100100
0001001000100100
0001010000011100
0010100000000000
0100011111111110
0000000000000000