0000000000000000
0010011111111110
0001000010010000
0001000010010000
0000001111111100
0000001010010100
1111001010010100
0001001100001100
0001001000000100
0001001111111100
0001001000000100
0001001000000100
0001001111111100
0001001000000100
0010100000000000
0100011111111110