0000000001000000
0010000010100000
0001000100010000
0001001000001000
0000010111110110
0000000001000000
1111000001000000
0001011111111100
0001000001000000
0001001001001000
0001001001000100
0001010001000100
0001000101000000
0010100010000000
0100011111111110
0000000000000000