0000100100010000
0100010100010000
0010001000010000
0010011001010010
0000101001010010
0000001001010100
1110001010010000
0010011000101000
0010101000100100
0011001001000100
0010001001000010
0010101010000010
0010010100000000
0101000000000000
1000111111111110
0000000000000000