0000001000001000
0100001000011100
0010001001100000
0010001001000000
0000111111000000
0000001001111110
1110001011001000
0010001101001000
0010111001001000
0010001001001000
0010001001001000
0010101001001000
0010010010001000
0101000100000000
1000111111111110
0000000000000000