0000000101000000
0010000100100000
0001001111111110
0001001000100000
0000011000100000
0000101111111100
1111001000100000
0001001000100000
0001001111111100
0001001000100000
0001001000100000
0001001111111110
0001001000000000
0010100000000000
0100011111111110
0000000000000000