0000000010000000
0010000001000000
0001011111111110
0001000100000000
0000001000001000
0000011111111100
1111000000000100
0001001111111000
0001001000001000
0001001111111000
0001001000001000
0001001111111000
0001001000001000
0001001000101000
0010101000010000
0100011111111110