0000000001000000
0010000001000000
0001001111111000
0001000001000000
0000000001000000
0000011111111100
1111000100010000
0001001001001000
0001010001000100
0001001111111000
0001000001000000
0001000001000000
0001011111111100
0001000000000000
0010100000000000
0100011111111110