0000000100000000
0100000100000000
0010000111110000
0010001000010000
0000010000100000
0000111111111100
1110010001000100
0010010001000100
0010011111111100
0010000010100000
0010000100110000
0010000100101010
0010001000100010
0010010000011110
0101000000000000
1000111111111110