0000000100010000
0010000010010000
0001000010100000
0001011111111100
0000000010000000
0000000101000100
1111011001101000
0001000010110000
0001000100101000
0001011001101000
0001000010100100
0001000100100100
0001011010100000
0010100001000000
0100011111111110
0000000000000000