0000000000000000
0100111111111100
0010100000000100
0010100000000100
0000111111111100
0000100100010000
1110100010100000
0010111111111100
0010100001000000
0010101111111000
0010100001000000
0011011111111100
0010000001000000
0101000001000000
1000111111111110
0000000000000000