0000000001000000
0010000011111100
0001001100100100
0001000010011000
0000000011100000
0000011100000000
1111000111111000
0001001001000000
0001000001000000
0001011111111100
0001000001000000
0001001001000100
0001001111111100
0010100000000000
0100011111111110
0000000000000000