0000000010000000
0100011101111100
0010010000100100
0010010100100100
0000010010100100
0000010101010100
1110011001001000
0010000010000000
0010011111111100
0010010001000100
0010011111111100
0010010001000100
0010011111111100
0101000000000000
1000111111111110
0000000000000000