0000000000000110
0100111110111000
0010000010010000
0010000100100000
0000001001000100
0000001001111000
1110001100010000
0010111000100100
0010001001111110
0010001000010010
0010001001010100
0010101010010010
0010010001010000
0101000000100000
1000111111111110
0000000000000000