0000000001000000
0100001111111000
0010001001001000
0010111111111110
0000001001001000
0000001111111000
1110000001000000
0010001111111000
0010001001001000
0010001111111000
0010000010000000
0010111111111110
0010000100010000
0010000011100000
0101001100011000
1000111111111110