0000000001000000
0010001111111000
0001001001001000
0001001111111000
0000000001000000
0000111111111110
1111000000000000
0001001111111000
0001001000001000
0001001111111000
0001001000001000
0001001111111000
0001000100010000
0001001000001000
0010100000000000
0100011111111110