0000001000000000
0100010000010000
0010111110010000
0010100010010000
0000111110011110
0000100010100100
1110111111000100
0010001000010100
0011111111010100
0010010000001000
0010011110001000
0010100010010100
0011001010100010
0010000101000010
0101000000000000
1000111111111110