0010000001000000
0010000001000000
0011110001000000
0101000001111100
1001000001000100
0001000010001000
1111111010100000
0001000100100000
0001000000100000
0101010001010000
0101010001010000
0101010001001000
0101110010001000
0110010010000100
0000010100000100
0000001000000010