0010000000100000
0010000000100000
0011110000100000
0101000000100000
1001000111111110
0001000001110000
1111111010101000
0001000010101000
0001000100100100
0101010100100100
0101011000100010
0101010011111000
0101110000100000
0110010000100000
0000010000100000
0000000000100000