0010000000000000
0010000111111100
0011110100100100
0101001111111110
1001000100100100
0001000111111100
1111111000000000
0001000111111100
0001000100000100
0101010111111100
0101010100000100
0101010111111100
0101110100000100
0110010111111100
0000010010001000
0000000100000100