0010000000000100
0010000111100100
0011110000100100
0101000000100100
1001000000100100
0001000111100100
0001000100000100
1111111100000100
0001000100000100
0001000111100100
0001000000100100
0010100000100100
0010010000100100
0100010000100100
0100000101000100
1000000010000100