0010000000001000
0010000000111100
0010000111100000
0111110000100000
0101000000100000
1001001111111110
0001000001010000
1111110010001000
0001000100000100
0001001010001010
0001000010001000
0010100010001000
0010010010001000
0100010100001000
0100000100001000
1000001000001000