0010000100000100
0010000010001000
0011110000000000
0101001111111110
1001001000100010
0001001010101010
0001001001110010
1111111000100010
0001001111111110
0001000000000000
0001000111111100
0010100100000100
0010010111111100
0100010100000100
0100000111111100
1000000100000100