0000000000000000
0011111111111000
0010000100001000
0010000100001000
0010000100001000
0011111111111000
0010000100001000
0010000100001000
0010000100001000
0011111111111000
0010000100001000
0010000100001000
0010000100101000
0100000100010010
0100000100000010
1000000011111110