0001000000100000
0001000000100000
0001000011111100
1111111001000100
0001000111111110
0111110000000000
0100010011111100
0111110010000100
0100010011111100
0111110000010000
0001000011111100
1111111000010000
0001000010010000
0001000011111110
0001000000010000
0001000000010000