0001000000000000
0001000111111110
0111110100000010
0010010000100000
1111111011111100
0000000000100000
0111110111111100
0100010100100100
0111110111111100
0001000100100100
0111110111111100
0001000000100000
0101001111111110
0111110000100000
0001000000100000
0001000000100000