0001000000000000
0001000011111000
0111110010001000
0010010010001000
1111111011111000
0000000010001000
0111110010001000
0100010011111000
0111110000000000
0001000111111100
0111110101010100
0001000101010100
0101000101010100
0111110101010100
0001001111111110
0001000000000000