0000000000000000
0000001111111100
0111100000000100
0100100000000100
0100100000000100
0100100000010100
0100100000100100
0100100001000100
0100100010000100
0100100100000100
0100101000000100
0111100000000100
0100100000000100
0000000000000100
0000000000101000
0000000000010000