0000000100000000
0000000100000000
0000001010000000
0000010001000000
0000100000100000
0011000000011000
1100111111100110
0000000000000000
0000000000000000
0001111111110000
0001000000010000
0001000000010000
0001000000010000
0001000000010000
0001111111110000
0001000000010000