0000000000000000
0011111111111100
0010000000000100
0010000000000100
0010111111110100
0010000000000100
0010000000000100
0010011111100100
0010010000100100
0010010000100100
0010010000100100
0010011111100100
0010010000100100
0010000000000100
0010000000010100
0010000000001000