0000000001000000
0000000001000000
0111100001000000
0100100001000000
0100100001000000
0100100001000000
0100111111111100
0100100001000000
0100100001000000
0100100001000000
0111100001000000
0100100001000000
0000000001000000
0000000001000000
0000111111111110
0000000000000000