0000000000010000
0000000010010000
0111100010010000
0100100010001000
0100100100001000
0100100100000100
0100101000000100
0100110111111010
0100100010001000
0100100010001000
0100100010001000
0111100010001000
0100100100001000
0000000100001000
0000001000101000
0000010000010000