0000000000100000
0000000000100000
0111100000100000
0100101111111110
0100100000100000
0100100000100000
0100100000100000
0100100111111100
0100100010000100
0100100010001000
0111100001001000
0100100001010000
0000000000100000
0000000001010000
0000000110001000
0000011000000110