0000000000000000
0000001111111100
0111101000000100
0100101000000100
0100101000000100
0100101111111100
0100101000000000
0100101001000000
0100101001000100
0100101001001000
0111101001110000
0100101001000000
0000010001000010
0000010001000010
0000100000111110
0001000000000000