0000000000000000
0000001111111100
0111101000000100
0100101000000100
0100101000000100
0100101000000100
0100101111111100
0100100010010000
0100100010010000
0100100010010000
0111100010010000
0100100100010010
0000000100010010
0000001000010010
0000010000001110
0000100000000000