0000000000000000
0000000111111000
0111100100001000
0100100100001000
0100100100001000
0100100111111000
0100100000000000
0100101111111110
0100100010000000
0100100100000000
0111100111111000
0100100000001000
0000000000001000
0000000000001000
0000000001010000
0000000000100000