0000000000001000
0000000000111100
0111101111100000
0100100000100000
0100100100100100
0100100010100100
0100100010101000
0100100000100000
0100101111111110
0100100000100000
0111100000100000
0100100000100000
0000000000100000
0000000000100000
0000000010100000
0000000001000000