0000010000000000
0000010000000000
1111010000000000
1001010000111100
1001111110100100
1001010010100100
1001010010100100
1001010010100100
1001010010100100
1001010010100100
1111010010100100
1001010010100100
0000100010100100
0000100010111100
0001001010100100
0010000100000000