0000000001000000
0000000000100000
1111000000100000
1001011111111110
1001000001000000
1001000010000100
1001000100001000
1001001111110000
1001000000100010
1001000001000100
1111000110001000
1001011000010000
0000000000100000
0000000001010000
0000000110001000
0000011000000100