0000000001000000
0000000000100000
0111100000100000
0100101111111110
0100101000000010
0100110001000100
0100100001000000
0100101111111110
0100100010001000
0100100010001000
0111100100001000
0100100011010000
0000000000100000
0000000001010000
0000000010001000
0000001100000100