0000000010000000
0000000010000000
1111000111111000
1001001000010000
1001010100100000
1001000011000000
1001000010010000
1001001100100000
1001110001111100
1001000010000100
1111000100001000
1001011010010000
0000000001100000
0000000001000000
0000000110000000
0000111000000000