0000000000001000
0000000000111100
1111011111000000
1001010000000000
1001010000011100
1001010111100000
1001010100100000
1001010100100010
1001010100100100
1001010100101000
1111010100010000
1001010100010000
0000010100001000
0000100101000100
0000100110000010
0001000100000000