0000000000000000
0000001111111110
0111101000000000
0100101000000000
0100101111111100
0100101000100000
0100101000100000
0100101011111000
0100101000100000
0100101000100000
0111101000100000
0100101111111100
0000001000000000
0000001000000000
0000001111111110
0000000000000000