0000000000000000
0000001111111100
0111100010010000
0100100010010000
0100100010010000
0100100010010010
0100110010010010
0100101010010100
0100101010010100
0100101010011000
0111100010010000
0100100010010000
0000000010010000
0000000010010000
0000011111111110
0000000000000000