0000000000100000
0000000100100100
0111100100100100
0100100100100100
0100100111111100
0100100001000000
0100100001000000
0100100011111100
0100100100000100
0100101010000100
0111100001001000
0100100001010000
0000000000100000
0000000001000000
0000000010000000
0000001100000000