0000000010000000
0000000010000000
0111100100111100
0100101000000000
0100110010000000
0100100010000000
0100100101111110
0100101100001000
0100110100001000
0100100100001000
0111100100001000
0100100100001000
0000000100001000
0000000100001000
0000000100101000
0000000100010000