0000001000100000
0000001000100000
1111001000100000
1001010000111100
1001010101000100
1001111101000100
1001001010000100
1001001000100100
1001010000010100
1001111110010100
1111010000000100
1001000000000100
0000000110000100
0000111000000100
0000010000101000
0000000000010000