0000000000001000
0000000000111100
0111101111000000
0100100000000100
0100101001000100
0100100100101000
0100100000000000
0100101111111000
0100100000010000
0100100000100000
0100111111111110
0111100000100000
0100100000100000
0000000000100000
0000000010100000
0000000001000000