0000000001000010
0000000011100010
0111101110000010
0100100010001010
0100100010001010
0100100010001010
0100111111101010
0100100010001010
0100100110001010
0100100111001010
0111101010101010
0100101010000010
0000010010000010
0000000010000010
0000000010001010
0000000010000100