0000000000100000
0000000001000000
0111100111111100
0100100100000100
0100100100000100
0100100111111100
0100100100000100
0100100100000100
0100100111111100
0100100001000000
0111100001000000
0100100001111110
0000011111000000
0000000001000010
0000000001000010
0000000000111110