0000000000000000
0000011110111100
0111010010100100
0101010010100100
0101010010100100
0101011110100100
0101010010100100
0101010010100100
0101010010100100
0101011110100100
0111010000110100
0101010100101000
0000010010100000
0000010101100000
0000011000100000
0000000000100000