0000100100000000
0000100010000000
0000111111111100
0001000010000000
0011111111111000
0101000010000000
1001111111111000
0001000010000000
0001111111111100
0000000000000000
0001111111111000
0001000000001000
0001000000001000
0001000000001000
0001111111111000
0001000000001000