0000000001000000
0000000001000000
0111100010100000
0100100100010000
0100101010001000
0100110001000110
0100100000000000
0100101111110000
0100100000010000
0100100000100000
0111100001000000
0100100100100100
0000010100100010
0000010100001010
0000100100001000
0000000011111000