0000000001000000
0000000000100000
0111100000100000
0100101111111110
0100101000000010
0100110010010100
0100100100001000
0100101000000100
0100100000000000
0100100111111100
0111100000100000
0100100000100000
0000000000100000
0000000000100000
0000011111111110
0000000000000000