0000000001000000
0000000000100000
0111101111111110
0100100000000000
0100100111111100
0100100100000100
0100100111111100
0100100000000000
0100100111111100
0100100000001000
0111100000010000
0100101111111110
0000000000100000
0000000000100000
0000000010100000
0000000001000000