0001000001000000
0000100001000000
0011111001111110
0010001010001000
0010001101001000
0011111001010000
0010000000100000
0100000001011000
0100000110000110
1000000000000000
0001111111110000
0001000000010000
0001000000010000
0001000000010000
0001111111110000
0001000000010000