0001000001001000
0000100001000100
0011111001111110
0010001111000000
0010001000100100
0011111000101000
0010001000010010
0010000001101010
0100000110000110
1000000000000010
0001111111110000
0001000000010000
0001000000010000
0001000000010000
0001111111110000
0001000000010000