0000100000100000
0000010000100000
0011111100100000
0010000100111110
0010000101000100
0010000101000100
0011111101000100
0010000010100100
0010000000101000
0011111100101000
0011000100010000
0101000100010000
0101000100101000
1001111100101000
0001000101000100
0000000010000010