0000000001000000
0000000001000000
0111100010100000
0100100100010000
0100101000001000
0100110111110110
0100100001000000
0100100001000000
0100111111111100
0100100001000000
0111100001000000
0100101111111000
0000001000001000
0000001000001000
0000001111111000
0000001000001000