0000000100000000
0000000100000000
0111111111111100
0000000100000000
0001000100010000
0000100100100000
1111111111111110
0000000000000000
0011111111111000
0010000000001000
0010011111001000
0010010001001000
0010011111001000
0010000000001000
0011111111111000
0010000000001000