0000000001000000
0000000001000000
0111101111111000
0100100001001000
0100111111111110
0100100001001000
0100101111111000
0100100001000000
0100101001001000
0100101001001000
0111101011101000
0100101101011000
0000001001001000
0000001001001000
0000010001001000
0000100001001000