0000000010000000
0000000001000000
0111101111111100
0100100000000000
0100100100001000
0100100010010000
0100111111111110
0100100000000000
0100100111111000
0100100100001000
0111100100001000
0100100111111000
0000000100001000
0000000100001000
0000000111111000
0000000100001000