0000000100000000
0000000100000000
0111100111111100
0100101000000100
0100110000000100
0100100111100100
0100100100100100
0100100100100100
0111100111100100
0100100000000100
0000000000101000
0000000000010000
0010010010001000
0010001001000100
0100001001000100
1000000000000100