0000000001000000
0000000000100000
0111101111111100
0100100000000000
0100100100001000
0100100010010000
0100101111111110
0100101000010000
0100101000100000
0100101011001000
0111101000010000
0100101000100100
0000001011001000
0000010000010000
0000010001100000
0000100110000000