0000000000000000
0000000111111100
0111100000100000
0100100000100000
0100101111111110
0100100000000000
0100100111111100
0100100100000100
0100100111111100
0100100100000100
0111100111111100
0100100100000100
0000000111111100
0000000010001000
0000000100000100
0000001000000010