0000000001000000
0000000111111100
0111100001000100
0100100010010100
0100100100001000
0100101111011110
0100100101001010
0100100101001010
0100101010010100
0100100111111100
0111100100000100
0100100111111100
0000000100000100
0000000111111100
0000000100000100
0000000100001100