0000000000100000
0000000000100000
0111100111111100
0100100000100000
0100100000100000
0100101111111110
0100100010000000
0100100100000100
0100101111111110
0100100000000010
0111101111111100
0100101010010100
0000001010010100
0000001010010100
0000011111111110
0000000000000000