0000000000000000
0000000111111000
0111100100001000
0100100100001000
0100100111111000
0100100100001000
0100100100001000
0100100111111000
0100100000000000
0100101111111100
0111101010010100
0100101010010100
0000001010010100
0000001010010100
0000011111111110
0000000000000000