0000000010000000
0000100010000000
1110010011111110
1010000100000000
1010101011111100
1010010010000100
1010010010100100
1010000010010100
1010001111111110
1010010010000100
1110110100100100
1010010100010100
0000010111111110
0000010000000100
0000010000101000
0000000000010000