0000000100010000
0000000100010000
1111011111111110
1001000100010000
1001000100000000
1001001011111110
1001001000001000
1001011000001000
1001101011101000
1001001010101000
1111001010101000
1001001011101000
0000001010101000
0000001000001000
0000001000101000
0000001000010000