0000000000100000
0000000001010000
0111100010001000
0100100101110100
0100101000000010
0100100011111000
0100100010001000
0100100011111000
0100100000001100
0100100111110000
0111100000100000
0100100111111100
0000000000100000
0000001111111110
0000000000100000
0000000001100000