0000000100001000
0000000010010000
0111101111111100
0100100001000000
0100100001000000
0100100111111000
0100100001000000
0100100001000000
0100101111111100
0100100010100000
0111100010101000
0100100010110100
0000000100111100
0000000100100010
0000001000100010
0000010000011110