0000000100001000
0000000100001000
0111000100001000
0101011111010000
0101000100011110
0101011110010100
0101000100100100
0101111111010100
0101001000010100
0101001111010100
0111001001010100
0101001001001000
0000001001001000
0000010011010100
0000010000100100
0000100001000010