0000000000100000
0000100000100000
0111010111111110
0101010000100000
0101000111111100
0101000100100100
0101110111111100
0101010100100100
0101010111111100
0101010000100000
0111010111111110
0101010000100000
0000010000100000
0000101000100000
0001000111111110
0000000000000000