0000000000010100
0000000000010010
0111000000010000
0101011111111110
0101010000010000
0101010010010000
0101010011010010
0101010010010010
0101011111110010
0101010010010100
0111010010010100
0101010111001000
0000101010101010
0000100010011010
0001000110100110
0000000001000010