0000000001000000
0000000001111100
0111100001000000
0100101111111110
0100101001000010
0100101001111000
0100101111000100
0100101000111100
0100101000001000
0100101011110000
0111101100100100
0100101010101000
0000010111111110
0000010000100000
0000100010100000
0000000001000000