0000000000100000
0000000100100100
0111100010101000
0100101111111110
0100101000000010
0100100011111000
0100100010001000
0100100010001000
0100100011111000
0100100000100000
0111100000100000
0100100111111100
0000000000100000
0000000000100000
0000001111111110
0000000000000000