0000000001000000
0000010001000100
0111010001000100
0101011111111100
0101000000000000
0101011110111100
0101010010100100
0101010010100100
0101011110111100
0101010010100100
0111010010100100
0101011110111100
0000010010100100
0000010010100100
0000101010110100
0001000101001000