0000000000000000
0000001111111000
1111001000001000
1001001111111000
1001001000001000
1001001111111000
1001000000000000
1001111111111110
1001010010000000
1001011110111100
1111010010010100
1001011110010100
0000010011010100
0000111110001000
0000000010010100
0000000010100010