0000000100000100
0000000100000100
0111011111101000
0101000100010000
0101000100000000
0101011111000100
0101000000000100
0101011111001000
0101010001010000
0101010001000010
0111011111000010
0101010001000100
0000001010000100
0000000011101000
0000111100010000
0000010000100000