0000000000000000
0000001111111110
0111100001010000
0100101111111110
0100101001010010
0100101111111110
0100100000000000
0100100111111100
0100100100000100
0100100111111100
0111100100000100
0100100111111100
0000000000100000
0000001111111110
0000000000100000
0000000000100000