0000000000000000
0000001111111100
0111101010010100
0100101010010100
0100101111111100
0100100000000000
0100111111111110
0100100000000000
0100101111111100
0100101000000100
0111101111111100
0100100010100010
0000000100010100
0000001100001000
0000110101000100
0000000110000010