0000000000010000
0000000000001000
0111011110001000
0101010010111110
0101010010000000
0101010010010100
0101011110001000
0101010001111110
0101010000001000
0101011110001000
0111011010111110
0101101010001000
0000101010001000
0000101110001000
0001001010001000
0000000000001000