0000000001000000
0000000000100000
0111101111111110
0100101000100010
0100100101010100
0100100101001010
0100101000111010
0100100000000000
0100100111111100
0100100101010100
0111101111111110
0100100000000000
0000000111111100
0000000000100000
0000000010100000
0000000001000000