0000000100010000
0000000100010000
0111000100010000
0101011110111100
0101000100010000
0101000100010000
0101111111111110
0101001010101000
0101001010101000
0101011011101100
0111101010101010
0101001010101010
0000001010101000
0000010110101000
0000010001001000
0000100010011000