0000001010000100
0000001010000100
1110101010100100
1010011011000100
1010001010011110
1010111111100100
1010000000000100
1010010001010100
1010001010001100
1010111111100100
1110000100000100
1010011111000100
0000000100000100
0000000111000100
0000111000010100
0000000000001000