0000000001000000
0000011111111100
0111000001000000
0101001111111100
0101000000000000
0101011111111110
0101000000000010
0101001111111000
0101000001000000
0101011111111110
0111000000000000
0101011111111110
0000000000001000
0000011111111110
0000010010101000
0000011110011000