0000000001000000
0000011111111100
1111000001000000
1001011111111110
1001010000000010
1001101111111100
1001001001001000
1001001111111000
1001001001001000
1001001111111000
1111000000000000
1001011111111100
0000001001000100
0000001001111000
0000010101000000
0000100011111110