0000000000100000
0000000100100000
0111100100111100
0100100100100000
0100111111111110
0100100010010000
0100101010010100
0100101101101100
0100101000000100
0100101111111100
0111101010010100
0100101010010100
0000001101101100
0000001000000100
0000001111111100
0000000000000100