0000000001000000
0000000000100000
0111011111111110
0101010010001000
0101010111111100
0101010010001000
0101011111111110
0101010000100000
0101010111111100
0101010100100100
0111010111111100
0101010100100100
0000100111111100
0000100010001000
0001000100000100
0000001000000010