0000001111111100
0000000100001000
0111100111111000
0100100100001000
0100100111111000
0100100100001110
0100111111111000
0100100000001000
0100111111111110
0100101010010100
0111101110011100
0100101010010100
0000001110011100
0000001011010110
0000011110111100
0000000010000100