0000000100000000
0111111111111100
0001000100010000
0001111111110000
0000000100000000
1111111111111110
1001001010010010
0001111011110000
0000010001000000
0011111111111000
0000010001000000
1111111111111110
0000010010001000
0000110001010000
0011010100110000
1100011000001110