0000000100001000
0000000111101100
1110000100001010
1010111111101010
1010100100101000
1010101111001000
1010100100111110
1010111111101000
1010100101001000
1010101111101000
1110101000101000
1010101101101000
0000101010101000
0000101111110100
0000101010110100
0001001010100010