0001000001000000
0000100001000000
0000100001111110
1111111010000000
0001000100000000
0001000000011100
0010000011100000
0100001010100000
1111110010100010
0100100010100100
0001000010101000
0010000010010000
0100010010010000
1111111010101000
0100001011000100
0000000010000010