0000000000010000
0000000100010000
0111110100010000
0101010100010010
0101010100010010
0101010100010100
0101010111011000
0111110100010000
0101010100010000
0101010100010000
0101010100010000
0101010100010010
0111110101010010
0100010110010010
0000000100001110
0000000000000000