0000000000000000
0111111111111100
0000010001000000
0011111111111000
0010010001001000
0010010001001000
0011111111111000
0000100001010000
0001000001001000
0011011111111110
0101000001000000
1001000010100000
0001000010100000
0001000100010000
0001001000001000
0001010000000110