1111111111111110
0000010001000000
0011111111111000
0010010001001000
0011111111111000
0001001000000000
0010011111111100
0100001000001000
1000101111111000
0001001000001000
0011001111111000
0101000100000000
1001001111111000
0001010100010000
0001000011100000
0001011100011110