0000000010000000
0000000001000000
0001111111111110
0001000000000000
1001000000010000
0101000000010000
0101011111111110
0001000000010000
0011000000010000
0101001000010000
1001000100010000
0001000100010000
0010000000010000
0010000000010000
0100000001010000
1000000000100000