0000000010000000
0000000001000000
0001111111111110
0001000000000000
1001000000000000
0101011111111100
0101000100000000
0001000100000000
0011000111111000
0101000100001000
1001000100001000
0001001000001000
0010001000001000
0010010000001000
0100100001010000
1001000000100000