0000000010000000
0000000001000000
0001111111111110
0001000000000000
1001001111110000
0101001000010000
0101001000010000
0001010000001110
0011100000000000
0101011111111000
1001001000001000
0001000100010000
0010000010100000
0010000001000000
0100000110110000
1000111000001110