0000000010000000
0000000001000000
0001111111111110
0001000000000000
1001001111111110
0101001000000000
0101001000100000
0001001000100000
0011001011111100
0101001000100100
1001001000100100
0001001001000100
0010001001000100
0010010010000100
0100010010101000
1000100100010000