0000000010000000
0000000001000000
0001111111111110
0001000000000000
1001000001000000
0101000001000000
0101011111111100
0001010001000100
0011010001000100
0101010001000100
1001011111111100
0001000001000000
0010000001001000
0010000001111100
0100111110000010
1000010000000010