0000000010000000
0000000001000000
0001111111111110
0001000000000000
1001001111111000
0101001000001000
0101001111111000
0001001000001000
0011001111111000
0101000100000000
1001001111111100
0001010010010100
0010100100100100
0010001001000100
0100010010101000
1000000100010000