0000000010000000
0000000001000000
0001111111111110
0001000000000000
1001011110111100
0101010010100100
0101010010100100
0001011110111100
0011010010100100
0101010010100100
1001011110111100
0001010010100100
0010010010100100
0010010010100100
0100101010100100
1001000101001100