0000000100000000
0000000010000000
0011111111111110
0010000000000000
0010001111110000
1010001000010000
0110001111010000
0010001001010000
0010001001010000
0110111111111100
1010100000000100
0010100111100100
0010100100100100
0100100111100100
0100100000010100
1000100000001000