0000000100000000
0000000010000000
0011111111111110
0010000010000000
0010111111111000
1010010010010000
0110001010100000
0011111111111110
0010000101000000
0110001000100000
1010110010011000
0011000010000110
0010111111111000
0100000010000000
0100000010000000
1001111111111100