0000000100000000
0000000010000000
0011111111111110
0010000001010000
0010000001001000
1011111011111110
0111001010010000
0010101010010000
0010101111111110
0110010010010000
1010010010010000
0010101011111110
0010101010010000
0101001010010000
0100000011111110
1000000010000000