0000000010000000
0011111111111110
0010000000000000
0010111110111110
1010100010100010
0110101010101010
0010101010101010
0010101010101010
0110010100010100
1010100010100010
0011111111111110
0010001000001000
0010011100010000
0100000011100000
0100001100011100
1001110000000010