0000000100000000
0000000010000000
0011111111111110
0010001000100000
0010111111111000
1010001000100000
0111111111111100
0010000010000000
0010111111111000
0110100010001000
1010111111111000
0010100010001000
0010111111111000
0100001000100000
0100010000010000
1000100000001000