0000000010000000
0000000001000000
0001111111111110
0001000001000000
1001011111111100
0101000100010000
0101111111111110
0001000000000000
0011001111111000
0101001000001000
1001001111111000
0001001000001000
0010001111111000
0010010101000100
0100010100101010
1000100011111010