0000000010000000
0011111111111110
0010000100000000
0010011111111000
1010011001001000
0110010100101000
0010010010011000
0010011111111000
0110001000010000
1010010111101000
0011100000000110
0010011111111000
0010010101001000
0100011111111000
0100010101001000
1000010101011000