0000000010000000
0011111111111110
0010010001000100
0010100011101000
1010111000001110
0110010011100100
0010101000001010
0010111011101110
0110000010100000
1010101011101010
0010000001000000
0010111111111110
0010100010100010
0100100100010010
0100100001000010
1000100010100110