0001000000000000
0001000000000000
1001010111111100
0101010001000100
0101100001000100
0001000101000100
1111110101000100
0011000101000100
0011100101000100
0101011001000100
0101010001000100
1001000010000100
0001000010000100
0001000100000100
0001001000101000
0001010000010000