0001000000000000
0001000111111000
1001010001001000
0101010001001000
0101100001001000
0001000001001000
1111110001001000
0011000111111000
0011100010001000
0101010010001000
0101010010001000
1001000010001000
0001000010001000
0001000010001000
0001001111111110
0001000000000000