0000100010001000
0000100010001000
0100101010001000
0010101010001000
0010110111111110
0000100010001000
1111111010001000
0001100010001000
0001110010001000
0010101011111000
0010101010001000
0100100010001000
1000100010001000
0000100010001000
0000100011111000
0000100010001000