0001000000100000
0001000000100000
1001010000100000
0101010000100000
0101100000111110
0001000000100000
1111110000100000
0011000000100000
0011100111111100
0101010100000100
0101010100000100
1001000100000100
0001000100000100
0001000100000100
0001000111111100
0001000100000100