0001000000000000
0001000111111110
1001010100000000
0101010100000000
0101100100000000
0001000111111110
1111110100100000
0011000100100000
0011100100111100
0101010100100100
0101010100100100
1001000100100100
0001000100100100
0001001001000100
0001001001010100
0001010010001000