0000100000000000
0000111101111100
0010100000000100
0011111101000100
0110000100101000
1001001000010000
0000110001101000
0011000110000100
1100000000000000
0001000100010000
0000100100100000
0111111111111100
0000010101000000
0000100100100000
0011000100011000
1100000100000110