0001000010001000
0001000010001000
1001011111111110
0101010010001000
0101100010001000
0001000011111000
1111110010001000
0011000010001000
0011100011111000
0101010010001000
0101010010001000
1001001111111110
0001000000000000
0001000010001000
0001000100000100
0001001000000010