0001000001000000
0001000010000000
1001010111111100
0101010100100100
0101100100100100
0001000111111100
1111110100100100
0011000101000100
0011100111111100
0101010010010000
0101010100010000
1001001111111110
0001000000010000
0001000000010000
0001000000010000
0001000000010000