0001000000000000
0001000011111100
1001010010000000
0101010011111000
0101100010000000
0001000011111000
1111110010000000
0011001111111110
0011100101000000
0101010100100100
0101010100101000
1001000100010000
0001000100001000
0001000101000100
0001000110000010
0001000100000000