0001000001000000
0001000001001000
1001010010000100
0101010111111110
0101100000100000
0001001111111110
1111110010001000
0011000100100100
0011101001000010
0101010110001000
0101010000010000
1001000001100010
0001000110000100
0001000000011000
0001000001100000
0001001110000000