0001000010000000
0001000010111100
1001010010000100
0101010100001000
0101100111111110
0001001100100000
1111110100100000
0011000101111100
0011100110010000
0101010100010000
0101010111111110
1001000100010000
0001000100101000
0001000100101000
0001000101000100
0001000110000010