0010000000000000
0010001111011110
0010000001000010
1010100001000010
0111001111011110
0010001000010000
1111101000010000
0010001111011110
0111000001000010
0110101001010010
1010100101001010
0010000101001010
0010001001010010
0010000001000010
0010001010010100
0010000100001000