0010001010001000
0010001010001000
0010011111001000
1010101010010000
0111001010011110
0010011111010100
1111100000100100
0010011111010100
0111010001010100
0110111111010100
1010110001010100
0010011111001000
0010010001001000
0010010001010100
0010010001100100
0010010011000010