0001000000000000
0001000111111110
1001010000100000
0101010111111110
0101100101010010
0001000101010010
1111110101010010
0011000100000110
0011100000000000
0101010111111110
0101010000100000
1001000111111110
0001000101010010
0001000101010010
0001000101010010
0001000100000110