0001000000000000
0001000111111100
1001010000100000
0101011111111110
0101101000100010
0001000110101100
1111110000100000
0011000110101100
0011100000000000
0101011111111110
0101010000100000
1001000111111100
0001000101010100
0001000101010100
0001000101010100
0001000100001100