0010000010001000
0010001111111110
0010000010001000
1010101111011110
0111001001010010
0010001111011110
1111101001010010
0010001111011110
0111001000100010
0110101111111110
1010101010101010
0010001011111010
0010001000100010
0010001001110010
0010001010101010
0010001000100100