0000000000000000
0011111001111100
0010001001000100
0010001001000100
0011111001111100
0010001001000100
0010001001000100
0011111001111100
0010000000000100
0010000000000100
0010000000000100
0010000000000100
0010000000000100
0010000000000100
0010000000010100
0010000000001000