0000000000000000
0111110001111100
0100010001000100
0111110001111100
0100010001000100
0111110001111100
0100000010000100
0100000010000100
0100111111110100
0100000110000100
0100001010000100
0100010010000100
0100100010000100
0100001010000100
0100000100010100
0100000000001000