0000000000000000
0111110011111000
0100010010001000
0111110011111000
0100010010001000
0111110011111000
0100000000001000
0100111111001000
0100010010001000
0100010010001000
0101111111101000
0100010010001000
0100010010001000
0100100010001000
0101000010101000
0100000000010000