0111110001111100
0100010001000100
0111110001111100
0100010001000100
0111110001111100
0100000000000100
0100000111000100
0101111000000100
0100001111000100
0101111000000100
0100001111100100
0101111000000100
0100001000100100
0100000111100100
0100000000010100
0100000000001000