0111110001111100
0100010001000100
0111110001111100
0100010001000100
0111110001111100
0100000000000100
0100111111100100
0100100100100100
0100111111100100
0100100100100100
0100111111100100
0100100100100100
0100000100000100
0100000100000100
0100000000010100
0100000000001000