0111110001111100
0100010001000100
0111110001111100
0100010001000100
0111110001111100
0100000100000100
0100001010000100
0100010001000100
0101101110110100
0100000000000100
0100011111000100
0100010001000100
0100010001000100
0100011111000100
0100010001010100
0100000000001000