0111110001111100
0100010001000100
0111110001111100
0100010001000100
0111110001111100
0100000000000100
0101111111110100
0101000100010100
0101000100010100
0101111111110100
0101001110010100
0101010101010100
0101100100110100
0101000100010100
0101111111110100
0100000000001100