0111110001111100
0100010001000100
0111110001111100
0100010001000100
0111110001111100
0100010001000100
0101111111110100
0100010001000100
0111111111111100
0100100000100100
0101011111010100
0110010001001100
0100011111000100
0100010000100100
0100001111100100
0100000000001100