0010000000000000
0001001111111100
0001000000000100
0100000000000100
0101111110000100
0100000010000100
0100100010000100
0100100010000100
0100111111100100
0100000000100100
0100000000100100
0101111110100100
0100000000100100
0100000101000100
0100000010010100
0100000000001000