0010000000000000
0001011111111100
0000000100000100
0100000100000100
0101111111110100
0100000100000100
0100000100000100
0100111111100100
0100000100000100
0100000100000100
0101111111110100
0100000100010100
0100000100010100
0100000101010100
0100000100100100
0100000000001100