0010000000000000
0001011111111100
0000000000000100
0100001000000100
0100000100000100
0101111111110100
0100000001000100
0100010001000100
0100001010000100
0100000100000100
0100001010000100
0100010001000100
0100100001000100
0100000000000100
0100000000010100
0100000000001000