0010000000000000
0001011111111100
0000000000000100
0100000000000100
0100011111000100
0100010001000100
0100010001000100
0100011111000100
0100000000000100
0100111111100100
0100100000100100
0100100000100100
0100111111100100
0100000000000100
0100000000010100
0100000000001000