0010000000000000
0001011111111100
0000000100000100
0100000100000100
0101111111110100
0100000100000100
0101111111110100
0101000100010100
0101010101010100
0101001110010100
0101111111110100
0100010101000100
0100100100100100
0101000100100100
0100000100000100
0100000100001100