0010000000000000
0001011111111100
0000000000000100
0100111111100100
0100100000100100
0100111111100100
0100100000100100
0100111111100100
0100100000100100
0100111111100100
0100000101000100
0101111111110100
0100000100000100
0100001010000100
0100010001000100
0100100000101100