0000000000000010
0111111100100010
0100100000101010
0111111100101010
0100100000101010
0111111100101010
0100100000101010
0100100000101010
0111111110101010
0000000010101010
1010101010101010
1010101010101010
1010101010101010
1000000010101010
0000010101000010
0000001010000010