0011111111111000
0010000100000000
0011111111110000
0010000100000000
0011111111110000
0010000100000000
0011111111111100
0100100100100100
1000010010010100
0000100000101000
0000100000100000
1111111111111110
0000100000100000
0001000000100000
0010000000100000
0100000000100000