0000000000010000
0111111100001000
0100100000000000
0111111100111110
0100100000100010
0111111100100010
0100100000100010
0100100000111110
0111111110100010
0000000010100000
1010101010100000
1010101010100000
1010101010100000
1000000010100000
0000010101000000
0000001010000000