0000000000010000
0111111100010000
0100100000010000
0111111100100000
0100100000111110
0111111101000100
0100100010100100
0100100000100100
0111111110101000
0000000010101000
1010101010010000
1010101010010000
1010101010101000
1000000010101000
0000010101000100
0000001010000010