0000000000010000
0111111100010000
0100100000010000
0111111100111110
0100100000100010
0111111101000010
0100100000111010
0100100000101010
0111111110101010
0000000010111010
1010101010101010
1010101010101010
1010101010111010
1000000010000010
0000010100010100
0000001000001000