0000000000010000
0111111000010000
0100100000101000
0111111000101000
0100100001000100
0111111010111010
0100100000010000
0100100000010000
0111111011111110
0000001000010000
1010101001011000
1010101001010100
1010101010010010
1000001100010010
0001010001010000
0000100000100000