0000000000000000
0111111100111110
0100100000100010
0111111100100010
0100100000111110
0111111100000000
0100100000111110
0100100000100010
0111111110100010
0000000010111110
1010101010100010
1010101010111110
1010101010100010
1000000010100010
0000010100101010
0000001000100100