0000000000010000
0111111000100000
0100100001000100
0111111010000010
0100100011111110
0111111000000000
0100100001000000
0100100001111110
0111111010010000
0000001000010000
1010101011111110
1010101000010000
1010101000101000
1000001001000100
0001010010000010
0000100100000000