0000000000000000
0111111011111100
0100100000000100
0111111000000100
0100100001111100
0111111000000100
0100100000000100
0100100011111110
0111111000010000
0000001010010010
1010101001010100
1010101000111000
1010101001010100
1000001010010010
0001010001010000
0000100000100000