0000000000100000
1111100000100000
1010000001010000
1111100010001000
1010000100000100
1111101011111010
1010000000100000
1010000000100000
1111101111111110
0000100000100000
1010100000100000
1010100111111100
1010100100000100
1000100100000100
0000100111111100
0011000100000100