0000000000100000
1111100000100000
1010000001010000
1111100010001000
1010000101000100
1111101000100010
1010000111111000
1010000000001000
1111100001010000
0000100000100000
1010100010100100
1010101010000010
1010101010001010
1000101010001010
0000110001111000
0011000000000000