0000000000010000
0111111011010100
0100100001001000
0111111101001010
0100100010000100
0111111010000100
0100100100000010
0100100011111000
0111111000100000
0000001000100000
1010101111111100
1010101000100000
1010101001010000
1000001001001000
0001010010000100
0000100100000100