0000000000010000
0111111000100000
0100100001000100
0111111011111110
0100100001000100
0111111010101010
0100100011101110
0100100000010000
0111111000101000
0000001001010100
1010101010101010
1010101001010000
1010101000100100
1000001001001000
0001010000010000
0000100001100000