0000000000000000
0111111011111110
0100100000101000
0111111011111110
0100100010101010
0111111010101010
0100100011111110
0100100000000000
0111111001111100
0000001000000000
1010101011111110
1010101000010000
1010101001010100
1000001010010010
0001010001010000
0000100000100000