0000000000000000
0111111011111110
0100100000101000
0111111011111110
0100100010101010
0111111011111110
0100100000000000
0100100001111100
0111111001000100
0000001001111100
1010101001000100
1010101001111100
1010101000010000
1000001011111110
0001010000010000
0000100000010000