0000000100010000
1111100100010000
1010011111111100
1111100100010000
1010000111110000
1111101000001000
1010001011101010
1010011010101100
1111101010101000
0000101010101010
1010111011101010
1010101000000110
1010100000000000
1000101010100100
0000101001010010
0011010001010010