0000000111111100
1111100000100000
1010001111111110
1111101000100010
1010000110101100
1111100000100000
1010000110101100
1010000000000000
1111100010011110
0000101111110010
1010100010011110
1010100111010010
1010101010111110
1000110010010010
0000100010011110
0011000010010010