0000000000000000
0111110011111100
0000010010000100
0010010010000100
0010010010000100
0010010010000100
0010010010000100
0011111011111100
0000001010000100
0000001010000100
0001101010000100
1110001010000100
0100001010000100
0000001010000100
0001010011111100
0000100010000100