0000000010000000
1111100010000000
0000100011111000
0100100100001000
0100101100010000
0100110010100000
0100100001000000
0111110010100000
0000010100011000
0000011000000110
0001110111111000
1110010100001000
0100010100001000
0000010100001000
0010100111111000
0001000100001000