0010000000000000
0001000011111100
0001000010000100
1111110010001000
0000010010001000
0000100010010000
0001000010001000
0011100010001000
0101010010000100
1001001010000100
0001000011000100
0001000010101000
0001000010010000
0001000010000000
0001000010000000
0001000010000000