0010000000000000
0001000001000000
0001000000100000
1111100000101000
0000100000001000
0001000010001000
0001000010010000
0011101010010100
0101011010100010
1001001010100010
0001010011000010
0001000010001000
0001000110001000
0001001010001000
0001010001111000
0001000000000000