0010000010000000
0001000010000000
0001000010000000
1111100011111110
0000100101000000
0001000101000000
0001001001000000
0011100001111100
0101010001000000
1001010001000000
0001000001000000
0001000001111110
0001000001000000
0001000001000000
0001000001000000
0001000001000000