0010000000100000
0001000000100000
0001000111111100
1111100000100000
0000100000100000
0001001111111110
0001100010001000
0011010101000100
0101001001000010
1001000011111000
0001000110001000
0001001001010000
0001000000100000
0001000001010000
0001000110001000
0001011000000110