0100000010000100
0010000001000100
0010000001001000
1111101111111110
0001000010000100
0001000010000100
0010000100001000
0011000101001010
0110101001010010
1010101110011100
0010000010000100
0010000100001000
0010000100001000
0010001001010010
0010001111011110
0010000001000010