0010000000000000
0001000111111100
0001000100000100
1111100100000100
0000100111111100
0001000100000100
0001100100000100
0011010111111100
0101000000000000
1001001111111110
0001000000100000
0001000100100000
0001000100111100
0001000100100000
0001001010100000
0001010001111110