0010000001000000
0001000000100000
0001000111111100
1111100000000000
0000100010001000
0001000001010000
0001001111111110
0011101000100010
0101010000100100
1001010111111100
0001000100100100
0001000100100100
0001000100110100
0001000100101000
0001000000100000
0001000000100000