0010000000100000
0001000001010000
0001000010001000
1111100101110100
0000101000000010
0001000111111100
0001000100100100
0011100110101100
0101010100100100
1001010111111100
0001000000000000
0001000011111000
0001000010001000
0001000011111000
0001000010001000
0001000011111000