0100000010010000
0010001111111100
0010001010010100
1111101111111100
0001001010010100
0001001111111100
0010000000000000
0011001111111100
0110100000000000
1010101111111100
0010001000000100
0010001111111100
0010000100001000
0010000010010000
0010011111111110
0010000000000000