0000000000100000
1111111011011110
0000000010001010
0111110011001010
0100010010101010
0111110011010010
0000000010100110
1111111000000000
1000001011111110
1010101010010010
1001001010010010
1111111011111110
1001001010010010
1001001010010010
1001001011111110
1000011010000010