0000000000000000
0010010011101110
0010001000100010
0100101010101010
1000100001100110
0001010010101010
0010001000010000
0100000100101000
1011110001000100
0010010110010010
0010010000100000
0010010011001000
0010010000110010
0011110011000100
0010010000011000
0000000011100000