0000000100010000
0101000010010000
0100101111011110
1000100000010000
0010001001011110
0011000110000010
0100101111011110
1000010000010000
0111101111011110
0100101001010000
0100101111011110
0100101001010000
0100101111011110
0111101001010000
0100101001010010
0000001011001110