0001000000100000
0001000000100000
0001111000100000
0001000001010000
0001000001010000
1111111010001000
1001001101000100
1100011000100010
1010101000100000
1101011011111000
1010101000001000
1100011000001000
1001001000010000
1111111000010000
1000001000100000
0000000000100000