0000000000000000
1111111110000100
0001010000000100
0111111100001000
0101010100010000
0101010100100010
0111111100000010
0000000000000100
0111111100001000
0000000000010000
1111111110100010
0000100000000010
0010101000000100
0100100100001000
1010100010010000
0001000001100000