0000001000100000
0000001000010000
0000001000010000
0000001000000000
0000001011111110
1111111100000000
0000001000001000
0000001000001000
0000001000010000
0000000100100000
0000000101000000
0000000010000000
0000001101000010
0000110000100010
0111000000011010
0000000000000110