0001000000010000
0000100000010100
1111111110010010
1000000010010000
0000000000010110
0111111101111000
0000100000010010
0111111100010010
0100100100010010
0111111100010100
0100100100010100
0111111100001000
0000000000011010
0010001000101010
0100000101000110
1000000010000010