0000000000010000
0111011100010100
0001000100010010
0101010100010000
0011001100010110
0101010101111000
0000110000010010
0011001100010010
1100010010010010
0001100000010100
0110001000010100
0000110010001000
0111000100011010
0000011000101010
0001100001000110
1110000010000010