0000100000101000
0000111100100100
0000100000100100
0111111100100000
0100100100101110
0100110011110000
0111100100100000
0100011100100100
0100000000100100
0101111100101000
0100000000101000
0101111100010000
0101000100010010
0101111100101010
1000101001000110
0011111110000010