0000100000100000
0000010000100000
0000010001000000
0111111111111100
0000000100000000
0000000100000000
0000000100000000
0011111111111000
0000000100000000
0000000100000000
0000000100000000
1111111111111110
0000000000000000
0100100010001000
0100010001000100
1000010001000100