0000000100000100
0011110010000100
0010010010001000
0010010000000000
0010011111111110
0011110000100000
0010010000100000
0010010111111100
0010010000100000
0011110000100000
0010011111111110
0010010000100000
0010010000100000
0100010000100000
0101010000100000
1000100000100000