0000100000100000
0000010001000000
0111111111111100
0000000100000000
0011111111111000
0000000100000000
1111111111111110
0100000010000000
0010000010000000
0000100111111100
0001001000000100
0010010001001000
1110000001000000
0010000010100000
0010001100011000
0010110000000110