0000100000100000
0000010001000000
0111111111111100
0000000100000000
0011111111111000
0000000100000000
1111111111111110
0000000010000000
0010000010000000
0001000111111100
1000001000000100
0101010001001000
0010000001000000
1110000010100000
0010001100011000
0010110000000110