0100010001000000
0010010000100000
0010100111111100
1111110100000100
0001000100000100
0001000111111100
0111110100000100
0001000100000100
0001000111111100
1111110100100000
0001000100100010
0001000100010100
0010000100001000
0010000101000100
0100000110000010
1000000100000000