1000100000001000
0100100000001100
0101000000001010
1111101111111110
0010001000001000
0010001000001000
1111101011101000
0010001000001010
0010001000001010
1111101011101100
0010001010101100
0010001010101000
0010001011101010
0100001000011010
0100001000100110
1000010001000010