0000100000000000
0000100011111100
0001010000000100
0010001000000100
0101110101111100
1000000010000100
0111111100000100
0101010111111110
0111111100010000
0000000010010010
0111111101010100
0101010100111000
0111111101010100
0101010110010010
0101010101010000
0100001100100000