0000100000000000
0000100001111110
0001010000001000
0010001000010000
0101110101111100
1000000011000100
0111111101000100
0101010101111100
0111111101000100
0000000001111100
0111111101000100
0101010101000100
0111111101111100
0101010100101000
0101010101000100
0100001110000010