0000110000000000
0011000011111100
1100001000100000
0001010000100000
0100100000100000
0011000000100000
1100100000100000
0001010111111110
0010010000100000
1100110000100000
0001010000100000
0010010000100000
1100010000100000
0000010000100000
0010100000100000
0001000000100000