0000110000000000
0011000111111110
1100001000010000
0001010000010000
0100100000100000
0011000000100000
1100100001101000
0001010010100100
0010010100100010
1100111000100010
0001010000100000
0010010000100000
1100010000100000
0000010000000000
0010101111111110
0001000000000000