0000110000100000
0011000000100000
1100001001000000
0001010111111100
0100100100000100
0011000100000100
1100100100000100
0001010100000100
0010010111111100
1100110100000100
0001010100000100
0010010100000100
1100010100000100
0000010100000100
0010100111111100
0001000100000100