0000110000000000
0011000011111110
1100001000100000
0001010000100000
0100100001000000
0011000011111100
1100100010000100
0001010010000100
0010010010000100
1100110011111100
0001010010000100
0010010010000100
1100010010000100
0000010010000100
0010100011111100
0001000010000100