0000000000000000
0111111111111100
0100010001000100
0100010001000100
0111111111111100
0000100000100000
0000100000100000
0111111011111100
0000100000100000
0001110000110000
0001101001110000
0010101001101000
0100100010100100
1000100100100010
0000100000100000
0000100000100000