0000000000000000
0111111111111100
0100010001000100
0111111111111100
0000000100000000
0000000111111100
0000000100000000
0011111111111000
0010000000001000
0011111111111000
0010000000001000
0011111111111000
0000000100000000
1111111111111110
0000000100000000
0000000100000000