0000000000000000
0111111111111100
0100010001000100
0100010001000100
0111111111111100
0000000000000000
0000010001000000
0111110001111100
0000010001000000
0000010001000000
0111110001111100
0000010001000000
0000010001000000
1111110001111110
0000010001000000
0000010001000000