0000000000000000
0011111111111000
0010010001001000
0010010001001000
0011111111111000
0000001000000000
0001111111010000
0000001000100000
1111111111111110
0000001100000000
0000111111110000
0011100000010000
1100111111110000
0000100000010000
0000111111110000
0000100000010000