0011111111111000
0010101010101000
0010010001001000
0010101010101000
0000000000000000
1111111111111110
0000001010000000
0011111011111000
0010001010001000
0011111011111000
0000001010000000
0011111111111000
0010000100001000
0011111111111000
0010000100001000
0011111111111000