0111111111111100
0100010001000100
0111111111111100
0001000010000000
0010010010011000
0111111011100000
0000000010000100
0111111001111100
0100001000000000
0111111010011000
0100001011100000
0111111010000100
0100001010000100
0100011001111100
0010010010001000
0100001001000100