0000000000000000
0111111111111100
0100010001000100
0100010001000100
0111111111111100
0010100000000000
1111110111111110
0010100100100000
0011100111111100
0001000100100000
0111110111111100
0101010100100000
0111110111111110
0001000000000010
1111111010101010
0001000000000100