0000100000100000
0000100000100000
1111111110100000
0000100000100000
0000100011111100
0111111100100100
0100100100100100
0100100100100100
0111111100100100
0000100000100100
0001110000100100
0010101001000100
0100100101000100
1000100010000100
0000100100101000
0000101000010000