0010001000100000
0010001000100000
1111111110100000
0010001000100000
0011111011111100
0000100000100100
0111111100100100
0100100100100100
0100100100100100
0111111100100100
0000100000100100
1111111111000100
0000100001000100
0000100010000100
0000100100101000
0000101000010000