0010001000010000
0010001000010000
1111111110010000
0010001000010000
0111111101111110
0100100100010010
0111111100010010
0100100100010010
0111111100010010
0000100000010010
1111111110010010
1000100010010010
1000101010010010
1011111010100010
1000001010101010
1000000111000100