0010001000010000
1111111110010000
0010001000010000
1111011110010000
1001010011111110
1111011110010010
0010100000010010
0010010000010010
0111111110010010
0100100000010010
1111111100010010
0100100000010010
0111111100010010
0100100000100010
0111111110101010
0100000001000100