0000000000010000
0000000011111000
0011111100000000
0000000100000000
0001000100010000
0000100100010000
0000100100100000
0000000100000000
1111111111111110
0000000100000000
0000000100000000
0000000100000000
0000000100000000
0000000100000000
0000010100000000
0000001000000000