0000000000100000
0000000011110000
0001111100000000
0001000000000000
0001000100000000
0010000100000000
0010000100000000
0011111111111100
0000000100000000
0000100100100000
0000100100010000
0001000100001000
0010000100000100
0100000100000100
0000010100000000
0000001000000000