0000000000000000
0011111111111000
0000000100000000
0111111111111110
0100000100000010
1001110101110100
0000000100000000
0001110101110000
0000000000000000
0000000111110000
0011111000000000
0000001111110000
0011111000000000
0000001111111010
0111111000000010
0000000111111110