0011111111111000
0000000100000000
0111111111111110
0100000100000010
1001110101110100
0000000100000000
0001110101110000
0000001000000000
0000000100000000
0111111111111100
0000100000100000
0000010001000000
0000001110000000
0000010001000000
0001100000110000
1110000000001110