0011111111111000
0000000100000000
0111111111111110
0100000100000010
1001110101110100
0000000100000000
0001110101110000
0000010001000000
0000100000100000
0011000000011000
1101111111100110
0000010000100000
0000010000100000
0000100000100000
0001000010100000
0010000001000000