0011111111111000
0000000100000000
0111111111111110
0100000100000010
1001110101110100
0000000100000000
0001110101110000
0000000000000000
0011111111111100
0010000000000000
0010000100000000
0010111111111000
0010000100001000
0100001000001000
0100010001010000
1001100000100000