0011111111111000
0000000100000000
0111111111111110
0100000100000010
1001110101110100
0000000100000000
0001110101110000
0000000000000000
0010010001001000
0001010001010000
0000110001100000
0001010001010000
0110010001001000
0000100001000010
0001000001000010
0110000000111110