0011111111111000
0000000100000000
0111111111111110
0100000100000010
1001110101110100
0000000100000000
0001110101110000
0000100000100000
0000100000100000
0111111011111100
0000100000110000
0001110001101000
0010101010100100
1100100100100010
0000100000100000
0000100000100000