0011111111111000
0000000100000000
0111111111111110
0100000100000010
1001110101110100
0000000100000000
0001110101110000
0000100000100000
1111111111111110
0000100100100000
0001111111110000
0001000100010000
1111111111111110
0000001010000000
0001110001110000
1110000000001110