0011111111111000
0000000100000000
0111111111111110
0100100100100010
1000010000010100
0111111111111110
0100000000000000
0101111100111100
0100010000010000
0111111101111110
0100111000110100
0101010101010010
0110000010010000
0100010011111000
0100010010000000
1011111111111110