0001000000010000
0001111000011110
0001000000010000
0111111011111110
0101001010010010
0101110010011100
0111000011110000
0101001010010010
0100111010001110
0100000010000000
0101110010111000
0101010010101000
0101010010101000
1001011100101010
1001010100101010
0010001001000110