0001000000100000
1001001000111110
0101001000100000
0101010111111110
0001000100100010
0111110100111000
0100010111100000
0111110100100010
0100010100011110
0111110100000000
0001000101111000
0101100101001000
0101010101001000
1001011001001010
0101001001001010
0010010010000110