0000000100000000
0000000100000000
0000000100000000
0011111111111000
0010000100001000
0010000100001000
0010000100001000
0011111111111000
0010000100001000
0010000100001000
0010000100001000
0011111111111000
0010000100001010
0000000100000010
0000000100000010
0000000011111110