0011111111111000
0010000100001000
0010000100001000
0011111111111000
0010000100001000
0010000100001000
0011111111111000
0000000000000000
0000000100000000
0111111111111100
0000000100000100
0000000100000100
0000001000000100
0000010000000100
0001100000010100
0110000000001000