0000000000100000
0000000000010000
0111110000010000
0101010000000000
0101010111111110
0101010010000000
0101010010000000
0111110010000000
0101010010000000
0101010010000000
0101010010000000
0101010010000000
0111110010000000
0100010010000000
0000000011111100
0000000000000000