0000000000000000
0001111111110000
0001000100010000
0001000100010000
0001111111110000
0001000100010000
0001000100010000
0001111111110000
0000001010000000
0000110001100000
0011010001011000
1100010001000110
0000010001000000
0000100001000000
0000100001000000
0001000001000000