0000000000100000
0000000000100000
0111110001010000
0101010001010000
0101010010001000
0101010100000100
0101011000000010
0111110010001000
0101010010001000
0101010010001000
0101010010001000
0101010010001000
0111110010001000
0100010100001000
0000000100001000
0000001000001000