0000000000000000
0001111111110000
0001000100010000
0001000100010000
0001111111110000
0001000100010000
0001000100010000
0001111111110000
0000000000000000
1111111111111110
0001000100010000
0001000010100000
0001000001000000
0001010000110000
0001100000001110
0001000000000000