0001000000000000
0001000111111100
0001000100100100
0001000100100100
0101010100100100
0101100100100100
0101000100100100
1001000111111100
0001000100100100
0001000100100100
0001000100100100
0010100100100100
0010010100100100
0100010111111100
0100000100000100
1000000000000000