0000000000100000
0000000000100000
0111110000100000
0101010111111100
0101010100100100
0101010100100100
0101010111111100
0111110100100100
0101010100100100
0101010100100100
0101011111111110
0101010100000100
0111110100000100
0100010100000100
0000000100010100
0000000100001000