0000000000001000
0000000000111100
0111110111100000
0101010000100000
0101011111111110
0101010000100000
0101010111111100
0111110100100100
0101010111111100
0101010100100100
0101010111111100
0101010000100000
0111110111111100
0100010000100000
0000001111111110
0000000000000000