0001111111110000
0001000100010000
0001111111110000
0001000100010000
0011111111111000
0010101010101000
0011111011111000
0010101010101000
1111111111111110
1001000000010010
0001111111110000
0001000000010000
0001111111110000
0001000000010000
1111111111111110
0000000000000000