0000100000000000
0001000000010000
0010000000001000
0111111111111100
0010000000000100
0000000000000000
0011111111111000
0010000000001000
0011111111111000
0010000000001000
0011111111111000
0010000000001000
0011111111111000
0000100000100000
0001000000010000
0010000000001000