0000000000010000
0111110000010000
0100010000010000
0100010000010000
0111110111111110
0100010000010000
0100010000110000
0111110000110000
0100010001010000
0100010001010000
0111110010010000
0000000100010000
0010100000010000
0010010000010000
0100010001010000
1000000000100000