0000000000100000
0111100000100000
0100100000100000
0100100100100000
0111100100101100
0100100100110100
0100100101100100
0111101110100100
0100100100100100
0100100100110100
0111100100101000
0000000100100010
0101000100100010
0100100100000010
1000100011111110
0000000000000000