0000000001000000
0111110000100000
0100010000100000
0100010111111110
0111110100000010
0100011000000100
0100010000000000
0111110000000000
0100010111111110
0100010000100000
0111110000100000
0000000000100000
0010100000100000
0010010000100000
0100010010100000
1000000001000000