0001001000100000
0111111111111100
0001001000100000
0001001111100000
0001000000000000
0001111111111000
0000000000000000
0001111111110000
0001000000010000
0001111111110000
0001000000010000
0001111111110000
0001000000010000
0001111111110000
0000100000100000
0001000000010000