0000000000100100
1111111111111110
0000000000100000
0011111110100000
0000000000100000
0111111110100000
0000000000100000
0011111110100000
0010000010100000
0011111110010000
0010000010010000
0011111110010000
0010000010001010
0011111110001010
0001000100000110
0010000010000010