0000000000000100
0111110000011110
0100010111100000
0100010000000000
0111110000100000
0100010000010000
0100010111111110
0111110000000100
0100010000001000
0100010000010000
0111110000100000
0000000001000000
0010100010000000
0010010101000000
0100011000111110
1000000000000000