0000000010000010
0111110001000010
0100010001000100
0100010000000000
0111110011111110
0100010001000100
0100010001000100
0111110001000100
0100010001000100
0100010111111110
0111110001000100
0000000001000100
0010100010000100
0010010010000100
0100010100000100
1000001000000100