0000000000100000
0111100000100000
0100100111111100
0100100100100100
0111100100100100
0100100111111100
0100100000100000
0111100000100000
0100101111111110
0100101000100010
0111101000100010
0000001111111110
0101001000100010
0100100000100000
1000100000100000
0000000000100000