0000000100000000
0111111111111100
0000100100100000
0001010101010000
0010001110001000
0000010101000000
0000100100100000
0011111111111000
1101000000010110
0001111111110000
0001000000010000
0001111111110000
0001000000010000
0001111111110000
0000100000100000
0001000000010000