0000000000100000
0111110000100000
0100011111111110
0100010000100000
0111110111111100
0100010001000000
0100011111111110
0111110010001000
0100010100000100
0100011011111010
0111110010001000
0000000010001000
0010100011111000
0010010010001000
0100010010001000
1000000011111000