0000000100000000
0111111111111110
0100010001000010
1001111111110100
0000010001000000
0011111111111000
0000010001000000
1111111111111110
0000100000100000
0001111111110000
0010100000101000
1100111111100110
0000100000100000
0000111111100000
0000010001000000
0000100000100000