0000000000000000
0111101111011110
0100100001000010
0100101001010010
0111100101001010
0100101001010010
0100100000101000
0111100011000100
0100101100010010
0100100001100000
0111100110001000
0000000000110010
0101000111000100
0100100000011000
1000100001100000
0000001110000000