0000000010001000
0111100010001000
0100101111111110
0100100010001000
0111100111111100
0100100100100100
0100100111111100
0111100100100100
0100100111111100
0100100000100000
0111101111111110
0000001000100010
0101001000101010
0100101011111010
1000101000001010
0000001000000110