0001000001000000
1111111001111100
0100010011001000
0010100000110000
1111111011001110
0000000001111000
0111110000100000
0100010111111100
0111110010001000
0100010011111000
0111110010001000
0001000011111000
1111111010001000
0001000011111000
0001000001010000
0001000010001000