0000000100000000
0000000100000000
0000000111111100
0000000100000000
0000000100000000
0011111111111000
0010000000001000
0010000100001000
0010000100001000
0010000100001000
0010001000001000
0010001000001000
0000010011000000
0000100000110000
0011000000001000
1100000000000100