0000010000000000
0010010111111000
0010010010001000
0010010001010000
0010010000100000
0010010011011000
0010011100000110
0000010000000000
0001111111110000
0001000000010000
0001000100010000
0001000100010000
0001000100010000
0000001001100000
0000110000011000
0111000000000100