0000100010000000
0000100010000000
0001000010011000
0011000011100000
0101011110000100
1001000010000100
0001000001111100
0000000000000000
0001111111110000
0001000000010000
0001000100010000
0001000100010000
0001000100010000
0000001001100000
0000110000011000
0111000000000100