0000000000001000
0111110000001100
0100010011101010
0100010000001010
0101010000001000
0101010111111110
0101010001001000
0101010001001000
0101010101001000
0101010101101000
0101010101001000
0001000101001000
0010100101001010
0010010101101010
0100001110000110
1000000100000010