0000000000100000
0111110010100010
0100010010100010
0100010100100100
0101010001010000
0101010010001000
0101011100000100
0101010000100010
0101010000100000
0101010010100100
0101010010100100
0001000100101000
0010100001010000
0010010010001000
0100000100000100
1000001000000010