0000000100000000
0000000100000000
0000100100100000
0000100100100000
0101000101000100
0101010101010100
0111110111110100
0100100100100100
0100100100100100
0101010101010100
0111110111110100
0100010100010100
0100000100000100
0100000100000100
0111111111111100
0000000000000100