0000000000000000
0111110111111100
0100010100000100
0100010100000100
0100010100000100
0111110111111100
0001000100000000
0001000101000000
0101110101000100
0101000101001000
0101000101110000
0101000101000000
0101110101000010
1110001001000010
0000001000111110
0000010000000000