0000000000100000
0111100000100000
0100101111111110
0100100001010000
0100100010001000
0111100100000100
0001011011111010
0001000000000000
0101001111111110
0101110001000000
0101000010000000
0101000111111100
0101100000000100
1110000000000100
0000000000101000
0000000000010000