0000000000100000
0111110000100000
0100010111111100
0100010100100100
0100010100100100
0111110111111100
0001000100100100
0001000100100100
0101110111111100
0101000000100000
0101000000100100
0101000000011000
0101110000110010
1110000011001010
0000001100000110
0000000000000010