0000000001010000
0111110001010000
0100010001010000
0100010101010010
0100010011010100
0111110001011000
0001000001010000
0001000001011000
0001000011010100
0101110101010010
0101000001010000
0101000001010000
0101000010010010
0101110010010010
1110000100010010
0000001000001110