0000000001001000
0111110001001000
0100010001001000
0100010111111110
0100010001001000
0111110001001000
0001000111111110
0001000000000000
0001000011111100
0101110010000100
0101000010000100
0101000011111100
0101000010000100
0101110010000100
1110000011111100
0000000010000100