0000000001000000
0111110000100000
0100010111111100
0100010000000000
0100010100001000
0111110010010000
0001000000000000
0001001111111110
0001000000000000
0101110000000000
0101000111111100
0101000100000100
0101000100000100
0101110100000100
1110000111111100
0000000100000100