0000000001000000
0111110000100000
0100010111111100
0100010000000000
0100010010001000
0111110001010000
0001001111111110
0001001000100010
0101110000100100
0101000111111100
0101000100100100
0101000100100100
0101110100110100
1110000100101000
0000000000100000
0000000000100000