0000000000000000
0111110111111100
0100010100100100
0100010111111100
0100010100100100
0111110111111100
0001000010101000
0001000010101000
0101110111111110
0101000010101000
0101000010101000
0101000111111100
0101110000100000
1110001111111110
0000000000100000
0000000000100000