0000000010001000
0111110010001000
0100011111111110
0100010010001000
0100010010001000
0111110011111000
0001000000100000
0001001111111110
0101111000100010
0101001100110010
0101001010101010
0101001101110110
0101111000100010
1110001000100010
0000001000101010
0000001000100100