0000000100010000
0111100100010100
0100100111010010
0100101001010000
0100101001111110
0111110101010000
0001000010010000
0001001010101000
0101000100101000
0101110101000100
0101001001000100
0101010010000010
0101100000001000
1110001010100100
0000001001010010
0000010001010010