0000000000000000
0111100111111100
0100100001001000
0100100000110000
0100101111111110
0111100001010010
0001000010010100
0001001101010000
0001110000100000
0101001111111110
0101001001010010
0101001010001010
0101001101110110
0101111001010010
1110001001110010
0000001000000110