0000000000000000
1111011111111110
1001010000000000
1001011000101000
1001010101001000
1111011111101110
0010010010010010
0010010010000100
1010011010100000
1011111010101000
1010011111101000
1010010010001000
1011110010010100
1110010100010100
0000100100100100
0001001001000010