0011111111111110
0010100010010000
0010010100010000
0011111111011110
0010001000100010
0010101010001000
0010111110001000
0010001010010100
0010010000100010
0010101111111000
0010001000001000
0010001111111000
0010000001000000
0100001001111100
0100010101000000
1000100011111110