0000100000100000
1111111111111110
0000100000100000
0001111111110000
0001000100010000
0001111111110000
0001000100010000
0111111111111100
0100000100100100
0101111111111100
0001000000010000
0001111111110000
0000000100000000
0001000111111000
0011000100000000
1100111111111110