0000000010000000
1111000001000000
1001011111111100
1001000100010000
1001000010100100
1111111101011000
0010010101010100
0010010101010010
1010101101011000
1011100000000000
1010001000001000
1010001111111000
1011101000001000
1110001111111000
0000001000001000
0000010000001000