0000000100100100
0111101001001000
0100100100100100
0100100000000000
0100101111111100
0111101010010100
0001001001100100
0001001010010100
0001001111111100
0101111001001000
0101001101101000
0101001001001000
0101001101101010
0101111001001010
1110001001000110
0000001101100010