0010001000000000
0100111110011100
1001010010000000
0010111111011110
0110000100001000
1010111111001000
0010010100001000
0010011111011000
0000000100000000
0001111111110000
0001000000010000
0001111111110000
0000000100000000
0001000111111000
0011000100000000
1100111111111110