0000000000100000
0111101111111110
0100100000000000
0100100111011100
0100100101010100
0111100111011100
0001000010001000
0001001111111110
0001110010001000
0101001111111110
0101000010001000
0101001111111110
0101000010010100
0101110110001000
1110001010100100
0000000011000010