0000010001000000
0000100000100000
0001100001010000
0010010010001000
0000001100000000
0000110011000000
0011000000110000
1100000000001110
0001111111110000
0000001000010000
0000001000010000
0000001000010000
0000001001010000
0000001000100000
0000001000000000
0000001000000000