0000010001000000
0000100000100000
0001100001010000
0010010010001000
0000001100000000
0000110011000000
0011001000110000
1100011111001110
0001101001000000
0000000110100000
0001111001111000
0000000110001000
0000111010010000
0000000001100000
0000001110000000
0011110000000000