0000000000000000
0111111111111100
0000000010000000
0000000100000000
0000000100000000
0000001101000000
0000010100100000
0000100100010000
0011000100001000
1100000100000100
0000000100000000
0000000100000000
0000000100000000
0000000000000000
1111111111111110
0000000000000000