0000001000100000
0001001000100000
0001001000100000
0001001000100000
0001001000100000
1111111111111110
0001001000100000
0001001000100000
0001001000100000
0001001000100000
0001001111100000
0001000000000000
0001000000000000
0001000000000000
0001111111111100
0000000000000000