0001000100010000
0001000100010000
0001000100010000
0001000100010000
0001000100010000
0001000100010000
1111111111111110
0001000100010000
0001000100010000
0001000100010000
0001000100010000
0001000100010000
0001000100010000
0001000100010000
0001111111110000
0001000000010000