0000000000000000
0111111111111100
0000001001000000
0001001001001000
0000101001010000
0000001001000000
0011111111111110
0010000000000000
0010000000000000
0010000000000000
0010000000000000
0010000000000000
0010000000000000
0100000000000000
0100000000000000
1000000000000000