0000000000010000
0000000111111000
0111111000000000
0000001000000000
0000001000000000
0000001111110000
0011111000000000
0000001000000000
0000001000000000
0000001111111100
1111111000000000
0000001000000000
0000001000000100
0000001000000100
0000001000000100
0000000111111100