0001000001010000
0011100001001000
1110000001000000
0010111111111100
0010000001000000
0011101001001000
1110001001001000
0010111101010000
0010001001010000
0011101000100000
1110001000101000
0010010001101000
0010100010011010
0010000100001010
0010000000000010
0001111111111110