0000100000100000
0001110000100000
0111000100100100
0001000010100100
0001000010101000
0001110000100000
0111001111111110
0001000000100000
0001000001110000
0001110010101000
1111000100100100
0001001000100010
0001000000100000
0001000000000010
0000111111111110
0000000000000000