0000000111110000
0011111000000000
0000001111110000
0011111000000000
0000001111111010
0111111000000010
0000000111111110
0000000000000000
0001100000110000
0111000111000000
0001110001111000
0111000111000000
0001110001111000
0111000111000100
0001010001000100
0001100000111100