0000100000000100
0001010000001110
0010001001110000
0100000100010000
1011111010010000
0000000000011100
0111100011110000
0100101010010000
0100101010010000
0111101010011110
0100101011110000
0100101010010000
0111101010010010
0100100010010010
0100101010010010
0101100100001110