0001000000001000
0001000000011100
1111111011100000
0010000000100000
0111111000100000
1000100000111100
0111111011100000
0000000000100000
0111111000100000
0100001000111100
0111111011100000
0100001000100010
0111111000100010
0100001000100010
0100101000011110
0100010000000000