0000001000000000
0000000100000000
0111111111111110
0100000000000010
1000010000000100
0000010000000000
0000011111110000
0000100000010000
0000100000010000
0001010000100000
0010001000100000
0000000101000000
0000000001000000
0000000010000000
1111111111111110
0000000000000000