0000001000000000
0000000100000000
0000000100000000
0111111111111110
0100000000000010
1000000100000100
0000000010010000
0000100010010000
0100100000100100
0100100001000010
0100100010000010
1000100100000010
0000111000010000
0001100000010000
1110011111110000
0000000000000000