0000001000000000
0000000100000000
0111111111111110
0100000000000010
1000000000000100
0001111111110000
0001000000010000
0001000000010000
0001111111110000
0001000000010000
0001000000010000
0001111111110000
0001000000010000
0001000000010000
1111111111111110
0000000000000000