0000000100000000
0111111111111110
0100000000000010
1000000000000100
0001001111111000
0001000000001000
1001000111111000
0101000000001000
0101001111111000
0001000000000000
0011011111111100
0101010000000100
1001001111111000
0001000100010000
0001000011100000
0001011100011100