0000000100000000
0111111111111110
0100000000000010
1000010001000100
0011111111111000
0000010001000000
0001111111110000
0001000000010000
0001111111110000
0001000000010000
0001111111110000
0000001000000000
0111111111111100
0000010001000000
0001100000110000
1110000000001110