0000000100000000
0111111111111110
0100000000000010
1001000010000100
0001111011111000
0010001010001000
0101010001010000
0010100000100000
0001011111011000
0010000000000110
1101111111110000
0000000100000000
0001000100010000
0010000100001000
0100010100000100
0000001000000000