0000000100000000
0111111111111110
0100000000000010
1011111111110100
0000010000000000
0001111111110000
0001000000010000
0001111111110000
0001000000010000
0001111111110000
0001000000010000
1111111111111110
0000100000100000
0011011111011000
1100001001000110
0000110011000000