0000000100000000
0111111111111110
0100000000000010
1000000100000100
0111111111111100
0000010001000000
0010100000101000
0001111111110000
0010100000101000
1100111111100110
0000100000100000
0000111111100000
0000000100000000
0001000100010000
0010010100001000
0000001000000000