0000001000000000
0000000100000000
0111111111111110
0100000000000010
1010010001111100
0011101000000100
0010001000101000
0001111000010000
0010000011111110
0011111000010010
0100100001010000
0000100001011110
0111111101010000
0001010010110000
0010001010011110
0100000100000000