0000001000000000
0000000100000000
0111111111111110
0100000000000010
1000100000000100
0111111101111100
0010001001000100
0001010001111100
1111111101000100
0000100001111100
0111111101000100
0000100001111100
0010101000101000
0100100100101010
1010100101001010
0001000010000110