0000000000000000
0011111111111100
0010000000000100
0010000000000100
0011111111111100
0010000000000000
0010000000000000
0010011111111100
0010010000000100
0010010001000100
0010010001000100
0010010001000100
0010010010110100
0100000100001000
0100011000000100
1001100000000010