0000000000000000
0000001011111110
0011110010000010
0010000010000010
0010000010000010
0010000011111110
0011111010000000
0010010010100000
0010010010100010
0010010010100100
0010010010111000
0010111010100000
1111000100100010
0100000100100010
0000001000011110
0000010000000000