0000000000000000
0011111111111100
0010000000000100
0011111111111100
0010000000000000
0010111111111000
0010000010000000
0010111111111000
0010100010001000
0010111111111000
0010000010000000
0011111111111100
0101000010010100
0101011111110100
1001000000010100
0001000000001000