0011111111111100
0010000000000100
0011111111111100
0010001000001000
0010001111111000
0010001000001000
0010001111111000
0010000100010000
0010001000001000
0010111110111110
0010100010100010
0010111110111110
0100100010100010
0100111110111110
1000010100010100
0000100010100010