0001000000010000
0001000000010000
0001000000010000
1001001010010010
1001001010010010
1001001010010010
1001001010010010
1001001010010010
1111111011111110
0001001000010010
0001000000010000
0001000000010000
0010000000010000
0010000000010000
0100000000010000
1000000000010000