0000100000100000
0000100000100000
1111111111111110
0000100000100000
0000100000100000
0000000000000000
0011111111111000
0000001000001000
0000001000001000
0000001000001000
0000001000001000
0000010000001000
0000010000001000
0000100000001000
0001000001010000
0110000000100000