0000100000100000
0000100000100000
1111111111111110
0000100000100000
0000000000000000
0011111111110000
0000000000010000
0000000000010000
0000000000010000
0011111111110000
0010000000000000
0010000000000100
0010000000000100
0010000000000100
0001111111111100
0000000000000000