0000100000100000
0000100000100000
1111111111111110
0000100000100000
0000101000100000
0000000100000000
0000000100000000
0111111111111000
0000000000110000
0000000011000000
0000001100000000
0000110000000000
0011000000000000
0100100000000000
1000011111111110
0000000000000000