0000100000100000
0000100000100000
1111111111111110
0000100000100000
0000100000100000
0000000000000000
0111111111111100
0000000010000000
0000000100000000
0000001100000000
0000010101100000
0000100100011000
0011000100000100
1100000100000010
0000000100000000
0000000100000000