0000100000100000
0000100000100000
1111111111111110
0000100000100000
0000100100100000
0000000010000000
0011111111111000
0010000000001000
0010000000001000
0011111111111000
0010000000001000
0010000000000000
0010000000000000
0100000000000000
0100000000000000
1000000000000000