0000100000100000
0000100000100000
1111111111111110
0000100000100000
0000000000000000
0001111111110000
0000000000000000
0000000000000000
0111111111111100
0000010001000000
0000010001000000
0000010001000000
0000100001000100
0000100001000100
0001000001000100
0110000000111100