0000100000100000
0000100000100000
1111111111111110
0000100000100000
0000000000111000
0001111111000000
0001000000000000
0001000000000000
0001111111111100
0001000001000000
0001000001000000
0001000001000000
0010000001000000
0010000001000000
0100000001000000
1000000001000000