0000100000100000
0000100000100000
1111111111111110
0000100000100000
0000100000100000
0000000000000000
0000100000100000
0000100000100000
0000100000100000
0000100000100000
0000100000100000
0001010001010000
0001001001010000
0010001010001000
0100000100000100
1000001000000010