0000100000100000
0000100000100000
1111111111111110
0000100000100000
0000000000000000
0111111000010000
0000001000010000
0000001000010000
0011111000010000
0010000000100000
0100000000101000
0111111000100100
0000001001000100
0000001011111110
0001010001000010
0000100000000000