0000010001000000
0000010001000000
1111111111111110
0000010001000000
0000000000000000
0011111111110000
0010000000010000
0011111111110000
0010000000010000
0011111111110000
0010001000001000
0010000100010000
0010000010100000
0010010001000000
0010100000110000
0011000000001110