0000100000100000
0000100000100000
1111111111111110
0000100000100000
0000000000000000
0011111111111100
0010000010000000
0010000010000000
0010011111111000
0010010000001000
0010010000001000
0010011111111000
0010000010000000
0010000010000000
0011111111111110
0000000000000000