0000100000100000
0000100000100000
1111111111111110
0000101000100000
0000000100000000
0111111111111100
0100000000000100
1000000000001000
0001111111100000
0000000001000000
0000000010000000
1111111111111110
0000000100000000
0000000100000000
0000010100000000
0000001000000000