0000100000100000
0000100000100000
1111111111111110
0000100000100000
0000000000000000
0000100001010000
0000100001001000
0001000001000000
0011011111111110
0101000001000000
1001000010100000
0001000010100000
0001000100010000
0001000100010000
0001001000001000
0001010000000110