0000100000100000
1111111111111110
0000101000100000
0000001000000000
0111111111111100
0000010001000000
0000100000100000
0011011111011000
1100000000000110
0011111111111000
0000100000000000
0000111111100000
0000000000100000
0000000000100000
0000000101000000
0000000010000000