0000100000100000
0000100000100000
1111111111111110
0000100100100000
0000001010000000
0000010001000000
0000100000100000
0011000000011000
1100111111100110
0000000100000000
0000000100000000
0001111111110000
0000000100000000
0000000100000000
0111111111111100
0000000000000000