0000100000100000
0000100000100000
1111111111111110
0000100000100000
0000101000100000
0000000100000000
0111111111111100
0000010000000000
0000100001000000
0001111110000000
0000000100010000
0000011000100000
0011100001000000
0000000110100000
0000111000010000
0111000000001000