0000100000100000
0000100000100000
1111111111111110
0000100000100000
0000000000000000
0111111111111100
0000000100000000
0000001000000000
0011111111111000
0010010010001000
0010010010001000
0010010010001000
0010010010001000
0010010010001000
0010010010101000
0010000000010000