0000100000100000
0000100000100000
1111111111111110
0000100000100000
0000000000000000
0111111111111100
0000000100000000
0001000100010000
0001000100010000
0001000100010000
0010100100101000
0100010101000100
1000010110000100
0000000100000000
1111111111111110
0000000000000000