0000100000100000
0000100000100000
1111111111111110
0000100000100000
0010000111110000
0001000100010000
0001000100010000
1000001000001100
0100010000000000
0101001111110000
0001000100010000
0010000100010000
1110000010100000
0010000001000000
0010000110110000
0010111000001110