0000010001000000
0000010001000000
1111111111111110
0000010001000000
0000100010000000
0000100010000000
0001000011111110
0001000101000000
0011001001000000
0101010001111100
1001000001000000
0001000001000000
0001000001111110
0001000001000000
0001000001000000
0001000001000000