0000010001000000
0000010001000000
1111111111111110
0000010001000000
0000000100010000
0000000100001000
0111111111111100
0000000100000000
0010000100011000
0001000110100000
0000011101000000
0001100100100000
1110000100011000
0100000100000110
0000010100000000
0000001000000000