0000100000100000
0000100000100000
1111111111111110
0000100000100000
0001000000000000
0001000000100000
1111110000100000
0001000010101000
0001010010100100
0001100100100010
0011000100100010
1101001000101000
0001000000010000
0001000001100000
0101000110000000
0010011000000000