0000100000100000
0000100000100000
1111111111111110
0000100000100000
0010000001000000
0001000001000000
0001001111111100
1000001001000100
0100010001001000
0001000010100000
0001000010100000
1110000100100000
0010000100100000
0010001000100010
0010010000100010
0010100000011110