0000100000100000
0000100000100000
1111111111111110
0000100000100000
0000000100000000
0001000100010000
0000100100100000
0001111111110000
0001000000010000
0001111111110000
0001000000010000
0001111111110000
0001000000010000
0001000000010000
0001000001010000
0001000000100000