0000100000100000
0000100000100000
1111111111111110
0000100000100000
0000100100100000
0000001010000000
0000010001000000
0000100000100000
0011011111011000
1100000000000110
0000001000010000
0001000100010000
0000100100100000
0000100001000000
0111111111111100
0000000000000000