0000010001000000
0000010001000000
1111111111111110
0000010001000000
0100010010010000
0010100010001000
0001000010001000
0010101111111110
0100100010100000
1001100010100000
0010100010100000
0100100100100000
1000100100100000
0000101000100010
0101001000100010
0010010000011110