0000010001000000
0000010001000000
1111111111111110
0000010001000000
0001000000010000
0001000000010000
1111111011111110
0001001000010000
0010001000010000
0010001001111100
0110010001000100
0001010001000100
0000100001000100
0001010001000100
0010001001111100
1100000001000100