0000010001000000
0010010001001000
0001010001010000
0000010001000000
1111111111111110
0000100000100000
0000010001000000
0111111111111100
0000000100000000
0011111111111000
0000000100000000
1111111111111110
0000001010000000
0000010001000000
0001100000110000
1110000000001110