0000100000100000
0000100000100000
1111111111111110
0000100000100000
0000000000000000
0111110001111100
0100010001000100
0111110001111100
0100010001000100
0111110001111100
0100000000000100
0100000000000100
0100000000000100
0100000000000100
0100000000010100
0100000000001000