0000010001000000
0000010001000000
1111111111111110
0000010001000000
0010000000011000
0001001111100000
0001001000000000
0000001000000000
0111001111111100
0001001000100000
0001001000100000
0001001000100000
0001010000100000
0010100000100000
0100011111111110
0000000000000000