0000100000100000
0000100000100000
1111111111111110
0000100000100000
0000000000011100
0111110111110000
0000100101010000
0001000101010000
0001000101010000
0001110101010000
0011000101001000
1101000101001000
0001000101000100
0001001001010100
0101001001011010
0010010001101000