0000100000100000
1111111111111110
0000100100100000
0000000010000000
0001111111111100
0001000000000100
0001111111111100
0001000000000000
0001011111111000
0001010000001000
0001011111111000
0010010000001000
0010011111111000
0100010000001000
1000010000101000
0000010000010000