0000100000100000
0000100000100000
1111111111111110
0000100100100000
0000000111111000
0000000100000000
0011111111111110
0010000100000010
0010000111110000
0010111100000100
0010000011111100
0010000000000000
0010011111100000
0100010000100010
0100100000100010
1011000000011110