0000100000100000
0000100000100000
1111111111111110
0000100100100000
0000000100000000
0111111111111100
0001000100010000
0001000100010000
0010100100101000
0100010101000100
0000001110000000
0000010101000000
0000100100100000
0011000100011000
1100000100000110
0000000100000000