0000100000100000
1111111111111110
0000100100100000
0111111111111100
0000000100000000
0011111111111000
0000000100001000
1111111111111110
0000000100001000
0011111111111000
0000001000000000
1111111111111110
0000100000100000
0001110001000000
0000001111000000
0111110000111000