0000100000100000
0000100000100000
1111111111111110
0000100000100000
0010000000000000
0001011111111100
1001000001000000
0100001001001000
0100100101010000
0000100001000000
0001011111111110
1110000001000000
0010000001000000
0010000001000000
0010000001000000
0000000001000000