0000010001000000
0000010001000000
1111111111111110
0000010001000000
0010000000111000
0001001111000000
0001000001000000
1000000001000000
0100011111111100
0101000001000000
0001000001000000
0010001111111000
1110001000001000
0010001000001000
0010001111111000
0010001000001000