0000010001000000
0000010001000000
1111111111111110
0000010001000000
0001001000100000
0111111111111100
0001001000100000
0001001111100000
0001000000000000
0001111111111000
0000000100000000
1111111111111110
0000010101000000
0001100100110000
1110000100001110
0000000100000000