0000010001000000
0000010001000000
1111111111111110
0000010001000000
0000100000100000
0111111111111100
0000100000100000
0000111111100000
0000100000100000
0000111111100000
0000100000100000
1111111111111110
0001001001000000
0001010000100000
0001000000000000
0001111111111000