0000010001000000
0000010001000000
1111111111111110
0000010001000000
0001000000000100
0001111100000100
0010001000100100
0111111110100100
1010010010100100
0011111110100100
0010010010100100
0011111110100100
0010010010100100
0010010010000100
0100001010010100
1000000100001000