0000010001000000
0000010001000000
1111111111111110
0000010001000000
0000100000000000
0001111111111000
0010101001001000
0100010001001000
0000101010001000
0001000100001000
0010001010101000
0000010000010000
0000000100000000
0100100010000100
0100100000010010
1000011111110010