0000010001000000
1111111111111110
0000010001000000
0000100000000000
0000111111100000
0001000000100000
0001111111000000
0000000001000000
1111111111111110
0000011000000000
0011101100001000
0000010010110000
0001100111000000
0110001010100000
0000110010011000
0111001100000110