0000010001000000
0000010001000000
1111111111111110
0000010001000000
0010000010001000
0011110010010000
0010000011100100
0010110010000100
0011000001111100
0000010000000000
0001111111110000
0001000000010000
0001111111110000
0001000000010000
0001111111110000
0001000000010000