0000100000100000
0000100000100000
1111111111111110
0000100010100000
0010000001000000
0001001111111000
1001001000001000
0100001111111000
0100101000001000
0000101111111000
0001001001000010
1110001001000100
0010001000101000
0010001010010000
0010001100001000
0010001000000110