0000100000100000
0000100000100000
1111111111111110
0000100000100000
0000010000000000
0111100111111100
0100000001000100
0100100001000100
0101010001010100
0110001010001000
0011111111111000
0010000100001000
0011111111111000
0010000100001000
0011111111111000
0010000000001000