0000100000100000
0000100000100000
1111111111111110
0000100000100000
0001000001111000
0011111001001000
0010001001001000
0010101010000110
0010001100000000
1111111011111100
0010001001000100
0010101001000100
0010001000101000
0100001000010000
0100101000101000
1000010011000110