0000010001000000
0000010001000000
1111111111111110
0000010001000000
0001000000101000
0001000000100100
1111110111111110
0001000000100000
0001010111111100
0001100100100100
0011000111111100
1101000100100100
0001000111111100
0001000100100100
0101000100100100
0010000100001100