0000100000100000
0000100000100000
1111111111111110
0000100000100000
0111111111111110
0100000000000010
1001111111110100
0001000000010000
0001111111110000
0001000000010000
0001111111110000
0000000100000000
1111111111111110
0000100000100000
0001000000010000
0010000000001000