0000100000100000
0000100000100000
1111111111111110
0000101000100000
0000000100000000
0111111111111110
0100000000000010
1000100100100100
0001001010010000
0010010001001000
0000100000100000
0011111111111000
1100100000100110
0000100000100000
0000111111100000
0000100000100000