0000100000100000
0000100000100000
1111111111111110
0000100000100000
0010001111111000
0001000000001000
0001000111111000
1000000000001000
0100001111111000
0101000000000000
0001011111111100
0010010000000100
1110001111111000
0010000100010000
0010000011100000
0010011100011100