0000010001000000
1111111111111110
0000010001000000
0000100000100000
0111111111111100
0000100000100000
0000111111100000
0000000100000000
0011111111111000
0010000100001000
0011111111111000
0000000100000000
0111111111111100
0000000100000000
1111111111111110
0000000000000000