0000010001000000
0000010001000000
1111111111111110
0000010001000000
0001010000000000
0010011111011110
0100100100010010
1000000100010010
0001011111010010
0010000100010010
0110000100010010
1010010111010010
0010010100011010
0010010111010100
0010111000010000
0010010000010000