0000100000100000
0000100000100000
1111111111111110
0000100000100000
0001000001000000
0001000001000000
0111110001000000
0001000011111000
1111111001001000
0100010001001000
1001001011001000
0111110001001000
0001000010101010
0001110010101010
1110000100000110
0100001000000010