0000100000100000
0000100000100000
1111111111111110
0000100000100000
0000000000000000
0111110111111100
0100010000100000
0111110100100000
0100010100100000
0100010111111110
0111110001010000
0101000001010000
0100100010010010
0101010010010010
0110000100001110
0100001000000000