0000100000100000
1111111111111110
0000101000100000
0000000100000000
0111111111111110
0100000000000010
1000000000100100
0011111000111000
0000000000100000
0111111011111000
0001010000001000
0001010001010000
0001010000100100
0010010001010100
0010010010000100
0100001111111100