0000100000100000
1111111111111110
0000100000100000
0100001111111000
0010001000001000
0010001111111000
0000001000001000
1110001111111000
0010000100000000
0010001111111100
0010010001000100
0010001010100100
0010101000000100
0011001111110100
0010000000010100
0000000000001000