0000100000100000
1111111111111110
0000100000100000
0011111111110000
0000000000010000
0001111111110000
0000000000010000
0011111111110000
0000000000000000
0011111001111100
0000100001000100
0111111101111100
0000000000100000
1111111111111110
0000100000100000
0000010001100000