0000100000100000
1111111111111110
0000100000100000
0000000001110000
0001111110000000
0000001000000000
1111111111111110
0000100000100000
0011011111011000
1100010001000110
0011111111111000
0010000000001000
0010011111001000
0010010001001000
0010011111001000
0010000000011000