0000100000100000
1111111111111110
0000100000100000
0001111111110000
0001000000010000
0111111111111100
0100010001000100
0111110001111100
0000000000000000
0011111111111000
0000000000000000
1111111111111110
0001000000000000
0001111111111000
0000000000001000
0000000001110000