0000100000100000
1111111111111110
0000100000100000
0111111111111100
0100010001000100
0111111111111100
0000000000000000
0111111111111110
0100100100100010
1001000100010100
0011000111111100
0101111100010000
1001000010100000
0001000001000100
0001000110100100
0001011000011100