0000100000100000
1111111111111110
0000100000100000
0111111111111100
0100000100000100
0100111111100100
0100000100000100
0101111111110100
0100000000000100
0100111111100100
0100100000100100
0100111111100100
0100011010010100
0100101001100100
0101001000010100
0111111111111100