0000100000100000
1111111111111110
0000101000100000
0000000100000000
0111111111111110
0100010001000010
1011111111111100
0000010001000000
1111111111111110
0000100000100000
0011000111011000
1100111100000110
0000000100000000
0111111111111100
0000000100000000
0000001100000000