0000100000100000
1111111111111110
0000100100100000
0000001000000000
0001111111110000
0001000000010000
0001111111110000
0001000000010000
0001111111110000
0010000001000000
0111111011111100
0100001010000100
0111111011111100
0100001010000100
0111111011111100
0100001010000100