0000100000100000
0000100000100000
1111111111111110
0000100100100000
0011111111111100
0010010001000000
0011111111111000
0010010001001000
0011111111111000
0010100001000000
0010111101111000
0010100001000100
0010111100111100
0100000000000000
0100101001001000
1001000100100100