0000010001000000
1111111111111110
0000010001000000
0000100000000000
0111111100100000
0100100100100000
1111111110111110
0100100101000100
0111111110100100
0010101000100100
0011111000101000
0001000000101000
1111111100010000
0010001000101000
0001110001000100
0110001010000010