0000010001000000
0000010001000000
1111111111111110
0000010001000000
0010000000000000
0001000111111100
1111110100000100
0000000111111100
0111100100000100
0000000111111100
0111100010000000
0000000111111110
0111101000100010
0100110101010010
0111100111111010
0100100000000110