0000010001000000
0000010001000000
1111111111111110
0000010001000000
0010000000001100
0011111001110000
0100010000010000
1111111100010000
0100100111111110
0111111100010000
0100100100111000
0111111100110100
0000000001010100
0101010101010010
1000101010010000
0000000000010000