0000010001000000
1111111111111110
0000010001000000
0100100000000000
0111010111111110
0100010000100000
0011110011111100
0000000010000100
0000110011111100
0111000010000100
0001000011111100
1111111010000100
0001000011111100
0011100000000000
0101010001001000
1001000010000100