0000010001000000
1111111111111110
0000010001000000
0010000000100000
0010010001111100
0100101010100100
1111100000011000
0001000011100110
0010011000010000
0100101011111110
1111101000010000
0000001001111100
1010101000010000
1010101011111110
0000010100010000
0000100011111110