0000100000100000
1111111111111110
0000100000100000
0000000001000000
0111110000100000
0100010111111100
0111110001010000
0100001111111110
0111110000100000
1010010111111100
0011110000100000
0000000100000000
0111111111111100
0000010101000000
0001100100110000
1110000100001110