0000100000100000
1111111111111110
0000100000100000
0011111111111000
0010010001001000
0011111111111000
0000000000000000
0011111111111110
0010001000000100
0010101010010100
0010010100010100
0010100010010100
0010001001010100
0100101010000100
0100010100010100
1000100010001000