0000100000100000
1111111111111110
0000100000100000
0111111100111100
0010101000100100
0011111001000010
0010101000111100
1111111110100100
0100100100011000
0111111101100110
0000100001000000
0001111110000000
0000001000010000
0011111111111000
0001000100010000
0010001100001000