0000100000100000
1111111111111110
0000100010100000
0010000001000000
0010011111111100
0010000000000000
0010001111111000
1111101010101000
0010001111111000
0010001001000100
0010000100011000
0010001001000100
0011100010101000
1110000110010000
0100011010101000
0000000011000110