0000100000100000
1111111111111110
0000100000100000
0001111111110000
0001000100010000
0001111111110000
0001000100010000
0111111111111100
0100101010100100
0111111011111100
0100101010100100
0111111011111100
0010000000001000
0111111111111100
0001000100010000
0010001100001000