0000001000000000
0000000100000000
0000000100000000
1111111111111110
0000000000000000
0001000000010000
0001000000001000
0010000000100100
0100100000100100
0000010001000000
0000001010000000
0000000100000000
0000001010000000
0000110001000000
0011000000110000
1100000000001110