0000001000000000
0000000100000000
0000000100000000
1111111111111110
0000010001000000
0000010001000000
0010010001010000
0010010001001000
0010010001001000
0100010001000100
0100010001000100
1000100001000100
0000100001000000
0001000001000000
0010000101000000
0100000010000000