0000001000000000
0000000100000000
1111111111111110
0000100000000000
0000100000000000
0001001111111000
0001001000001000
0011001000001000
0101001111111000
1001001000001000
0001001000001000
0001001111111000
0001001000001000
0001000000000000
0001011111111100
0001000000000000