0000000000001000
1110111000101000
0010001000101000
0010001000101000
1010101001000100
0110011001000100
0010001010000010
0010001101111100
0010011000100100
0110101000100100
1011001000100100
0010001000100100
0010001001000100
0010001001000100
1010101010010100
0100010100001000