0001000000000000
0001000111011100
0010100001000100
0010010001000100
0100001101010100
1000000011001100
0111110001000100
0000000001000100
0000000001001100
0111110011010100
0100010101100100
0100010001000100
0100010001000100
0111110001000100
0100010101010100
0000000010001000