0001000000000000
0001000011101110
0011111000100010
0100001000100010
1010010010101010
0001100001100110
0001000000100010
0010010000100010
1100100000100110
0001111101101010
0010000110110010
1101001000100010
0000110000100010
0000100000100010
0011000010101010
1100000001000100