0001000000000000
1001001011101110
1001001000100010
1001001000100010
1111111010101010
0010000001100110
0010000000100010
0011111000100010
0100001000100110
0100001001101010
1010010010110010
0001010000100010
0000100000100010
0001000000100010
0010000010101010
1100000001000100