0000000000000000
0111110011101110
0100010000100010
0100010000100010
0111110010101010
0000000001100110
1111111000100010
1010101000100010
1010101000100110
1010101001101010
1111111010110010
1010101000100010
1010101000100010
1010101000100010
1010001010101010
1000011001000100