0000000000000000
1110111001111100
0010001000000000
1010101000000000
0110011000000000
1010101011111110
0010001001010000
0001000001010000
0111111001010000
0100001001010000
0100001001010000
0111111001010010
0100001001010010
0100001010010010
0111111010001110
0100001100000000