0111110011111000
0010010001001000
0001010000101000
0010010001001000
0111111111111100
0100000100000100
0011111111111000
0000000100000000
0001111111110000
0001000100010000
0001111111110000
0001000100010000
0001111111110000
0000000100000000
1111111111111110
0000000100000000