0001000000000000
0111111011101110
0001000000100010
0010010000100010
1111111010101010
0010010001100110
0111111000100010
0100001000100010
0111111000100110
0100001001101010
0111111010110010
0100001000100010
0111111000100010
0010010000100010
0100001010101010
1000000101000100