0000000000010000
1111111001010000
1001001001010000
1101011010010000
1011101011111100
1001001101010100
1111111111010100
0001000010010100
1111111010010100
0001000100010100
0001111101010100
1110000111010100
0000001001010100
1010101000100100
1010100000110100
1000000001001000