0000000000010000
1111111000010000
1001001000100000
1101011001000100
1011101011111110
1001001000101000
1111111001000100
0001000010100010
1111111000111100
0001000001000100
0001111001000100
1110000010101000
0000001000010000
1010101000101000
1010100001000100
1000000010000010