0001000100010000
0000100100100000
0111111111111110
0100000000000010
1001111111110100
0001000000010000
0011111111111000
0010100100101000
0010010101001000
0011111111111000
0000000100000000
0011111111111000
0000000100000000
1111111111111110
0010010001001000
0100001000100100