0000000000010000
1111111000010000
1001001011111110
1101011000010000
1011101001111100
1001001001000100
1111111001111100
0001000001000100
1111111001111100
0001000001000100
0001111001111100
1110000001000100
0000001011111110
1010101000101000
1010100001000100
1000000010000010