0000000000010000
1111111011111110
1001001000010000
1101011001111100
1011101000000000
1001001011111110
1111111010101010
0001000011111110
1111111001000100
0001000001111100
0001111001000100
1110000001111100
0000001001000100
1010101001111100
1010100000101000
1000000001000100