0000000000000000
0000000000000000
0111111111111100
0100010001000100
0100010001000100
0100010001000100
0100010001000100
0100010001000100
0100100001000100
0100100000111100
0101000000000100
0110000000000100
0100000000000100
0111111111111100
0100000000000100
0000000000000000