0000000000000000
0111111111111100
0100010001000100
0100010001000100
0100010001000100
0101111111110100
0100010001000100
0100010001000100
0100010001000100
0111111111111100
0100010001000100
0100010001000100
0100100001000100
0101000001000100
0111111111111100
0100000000000100