0000000000000000
0111111111111100
0100000100000100
0101000100010100
0101000100010100
0101111111110100
0100000000000100
0111111111111100
0100000100000100
0101111111110100
0101001010010100
0101001010010100
0101000000110100
0100000000000100
0111111111111100
0100000000000100