0111111111111100
0100000000000100
0100111111100100
0100100000100100
0100111111100100
0100000000000100
0101111111110100
0101000000010100
0101111111110100
0101000000010100
0101111111110100
0101000000010100
0101111111110100
0100010001000100
0100100000100100
0111111111111100