0111111111111100
0100000100000100
0100000100000100
0100111111100100
0100000100100100
0101111111110100
0100000100100100
0100111111100100
0100000100000100
0101111111110100
0100100000100100
0100111111100100
0100100000100100
0100111111100100
0100000000000100
0111111111111100