0111111111111100
0100000000000100
0101111111110100
0101001010010100
0101111111110100
0100000000000100
0111111111111100
0100000000000100
0100111111100100
0100100000100100
0100111111100100
0100010100010100
0100110010100100
0111010001000100
0100011000100100
0111111111111100