0000000100000000
0000000010000000
0011111111111110
0010001000100000
0011111111111100
0010001000100100
0011111111111100
0010100001000000
0010111101111000
0010100001000010
0010111100111110
0010000000000000
0010001111110000
0100001000010000
0100010000010010
1001100000001110