0000000010000000
0011111111111110
0010001000100000
0011111111111100
0010001000100100
0011111111111100
0010010000100000
0010011110111100
0010010000100010
0010011110011110
0010000010000000
0010111111111110
0010000001000000
0100011111111100
0100000001000000
1001111111111110