0000000100000000
0000000010000000
0011111111111110
0010000001000000
0010000001000000
0010000010100000
0010000100010000
0010001000001000
0010110100010110
0010000100010000
0010000100010000
0010000100010000
0100000100010000
0100001000010000
1000001000010000
0000010000010000