0000000100000000
0000000010000000
0011111111111110
0010000010000000
0010000001000000
0011111111111110
0010000010000000
0010000100000000
0010001010000100
0010011010001000
0010101001010000
0011001000100000
0100001000010000
0100001010001000
1000001100000110
0000001000000000