0000000100000000
0000000010000000
0011111111111110
0010001000100000
0010001000100000
0011111111111100
0010001000100000
0010001000100000
0010001111100000
0010000000000000
0010111111110000
0010010000010000
0100001000100000
0100000111000000
1000011000110000
0011100000001110