0000000100000000
0000000010000000
0011111111111110
0010000010000000
0010000101000000
0010001000100000
0010010000010000
0011101111101100
0010000010000000
0010000010000000
0010111111111000
0010000010000000
0100010010010000
0100100010001000
1001001010000100
0000000100000000