0000000100000000
0000000010000000
0011111111111110
0010010000010000
0010010000010000
0010010001111110
0011111100010000
0010010000010000
0010010101111100
0010011001000100
0011110001000100
0010010000101000
0100010000010000
0100010000101000
1001010001000100
0000100010000010