0000000100000000
0000000010000000
0011111111111110
0010000000000000
0010111000001110
0010001011110000
0010010000010000
0010010000010000
0010111011111110
0010001000010000
0010001000010000
0010101011111110
0100010000000000
0100011000000000
1000100111111110
0001000000000000