0000000100000000
0000000010000000
0011111111111110
0010000001001000
0010000001000100
0010111111111110
0010000001000000
0010011111111100
0010010001000100
0010011111111100
0010010001000100
0010011111111100
0010010001000100
0100010001000100
0100010001010100
1000010000001000