0000000100000000
0000000010000000
0011111111111110
0010100000000000
0010100111111100
0010100000100000
0010111001000000
0010100111111100
0010100100000100
0010100100100100
0010100100100100
0010101100100100
0010110100100100
0100100001010000
0100000010001000
1000001100000100