0000000100000000
0000000010000000
0011111111111110
0010000010000000
0010000001000000
0010111111111100
0010100100100000
0010111111111100
0010100100100100
0010111111111100
0010101000100000
0010101000100100
0100101110111000
0101001000100100
1001001010100100
0010001100011100