0000000100000000
0000000010000000
0011111111111110
0010000000000000
0010011111111100
0010010001000100
0010011111111100
0010010001000100
0010011111111100
0010000100010000
0010011111111100
0010000100010000
0010111111111110
0100000000000000
0100001000001000
1000010000000100