0000000010000000
0011111111111110
0010000000000000
0010011111111100
0010010000000100
0010011111111100
0010010001000100
0010010111111000
0010010001010000
0010011111111110
0010010001000000
0010010011111000
0100100110001000
0100101011111000
1001010010001000
0000000011111000