0000000010000000
0111111111111110
0100001000001000
0101001001001000
0100101001010000
0100101010011110
0101111111100100
0101000001010100
0101011101010100
0101010101010100
0101010101001000
0101011101001000
0101000001001000
0101000101010100
0101000010010100
1000000000100010