0000000010000000
0011111111111110
0010000010000000
0011111111111100
0010000010000000
0010111111111000
0010100010001000
0010111111111000
0010100010001000
0010111111111000
0010000010000000
0011111111111100
0100000010100100
0101111100111010
1001000100100010
0001111100011110