0000000010000000
0011111111111110
0010000001000000
0010111111111110
0010000000000000
0010011111111100
0010010000000100
0010010111110100
0010010100010100
0010011111111100
0010000000001000
0010001111110000
0100000001000000
0100111111111110
1000000101010000
0000111001001110