0000000010000000
0111111111111110
0100000000100000
0111111000100000
0101010111111110
0101010000100000
0101110111111100
0101010101010100
0101010101010100
0101110111111100
0101010000100000
0101011000010000
0101110001010100
0111010101000010
0100010101001010
1000011000111000