0000100100000000
0000100010000000
0001111111111100
0011000010000000
0101111111111000
1001000010000000
0001111111111000
0001000010000000
0001111111111100
0001000100000000
0000000100000000
1111111111111110
0000000100000000
0000000100000000
0000000100000000
0000000100000000