0000000000001000
0111110000111100
0100010111100000
0100100000100000
0100100000100000
0101000000100000
0100100000100000
0100101111111110
0100010000100000
0100010000100000
0100010000100000
0110100000100000
0101000000100000
0100000000100000
0100000000100000
0100000000100000