0000000010000000
0111110010000000
0100010010000000
0100100011111110
0100100101000000
0101000101000000
0100101001000000
0100100001111100
0100010001000000
0100010001000000
0100010001000000
0110100001111110
0101000001000000
0100000001000000
0100000001000000
0100000001000000