0000000000100000
0111100000100000
0100101111111110
0100100001010000
0101000010001000
0101000100000100
0110001011111010
0101000000000000
0100101111111110
0100100001000000
0100100010000000
0110100111111100
0101000000000100
0100000000000100
0100000000101000
0100000000010000