0000000000000000
0111101111111100
0100100000000000
0101000100100100
0101001001001000
0110010010010000
0101001001001000
0100100100100100
0100100000000000
0100101111111100
0110100001000000
0101000001000000
0100000001000000
0100000001000000
0100011111111110
0100000000000000