0000000000100000
0111110000100000
0100010111111110
0100100000100000
0100100111111100
0101000100100100
0100100100100100
0100100111111100
0100010100100100
0100010100100100
0100010111111100
0110100000100000
0101001111111110
0100000000100000
0100000000100000
0100000000100000