0000000000000000
0111110011111100
0100010010000100
0100100011111100
0100100010000100
0101000011111100
0100100000000000
0100100111111110
0100010010000000
0100010011111110
0100010100101010
0110101001001010
0101000010010010
0100000100100010
0100000001010100
0100000010001000