0000000000000000
0111110111111110
0100010100010000
0100100100010000
0100100111111100
0101000100010000
0100100101010100
0100100101010100
0100010110111010
0100010100010000
0100010100101000
0110100100100100
0101000101000010
0100000110000000
0100000111111110
0100000000000000