0000000000000000
0111110111111100
0100010100000100
0100100100000100
0100100111111100
0101000100000100
0100100100000100
0100100111111100
0100010000000000
0100011111111110
0100010000100000
0110100100100000
0101000100111100
0100000100100000
0100001010100000
0100010001111110