0000000100000100
0111100010001000
0100100000000000
0101001111111110
0101000001000000
0110000011000010
0101000100100010
0100101001010100
0100100010011000
0100100100111000
0110101001010100
0101000010010100
0100000100010010
0100011000010000
0100000001010000
0100000000100000