0000000100010000
0111110100010010
0100010111010100
0100100100011000
0100100101010010
0101000110010010
0100100100101110
0100100001000000
0100010111111100
0100010100000100
0100010100000100
0110100111111100
0101000100000100
0100000100000100
0100000111111100
0100000100000100