0000000000100000
0111110000100000
0100010111111110
0100100001000000
0100100011111100
0101000100010000
0100101011111110
0100100000000000
0100010000100000
0100010111111110
0100010001000000
0110100011111100
0101000100010000
0100001000010000
0100000111111110
0100000000000000