0000000000100000
0111110100100100
0100010010101000
0100101111111110
0100101000000010
0101000011111000
0100100010001000
0100100010001000
0100010011111000
0100010000100000
0100010000100000
0110100111111100
0101000000100000
0100000000100000
0100001111111110
0100000000000000