0000000001000000
0111110010000000
0100010111111100
0100100100000100
0100100111111100
0101000100000100
0100100111111100
0100100100000000
0100010111111110
0100010100000000
0100010111111110
0110100000000010
0101001010101010
0100001010101010
0100001000000010
0100000000001100