0000000000000000
0111101111111110
0100101000000010
0100101111111110
0101001000000010
0101001111111110
0110000100001000
0101001001010010
0100101110011100
0100100100001000
0100101001010010
0110101111011110
0101000000000000
0100001010100100
0100001001010010
0100010001010010