0001000001000000
0001000001000000
0001000001000000
0001100001000000
0101010001000000
0101001111111110
0101000001000000
1001000001000000
0001000001000000
0001000010100000
0001000010100000
0001000010010000
0001000100010000
0001000100001000
0001001000000100
0001010000000010