0001000000100000
0001000000100000
0001000000100000
0001000000100000
0001101111111110
0101011000100010
0101001000100010
0101001000100010
1001001000100010
0001001000100010
0001001111111110
0001001000100010
0001000000100000
0001000000100000
0001000000100000
0001000000100000