0001000000000000
0001000000000000
0001001111111000
0001100000000000
0101010000000000
0101000000000000
0101011111111100
1001000100100000
0001000100100000
0001000100100000
0001000100100000
0001000100100000
0001001000100010
0001001000100010
0001010000011110
0001100000000000