0001000001000000
0001000001000000
0001000001000000
0001001111111000
0001100001001000
0101010001001000
0101000001001000
0101000001001000
1001011111111110
0001000001000000
0001000010100000
0001000010100000
0001000100010000
0001000100010000
0001001000001000
0001010000000110