0001000000000000
0001000000000000
0001011111111110
0001000000100000
0001100000100000
0101010001000000
0101000001000000
0101000011010000
1001000101001000
0001001001000100
0001010001000010
0001000001000000
0001000001000000
0001000001000000
0001000001000000
0001000001000000