0000000100000000
0000000100000000
0111111111111100
0000000100000000
0000001010000000
0000010001000000
0000101000100000
0011000100011000
1100000000000110
0000000100000000
0000100010001000
0100100010000100
0100100000010010
0100100000010010
1000011111110000
0000000000000000