0001000001001000
0001001001001000
0001001001001000
0001001001001000
0001101001001000
0101011111111110
0101001001001000
0101001001001000
1001001001001000
0001001001001000
0001001001111000
0001001000000000
0001001000000000
0001001000000000
0001001111111110
0001000000000000