0001000000100000
0001000000100000
0001000001000000
0001000111111100
0001100100000100
0101010100000100
0101000100000100
0101000100000100
1001000111111100
0001000100000100
0001000100000100
0001000100000100
0001000100000100
0001000100000100
0001000111111100
0001000100000100