0001000001000000
0001000001000000
0001000001000000
0001001111111110
0001100010000000
0101010010100000
0101000100100000
0101000111111100
1001001100100100
0001010100100100
0001000100100100
0001000100100100
0001000100110100
0001000100101000
0001000000100000
0001000000100000