0001000001000000
0001000001000000
0001000010100000
0001100010100000
0101010100010000
0101001001001000
0101010000100110
1001000000100000
0001001111111000
0001000000001000
0001000000010000
0001000100010000
0001000010100000
0001000001000000
0001000000100000
0001000000100000