0001000001000000
0001000001000000
0001000001000000
0001000001000000
0001101111111100
0101010001000000
0101000001000000
0101000001000000
1001011111111110
0001000001000000
0001000010000000
0001000010000000
0001000100010000
0001001000001000
0001011111111100
0001001000000100