0001000001000000
0001000001000100
0001001001000100
0001100101001000
0101010101010000
0101000001000000
0101011111111110
1001000010010000
0001000010010000
0001000010010000
0001000010010000
0001000010010010
0001000100010010
0001000100010010
0001001000001110
0001010000000000