0000000000000000
0111110111110000
0001000100010000
0001000100010000
0001000110010000
0001000101010000
0001110100010010
1110001000010010
0100010000001110
0000100000000000
0000000100000000
0000100010000100
0100100010010010
0100100000010010
1000011111110000
0000000000000000