0001000000100000
0001000000100000
0001001111111110
0001000001010000
0001100010001000
0101010100000100
0101001011111010
0101000000000000
1001001111111110
0001000001000000
0001000010000000
0001000111111100
0001000000000100
0001000000000100
0001000000101000
0001000000010000