0001000010010000
0001000010010000
0001000010010000
0001100100010000
0101010111111110
0101001100010000
0101010100010000
1001000100111000
0001000100111000
0001000101010100
0001000101010100
0001000110010010
0001000100010000
0001000100010000
0001000100010000
0001000100010000