0100000010000000
0010000010000000
0000100111111100
0001001000000100
0010010001001000
1110000001000000
0010000010100000
0010001100011000
0010110000000110
0000000100000000
0000100010001000
0100100010000100
0100100000010010
0100100000010010
1000011111110000
0000000000000000