0000000000000000
0011111111111000
0010000100001000
0010000100001000
0010111111101000
0010000100001000
0010001010001000
0010010001001000
0010100000101000
0011111111111000
0000000100000000
0000100010000100
0100100010010010
0100100000010010
1000011111110000
0000000000000000