0000100100000000
0000100100000000
0001000111111100
0011001000000100
0101010001001000
1001100101010000
0001000101001000
0001001001000100
0001010001000100
0001000101000000
0001000010000000
0000001000000000
0101000100000100
0101000100010010
1001000000010010
0000111111110000