0000000000000000
0111111111111100
0000010001000000
0011111111111000
0010010001001000
0010010001001000
0011111111111000
0000010001000000
1111111111111110
0000000100000000
0000100010001000
0100100010000100
0100100000010010
0100100000010010
1000011111110000
0000000000000000