0000010001000000
0000010001000000
0111110001111100
0000010001000000
0000010001000000
0011110001111000
0000010001000000
0000010001000000
0111110001111100
0000010001000000
0000000100000000
0000100010000100
0100100010010010
0100100000010010
1000011111110000
0000000000000000