0001000010000000
0001000001000000
0001001111111100
0001100000000000
0101010100010000
0101000100010000
0101001010101000
1001010001000100
0001000000000000
0001000001000000
0001011111111110
0001000001000000
0001000001000000
0001000001000000
0001000001000000
0001000001000000