0001000000000000
0001000011111100
0001000010000000
0001100011111000
0101010010000000
0101000011111000
0101000010000000
1001011111111110
0001000101000000
0001000100100100
0001000100101000
0001000100010000
0001000100001000
0001000101000100
0001000110000010
0001000100000000