0001000001000000
0001000000100000
0001001111111100
0001001000000100
0001101000000100
0101011111111100
0101001000000000
0101001000101000
1001001000100100
0001001111111110
0001001000100000
0001001001010000
0001001001010000
0001010010001000
0001010100000100
0001101000000010