0001000001000000
0001000000100000
0001000000100000
0001001111111110
0001101000000010
0101010010010100
0101000100001000
0101001000000100
1001000000000000
0001000111111100
0001000000100000
0001000000100000
0001000000100000
0001000000100000
0001011111111110
0001000000000000