0000011000000000
0111100001111100
0000100001000100
0000100001000100
1111111101000100
0001110001000100
0010101001000100
0100100101111100
1000100001000100
0000100000000000
0000000100000000
0000100010000100
0100100010010010
0100100000010010
1000011111110000
0000000000000000