0001000000100000
0001000100100100
0001000010101000
0001101111111110
0101010001000000
0101000010000000
0101011111111110
1001000100001000
0001001000000100
0001010111111010
0001100100001000
0001000100001000
0001000100101000
0001000100010010
0001000100000010
0001000011111110