0001000001000000
0001001001000100
0001001001000100
0001010001001000
0001100010100000
0101010100010000
0101011000001000
0101000001000100
1001000001000000
0001001001001000
0001001001001000
0001010001010000
0001000010100000
0001000100010000
0001001000001000
0001110000000110