0010000001000000
0010000001000000
0010000010100000
0011000100010000
1010101010001000
1010010001000110
1010100000000000
1010001111110000
0010000000010000
0010000000100000
0010000001000000
0010000100100100
0010010100100010
0010010100001010
0010100100001000
0010000011111000