0001000000000000
0001001111111000
0001001000001000
0001001000001000
0001101111111000
0101011000001000
0101001111111000
0101001000001000
1001001111111000
0001001000001000
0001001000001000
0001111111111110
0001000000000000
0001000100010000
0001001000001000
0001010000000100