0000100000000000
0000111111110000
0001000000100000
0010110001000000
0000001110000000
0001110001110000
1110000000001110
0001111111110000
0001000100010000
0001111111110000
0001000100010000
0001111111110000
0000000100000000
0100100010000100
0100100000010010
1000011111110010