0010000001000000
0010010001000100
0010010001000100
0011010001000100
1010111111111100
1010000000000000
1010111111111110
1010000001000000
0010000010000000
0010011111111100
0010010010100100
0010010010100100
0010010010100100
0010010010100100
0010010010100100
0010010000001100