0001000001000000
0001000000100000
0001001111111110
0001001000000010
0001101000000010
0101011111111110
0101001000000000
0101001000000000
1001001111111110
0001001101010010
0001010101010010
0001010111111110
0001010101010010
0001010101010010
0001100101010010
0001000100000110