0000100000010000
0111111100010000
0000100000010000
0111111101111110
0100000100010010
0011111000010010
0000010000010010
0000111100010010
0111100000100010
0000100000100010
0010100001001010
0001000010000100
0000000100000000
0100100010000100
0100100000010010
1000011111110010