0001000010000000
0001000010000000
0001000011111100
0001000101010100
0001101011010100
0101010010110100
0101000100101100
0101001001000100
1001000010010100
0001000100001000
0001000001000000
0001000010100100
0001001010101010
0001001010001010
0001010001111000
0001000000000000