0001000000000000
0001001111111100
0001001001000100
0001001001000100
0001101111111100
0101011001000100
0101001001000100
0101001111111100
1001000000000000
0001000001000000
0001000000100100
0001010100100010
0001010100001010
0001100100001000
0001000011111000
0001000000000000