0001000000000000
0001001111111100
0001001010010100
0001101010010100
0101011010010100
0101001111111100
0101000010000000
1001000001000000
0001011111111110
0001000010000000
0001000011111000
0001000010001000
0001000100001000
0001000100001000
0001001000101000
0001010000010000