0001000000000000
0001000111111100
0001000000100000
0001000000100000
0001101111111110
0101010000000000
0101000111111100
0101000100000100
1001000111111100
0001000100000100
0001000111111100
0001000100000100
0001000111111100
0001000010001000
0001000100000100
0001001000000010