0001000000000000
0001000111111000
0001000100001000
0001000100001000
0001100111111000
0101010000000000
0101001111111100
0101001000000100
1001001111111100
0001001000000100
0001001111111100
0001001000000100
0001001111111100
0001000010010000
0001000100001000
0001001000000100