0001000000000000
0001000111111000
0001000100001000
0001000111101000
0001100100101000
0101011111111110
0101010000000010
0101000111111000
1001000100001000
0001000111111000
0001000100001000
0001000111111000
0001000100001000
0001000100001000
0001000100101000
0001000100010000