0000100000100000
0000100000100000
0111111101111100
0010101000100100
0010101000100100
0101110100100100
0000100000100100
0001110001000100
0010101010010100
0100100000001000
0000000100000000
0000100010000100
0100100010010010
0100100000010010
1000011111110000
0000000000000000