0001000000111100
0001001111000000
0001000001000100
0001001000100100
0001100100101000
0101010100000000
0101000001000000
0101001110011100
1001001000000100
0001001000000100
0001001110011100
0001001000000100
0001001000000100
0001001000000100
0001001111111100
0001001000000100