0010000001000000
0010000001000000
0010011111111100
0010000001000000
0011001111111000
1010101000001000
1010001111111000
1010001000001000
1010001111111000
0010001000001000
0010001111111000
0010001000001000
0010111111111110
0010000100010000
0010001000001000
0010010000000100