0011111111111000
0000000100000000
0111111111111100
0000000000000000
0001111111110000
0001000000010000
0001111111110000
0001000000010000
0001111111110000
0001000000010000
0001111111110000
0000100000100000
0001000100010000
0100100010000100
0100100000010010
1000011111110010