0000100000100000
0000100000100000
1111111110111110
0000100001000100
0111111110100100
0100100100100100
0111111100101000
0001110000101000
0010101000010000
0100100100101000
1000100001000100
0000100010000010
0000000100000000
0100100010000100
0100100000010010
1000011111110010