0000100000000100
0111111101111000
0000100001000000
0111111101000000
0100100101111110
0111111101001000
0100100101001000
0111111101001000
0000100001001000
0111111101001000
0000100010001000
0000001000000000
0101000100000100
0101000100010010
1001000000010010
0000111111110000