0001000000100000
0001001000100010
0001001111111110
0001000010010000
0001100010001000
0101010111111110
0101001100010000
0101010100010000
1001000111111110
0001000100010000
0001000100010000
0001000111111110
0001000100010000
0001000100010000
0001000111111110
0001000100000000