0000100001111000
0111111101001000
0000100001001000
0011111010000110
0000000001111000
0111111101001000
0100000101001000
1001110000101000
0001010100010000
0010011000101000
0100000001000110
0000001000000000
0101000100000100
0101000100010010
1001000000010010
0000111111110000