0000101000100000
0000100100100000
0111111110111110
0000100001000100
0110101010100100
0001110000100100
0010101000101000
0100100100010000
0010100000101000
0001000001000110
0000000100000000
0000100010000100
0100100010010010
0100100000010010
1000011111110000
0000000000000000