0001000100010000
0010000100010000
0100000100010000
1000101010101000
0001010001000100
0011001001000000
0101001001111100
1001001001000000
0001010101000000
0001100011111110
0001000100000000
0000100010000100
0100100010010010
0100100000010010
1000011111110000
0000000000000000