0000000100000000
0000000111111100
0000000100000000
0011111111111110
0010000100000010
0010111111110100
0010000100000000
0010011111111000
0010010001001000
0010011111111000
0010010001001000
0010011111111000
0010000010000000
0100101001000100
0101001000010010
1000000111110000