0000000010000000
0011111111111110
0010001000100000
0011111111111100
0010001000100100
0011111111111100
0010000000000000
0011111111111110
0010000010000010
0010101001010100
0011000111110010
0010001000000000
0010011111111000
0100101000001000
0100000111110000
1001111000001110