0001010001010000
0001010001010000
0111111111111100
0010010001010010
0100011111001110
1000000000000000
0111111111111100
0100000100000100
0001111111110000
0001000100010000
0001000101010000
0001000100100000
0000000100000000
0100100010000100
0100100000010010
1000011111110010