0010000001000000
0010001111111000
0010001001001000
0010111111111110
0011001001001000
1010101111111000
1010000001000000
1010001111111000
1010001001001000
0010001111111000
0010000010000000
0010111111111110
0010000100010000
0010000011100000
0010001100011000
0010110000000100