0000000000101000
0000000000100100
0011111111111110
0010001000100000
0010001100100100
0010001000100100
0010111110101000
0010001000101000
0010101010010010
0101001000101010
0100011001000110
1000000100000010
0010100010001000
0010100010100100
0100100000100100
0000011111100000