0001000000100000
0001000100100100
0001000010101000
0001001111111110
0001101000000010
0101010011111000
0101000010001000
0101000010001000
1001000011111000
0001000000100000
0001000000100000
0001000111111100
0001000000100000
0001000000100000
0001001111111110
0001000000000000