0000100001000000
0001010001000000
0010001001111100
0101110010000100
1000100101000100
0011111000101100
0000100000010100
0100101000100100
0010100011000100
0000111000101000
0111000000010000
0010001000000000
0101000100000100
0101000100010010
1001000000010010
0000111111110000