0001001000010000
0001001000010000
0001001111011110
0001010100101000
0001100010100100
0101010000100000
0101001111111110
0101000000100000
1001001111111110
0001001000100010
0001001000101010
0001001001110100
0001000010101000
0001000100100100
0001011000100010
0001000000100000