0001000000100000
0001000000100000
0001000111111100
0001000000100000
0001101111111110
0101010100001000
0101001110011100
0101000100001000
1001000110001000
0001011000111110
0001000000000000
0001001111111110
0001000010010000
0001000010010000
0001000100010010
0001001000001110