0010000000000000
0010011110111100
0010010010100100
0010011110111100
0011010010100100
1010111110111100
1010010010000100
1010010001000100
1010010111110100
0010010000100100
0010010010100100
0010010001000100
0010010010100100
0010010100000100
0010010000010100
0010010000001000