0000000100000000
0111111111111100
0100000100000100
0011111111111000
0000000100000000
0001111111110000
0000000100000000
1111111111111110
0000000100000000
0011111111111000
0010010001001000
0011111111111000
0000000100000000
0100100010000100
0100100000010010
1000011111110010