0010000001000000
0010000001000000
0010000010100000
0011000100010000
1010101000001000
1010010111110110
1010100000000000
1010011110111100
0010010010100100
0010010010100100
0010011110111100
0010001000010000
0010001000010000
0010010100101000
0010100101000100
0011000010000010