0010000000000000
0010001111111100
0010001010010100
0011001010010100
1010101111111100
1010000000000000
1010011111111110
1010000000000000
0010001111111100
0010001000000100
0010001111111100
0010000010100010
0010000100010100
0010001100001000
0010110101000100
0010000110000010