0010011110001000
0010000010001000
1111101010111110
0010000100001000
0111011111011000
0110101101011100
1010010100101010
0010100101001000
0010010100001000
0010001000001000
0000000100000000
0000100010000100
0100100010010010
0100100000010010
1000011111110000
0000000000000000