0000000000000000
0011111111111110
0010100010001100
0010111110001010
0010100010001000
0010111110111110
0010000000001000
0010111110001000
0010100010001000
0010111110010100
0010100010010100
0010100110100010
0100000010000000
0100001001000000
1000101000010100
0001000111110010