0100001010101000
0010011111111100
0010001010101010
1000010011100110
0100000000000000
0101011111111100
0001010001000100
1110001111111000
0010001001001000
0010001001011000
0010000101000000
0000100010000100
0100100010010010
0100100000010010
1000011111110000
0000000000000000