0010000001000000
0010111111111110
0010000001000000
0010011111111100
0011000000000000
1010101111111000
1010001000001000
1010111111111110
1010100000000010
0010011111111100
0010000100010000
0010001111111000
0010000001000000
0010011111111100
0010000001000000
0010111111111110