0010000001000000
0010011111111100
0010000001000000
0011001111111100
1010100000000000
1010011111111110
1010000000000010
1010001111111000
0010000001000000
0010011111111110
0010000000000000
0010011111111110
0010000000001000
0010011111111110
0010010010101000
0010011110011000