0010000001000000
0010000000100000
0010011111111110
0010010010001000
0011010111111100
1010110010001000
1010011111111110
1010010000100000
1010010111111100
0010010100100100
0010010111111100
0010010100100100
0010010111111100
0010010000000000
0010010010001000
0010100100000100