0000101000100000
1111111110100000
0100100100111110
0111111101000100
0100100110100100
0101000100100100
0000100000101000
1111111100101000
0010000000010000
0011111000101000
0100001001000100
1000011010000010
0000000100000000
0100100010000100
0100100000010010
1000011111110010