0010001000000010
0010010111100010
0010010010100010
0010011010101010
0011010100101010
1010111001101010
1010000100001010
1010001010001010
1010010001001010
0010101110101010
0010000100001010
0010011111001010
0010000100100010
0010010101000010
0010000111101010
0010111000000100