0001000010001000
0001001111011110
0001000010001000
0001100111011100
0101010010001000
0101001111011110
0101000010001000
1001001111111100
0001000000000100
0001000111111100
0001000000000100
0001001111111100
0001000001000000
0001001010100100
0001001010001010
0001010001111010