0010000000100000
0010011111111110
0010010010001000
0010011111011110
0011010010001000
1010110111011100
1010011010101010
1010010010001000
1010010001010000
0010011111011110
0010010001010000
0010010111011100
0010010001010000
0010101111011110
0010100001010000
0011000001010000