0001000001000000
1111111011111000
0010100101001000
1111111000110000
0000000111001110
0111110011111000
0100010000100000
0111110111111100
0100010010001000
0111110010101000
0001000010101000
1111111001010000
0001000110001000
0100100010000100
0100100000010010
1000011111110010