0001000001000000
0001000001000000
0001000001000000
0001000010000000
1111111011111110
0001000100001000
0001001010001000
0001000010001000
0111110010001000
0100010001010000
0100010001010000
0100010000100000
0100010001010000
0111110010001000
0100010100000100
0000001000000010