0000100000010000
0000100000010000
1111111110010000
0000100000100000
0000100000111110
0111111101000100
0100100100100100
0100100100100100
0100110100100100
0100101000101000
0001110000101000
0010101000010000
0100100100101000
1000100010101000
0000100001000100
0000100010000010