0000100000100000
0000100000100000
0001010000100000
0001001000111110
0010000101000100
0100000011000100
1011111001000100
0000000010100100
0001000100101000
0000100100101000
0100100100010000
0010001000010000
0010001000101000
0000011101001000
0111100010000100
0010000100000010