0000000000100000
0111111000100000
0100001000100000
0111111000111110
0100001001000100
0111111001000100
0000000001000100
1111111110100100
0100000000101000
0111111100101000
1001010100010000
0010010100010000
0100100100101000
1001000101001000
0010101010000100
0100010100000010