0001000000100000
0000100000100000
0111111100100000
0010001000111110
0001010001000100
0111111101000100
0100000101000100
0100100110100100
0111111100101000
0100100100101000
0101110100010000
0101010100010000
0101010100101000
0101110100101000
0100000101000100
0100001110000010