0000001000000000
0000001000000000
0000001111111000
0000001000000000
0000001000000000
0000001000000000
1111111111111110
0000000100000000
0000000100000000
0000100100100000
0001000100010000
0010000100001000
0100000100000100
0000000100000000
0000010100000000
0000001000000000