0000000000000000
0111111111111110
0100000100000010
1000000100000100
0011111111111000
0000000100000000
0001111111110000
0001000100010000
0001111111110000
0001000100010000
0001111111110000
0000000100000000
1111111111111110
0000000100000000
0000000100000000
0000000100000000