0000100000000000
0000100001111100
0000100000010000
1111111100010000
0000100000010000
0111111100010000
0100100100010000
0111111101111110
0100100100010000
0111111100010000
0000100000010000
1111111100010000
0000100000010000
0000100000010000
0000100000010000
0000100000010000