0001000000000000
0001000011111000
0001000010001000
1111111010001000
0001000010001000
0111110100000110
0101011000000000
0111110111111100
0101010010000100
0111110010000100
0001000001001000
1111111001010000
0001000000100000
0001000001010000
0001000010001000
0001001100000110