0001000001000000
0001000001000000
0001000011111100
1111111010000100
0001000100000100
0111111011110100
0101010010010100
0111110010010100
0101010011110100
0111110010000100
0001000010010100
1111111010001000
0001000010000010
0001000010000010
0001000001111110
0001000000000000