0001000001000100
0001000001000100
0001000001000100
1111111010000100
0001000010111110
0111110110000100
0101011010000100
0111110010100100
0101010010010100
0111110010010100
0001000010000100
1111111010000100
0001000010000100
0001000010000100
0001000010010100
0001000010001000