0001000000000000
0001000111111100
0001000001000100
1111111001000100
0001000001000100
0111110001000100
0101010010010100
0111110010001000
0101010100000000
0111110011111100
0001000010000100
1111111010000100
0001000010000100
0001000010000100
0001000011111100
0001000010000100