0001000000000000
0001000011111100
0001000000100100
1111111000100100
0001000111111110
0111110000100100
0101010000100100
0111110011111100
0101010001000000
0111110001000000
0001000011111100
1111111011000100
0001000101000100
0001000001000100
0001000001111100
0001000001000100