0001000000000000
0001001111100000
0001000101011100
1111110101010100
0001000101010100
0111110111010100
0101010101010100
0111110101010100
0101010111010100
0111110101010100
0001000101001000
1111110101101000
0001001111001000
0001000001010100
0001000001010100
0001000001100010