0001000000100000
0001000000100000
0001000001010000
1111111010001000
0001000100000100
0111111011111010
0101010000000000
0111110111111100
0101010101010100
0111110101010100
0001000111111100
1111111101010100
0001000101010100
0001000101010100
0001000100000100
0001000100001100