0001000000000000
0001000011111000
0001000010001000
1111111010001000
0001000011111000
0111110010001000
0101010010001000
0111110011111000
0101010000000000
0111110111111100
0001000101010100
1111111101010100
0001000101010100
0001000101010100
0001001111111110
0001000000000000