0010000001000000
0010000000100000
0010001111111110
1111101000000010
0010010000100100
1111100111111100
1010100000100000
1111100111111100
1010100000100000
1111101111111110
0010000000100000
1111100111111100
0010000100000100
0010000100000100
0010000111111100
0010000100000100