0010000000010100
0010000000010010
0010001111111110
1111101000010000
0010001011110000
1111101000010100
1010101011110100
1111101010111000
1010101011101010
1111101000010110
0010010001000010
1111100000100100
0010001010100010
0010001010001010
0010010001111000
0010000000000000