0010000000100000
0010000000100000
0010000000100000
1111110000100000
0100000111111100
0101000100100100
1001000100100100
1111110100100100
0001000100100100
0001000111111100
0001110100100100
1111000100100100
0101000100100100
0001000100100100
0001000111111100
0001000100000100