0010000000101000
0010000000100100
0010001111111110
1111110000100000
0100000000100000
0101000111111100
1001000100100100
1111110100100100
0001000111111100
0001000100100100
0001110100100100
1111000111111100
0101000100100100
0001000100100100
0001000100100100
0001000100001100