0010000000000000
0010000111111100
0010000100000100
1111110100000100
0100000111111100
0101000100000100
1001000100000100
1111110111111100
0001000000000000
0001000100010010
0001110111010100
1111000100011000
0101000100010000
0001000101010010
0001000110010010
0001000100001110