0010000000000000
0010001111111100
0010001000000100
1111101000000100
0100001111111100
0101001001001000
1001001001001000
1111111011111100
0001001001001000
0001001001001000
0001111111111110
1111001010100100
0101001010101000
0001010010010000
0001010011001000
0001100010000110