0000000000010000
0000000011111000
0011111100000000
0010000000000000
0010000000000000
0011111111111000
0010010000001000
0010010000010000
0010001000010000
0010001000100000
0010000101000000
0010000010000000
0100000101000000
0100001000100000
1000110000011000
0011000000000110