0000100000000000
0000100000000000
0001010011111100
0010001001000100
0100000101000100
1011111001000100
0000100001000100
0000100000101000
0111111100101000
0000100000101000
0010101000010000
0010100100010000
0100100100101000
1000100001001000
0010100010000100
0001000100000010