0000001000000000
0000000100000000
0111111111111110
0100000100010010
1001000100100100
0010001011000000
0000010000110000
0001100000001100
1110000000000010
0011111111110000
0001000000010000
0000100000100000
0000010001000000
0000001110000000
0001110001110000
1110000000001110