0001000000000000
0001000011111100
0001000010000100
0001000010000100
0111110010010100
0001000010001000
0001000010000000
0001000011111100
1111111010100100
0001000010100100
0001000010101000
0010010010101000
0100001010010000
1111111010101000
0100001011000100
0000000010000010