0000001000000000
0000000100000000
1111111111111110
0000000000000000
0000111111100000
0000100000100000
0000100000100000
0000111111100000
0000000000000000
0111111111111100
0100000000000100
0100111111100100
0100100000100100
0100100000100100
0100111111100100
0100000000001100